[
  {
    "link_thumb": "https://live.staticflickr.com/65535/49693584503_746fa8842a_n.jpg",
    "id_album": "-755466332",
    "description": "KAWAII120918128",
    "title": "KAWAII120918128",
    "link_img": "https://live.staticflickr.com/65535/49693584503_76342d4c76_o.jpg",
    "id_image": "KAWAII120918128",
    "count_view": 0
  },
  {
    "link_thumb": "https://live.staticflickr.com/65535/49694127511_dfcb8f8d26_n.jpg",
    "id_album": "-755466332",
    "description": "KAWAII120918329",
    "title": "KAWAII120918329",
    "link_img": "https://live.staticflickr.com/65535/49694127511_fd11edfdf7_o.jpg",
    "id_image": "KAWAII120918329",
    "count_view": 0
  },
  {
    "link_thumb": "https://live.staticflickr.com/65535/49694127666_c8551f3481_n.jpg",
    "id_album": "-755466332",
    "description": "KAWAII12091874",
    "title": "KAWAII12091874",
    "link_img": "https://live.staticflickr.com/65535/49694127666_91c51285b1_o.jpg",
    "id_image": "KAWAII12091874",
    "count_view": 0
  }
]