[
  {
    "link_thumb": "https://live.staticflickr.com/65535/49694371987_aff287f26d_n.jpg",
    "id_album": "-643980979",
    "description": "KAWAII0503202021106",
    "title": "KAWAII0503202021106",
    "link_img": "https://live.staticflickr.com/65535/49694371987_c04ff20047_o.jpg",
    "id_image": "KAWAII0503202021106",
    "count_view": 0
  },
  {
    "link_thumb": "https://live.staticflickr.com/65535/49743236852_27bb7c199f_n.jpg",
    "id_album": "-1497779911",
    "description": "KAWAII060420214911124",
    "title": "KAWAII060420214911124",
    "link_img": "https://live.staticflickr.com/65535/49743236852_719f1ee19a_o.jpg",
    "id_image": "KAWAII060420214911124",
    "count_view": 0
  },
  {
    "link_thumb": "https://live.staticflickr.com/65535/49694115256_2cb04d6c80_n.jpg",
    "id_album": "-643980979",
    "description": "KAWAII170220234611",
    "title": "KAWAII170220234611",
    "link_img": "https://live.staticflickr.com/65535/49694115256_299f262f28_o.jpg",
    "id_image": "KAWAII170220234611",
    "count_view": 0
  },
  {
    "link_thumb": "https://live.staticflickr.com/65535/49694388417_0823b76ba4_n.jpg",
    "id_album": "1201366373",
    "description": "KAWAII120918162",
    "title": "KAWAII120918162",
    "link_img": "https://live.staticflickr.com/65535/49694388417_d1d490b578_o.jpg",
    "id_image": "KAWAII120918162",
    "count_view": 0
  },
  {
    "link_thumb": "https://live.staticflickr.com/65535/49742410363_1acfd7c229_n.jpg",
    "id_album": "1226948986",
    "description": "KAWAII060420214912216",
    "title": "KAWAII060420214912216",
    "link_img": "https://live.staticflickr.com/65535/49742410363_8ef30bc8d8_o.jpg",
    "id_image": "KAWAII060420214912216",
    "count_view": 0
  },
  {
    "link_thumb": "https://live.staticflickr.com/65535/49694104556_18a17eb7e2_n.jpg",
    "id_album": "1201366373",
    "description": "KAWAII12091893",
    "title": "KAWAII12091893",
    "link_img": "https://live.staticflickr.com/65535/49694104556_0abc29feb6_o.jpg",
    "id_image": "KAWAII12091893",
    "count_view": 0
  },
  {
    "link_thumb": "https://live.staticflickr.com/65535/49592708311_2d65f18178_n.jpg",
    "id_album": "1396902986",
    "description": "KAWAII270220235139",
    "title": "KAWAII270220235139",
    "link_img": "https://live.staticflickr.com/65535/49592708311_0cf0c4c8f1_o.jpg",
    "id_image": "KAWAII270220235139",
    "count_view": 0
  },
  {
    "link_thumb": "https://live.staticflickr.com/65535/49622333383_66149eb52f_n.jpg",
    "id_album": "-406350429",
    "description": "KAWAII0503202021309",
    "title": "KAWAII0503202021309",
    "link_img": "https://live.staticflickr.com/65535/49622333383_b5ce7cf8e8_o.jpg",
    "id_image": "KAWAII0503202021309",
    "count_view": 0
  },
  {
    "link_thumb": "https://live.staticflickr.com/65535/49693532508_04ee857034_n.jpg",
    "id_album": "-643980979",
    "description": "KAWAII050320202148",
    "title": "KAWAII050320202148",
    "link_img": "https://live.staticflickr.com/65535/49693532508_b26d148096_o.jpg",
    "id_image": "KAWAII050320202148",
    "count_view": 0
  },
  {
    "link_thumb": "https://live.staticflickr.com/65535/49727781682_2040643dc2_n.jpg",
    "id_album": "-1862561193",
    "description": "KAWAII02042019450961",
    "title": "KAWAII02042019450961",
    "link_img": "https://live.staticflickr.com/65535/49727781682_3cb61d2e09_o.jpg",
    "id_image": "KAWAII02042019450961",
    "count_view": 0
  },
  {
    "link_thumb": "https://live.staticflickr.com/65535/49694375157_db336622d4_n.jpg",
    "id_album": "-643980979",
    "description": "KAWAII0503202021228",
    "title": "KAWAII0503202021228",
    "link_img": "https://live.staticflickr.com/65535/49694375157_cec48781da_o.jpg",
    "id_image": "KAWAII0503202021228",
    "count_view": 0
  },
  {
    "link_thumb": "https://live.staticflickr.com/65535/49548797477_8571510e7c_n.jpg",
    "id_album": "-316663319",
    "description": "KAWAII120918211",
    "title": "KAWAII120918211",
    "link_img": "https://live.staticflickr.com/65535/49548797477_695593c1eb_o.jpg",
    "id_image": "KAWAII120918211",
    "count_view": 0
  },
  {
    "link_thumb": "https://live.staticflickr.com/65535/49743279642_bfeb410fe6_n.jpg",
    "id_album": "-1431786825",
    "description": "KAWAII060420214915284",
    "title": "KAWAII060420214915284",
    "link_img": "https://live.staticflickr.com/65535/49743279642_dacfa22629_o.jpg",
    "id_image": "KAWAII060420214915284",
    "count_view": 0
  },
  {
    "link_thumb": "https://live.staticflickr.com/65535/49727428046_1b7b2dda83_n.jpg",
    "id_album": "-1694302085",
    "description": "KAWAII190220211134",
    "title": "KAWAII190220211134",
    "link_img": "https://live.staticflickr.com/65535/49727428046_06fc7fe4d0_o.jpg",
    "id_image": "KAWAII190220211134",
    "count_view": 0
  },
  {
    "link_thumb": "https://live.staticflickr.com/65535/49742950221_4312b49a6a_n.jpg",
    "id_album": "-1862561193",
    "description": "KAWAII060420214912115",
    "title": "KAWAII060420214912115",
    "link_img": "https://live.staticflickr.com/65535/49742950221_7ea92642e8_o.jpg",
    "id_image": "KAWAII060420214912115",
    "count_view": 0
  },
  {
    "link_thumb": "https://live.staticflickr.com/65535/49693574928_79d3589446_n.jpg",
    "id_album": "-643980979",
    "description": "KAWAII17022023467",
    "title": "KAWAII17022023467",
    "link_img": "https://live.staticflickr.com/65535/49693574928_f5cb637a76_o.jpg",
    "id_image": "KAWAII17022023467",
    "count_view": 0
  },
  {
    "link_thumb": "https://live.staticflickr.com/65535/49743234292_8fa71a5011_n.jpg",
    "id_album": "-1694302085",
    "description": "KAWAII060420214918272",
    "title": "KAWAII060420214918272",
    "link_img": "https://live.staticflickr.com/65535/49743234292_684fa57def_o.jpg",
    "id_image": "KAWAII060420214918272",
    "count_view": 0
  },
  {
    "link_thumb": "https://live.staticflickr.com/65535/49727464601_e44b37d61b_n.jpg",
    "id_album": "1396902986",
    "description": "KAWAII02042019451047",
    "title": "KAWAII02042019451047",
    "link_img": "https://live.staticflickr.com/65535/49727464601_5672fec016_o.jpg",
    "id_image": "KAWAII02042019451047",
    "count_view": 0
  },
  {
    "link_thumb": "https://live.staticflickr.com/65535/49622328183_2d185dcd88_n.jpg",
    "id_album": "-406350429",
    "description": "KAWAII0503202021133",
    "title": "KAWAII0503202021133",
    "link_img": "https://live.staticflickr.com/65535/49622328183_1fa19329b7_o.jpg",
    "id_image": "KAWAII0503202021133",
    "count_view": 0
  },
  {
    "link_thumb": "https://live.staticflickr.com/65535/49548889667_c6eddf8f20_n.jpg",
    "id_album": "-422187261",
    "description": "KAWAII1702202235197",
    "title": "KAWAII1702202235197",
    "link_img": "https://live.staticflickr.com/65535/49548889667_866252b1f5_o.jpg",
    "id_image": "KAWAII1702202235197",
    "count_view": 0
  },
  {
    "link_thumb": "https://live.staticflickr.com/65535/49726893053_4d660b063a_n.jpg",
    "id_album": "-316663319",
    "description": "KAWAII020420194513251",
    "title": "KAWAII020420194513251",
    "link_img": "https://live.staticflickr.com/65535/49726893053_085b300972_o.jpg",
    "id_image": "KAWAII020420194513251",
    "count_view": 0
  },
  {
    "link_thumb": "https://live.staticflickr.com/65535/49693561193_9c73ba3d04_n.jpg",
    "id_album": "1201366373",
    "description": "KAWAII12091885",
    "title": "KAWAII12091885",
    "link_img": "https://live.staticflickr.com/65535/49693561193_49366dbf09_o.jpg",
    "id_image": "KAWAII12091885",
    "count_view": 0
  },
  {
    "link_thumb": "https://live.staticflickr.com/65535/49742912381_90edc266d6_n.jpg",
    "id_album": "-1741487325",
    "description": "KAWAII0604202149148",
    "title": "KAWAII0604202149148",
    "link_img": "https://live.staticflickr.com/65535/49742912381_80fe295221_o.jpg",
    "id_image": "KAWAII0604202149148",
    "count_view": 0
  },
  {
    "link_thumb": "https://live.staticflickr.com/65535/49727763977_e863d26ff9_n.jpg",
    "id_album": "742877173",
    "description": "KAWAII020420194512253",
    "title": "KAWAII020420194512253",
    "link_img": "https://live.staticflickr.com/65535/49727763977_92c1b7021c_o.jpg",
    "id_image": "KAWAII020420194512253",
    "count_view": 0
  },
  {
    "link_thumb": "https://live.staticflickr.com/65535/49592207248_426b3e5f30_n.jpg",
    "id_album": "-1741487325",
    "description": "KAWAII1702202235146",
    "title": "KAWAII1702202235146",
    "link_img": "https://live.staticflickr.com/65535/49592207248_43f8e028ce_o.jpg",
    "id_image": "KAWAII1702202235146",
    "count_view": 0
  },
  {
    "link_thumb": "https://live.staticflickr.com/65535/49552522646_f48c42dffb_n.jpg",
    "id_album": "431597977",
    "description": "KAWAII12091825180220205948",
    "title": "KAWAII12091825180220205948",
    "link_img": "https://live.staticflickr.com/65535/49552522646_e82ca66f82_o.jpg",
    "id_image": "KAWAII12091825180220205948",
    "count_view": 0
  },
  {
    "link_thumb": "https://live.staticflickr.com/65535/49548560621_51602de8fb_n.jpg",
    "id_album": "-1741487325",
    "description": "KAWAII120918165",
    "title": "KAWAII120918165",
    "link_img": "https://live.staticflickr.com/65535/49548560621_5f6ce9a1d9_o.jpg",
    "id_image": "KAWAII120918165",
    "count_view": 0
  },
  {
    "link_thumb": "https://live.staticflickr.com/65535/49548925972_dd3fa62419_n.jpg",
    "id_album": "-1694302085",
    "description": "KAWAII1702202237371",
    "title": "KAWAII1702202237371",
    "link_img": "https://live.staticflickr.com/65535/49548925972_2d9bcc6478_o.jpg",
    "id_image": "KAWAII1702202237371",
    "count_view": 0
  },
  {
    "link_thumb": "https://live.staticflickr.com/65535/49548831437_5f1799ae82_n.jpg",
    "id_album": "-1741487325",
    "description": "KAWAII120918356",
    "title": "KAWAII120918356",
    "link_img": "https://live.staticflickr.com/65535/49548831437_157df654a0_o.jpg",
    "id_image": "KAWAII120918356",
    "count_view": 0
  },
  {
    "link_thumb": "https://live.staticflickr.com/65535/49710286373_5453a7f24c_n.jpg",
    "id_album": "-1599896063",
    "description": "LITTLEMONK29032012063212",
    "title": "LITTLEMONK29032012063212",
    "link_img": "https://live.staticflickr.com/65535/49710286373_05b860020e_o.jpg",
    "id_image": "LITTLEMONK29032012063212",
    "count_view": 0
  },
  {
    "link_thumb": "https://live.staticflickr.com/65535/49742905991_c9c478aab5_n.jpg",
    "id_album": "-1913845949",
    "description": "KAWAII1702202235133",
    "title": "KAWAII1702202235133",
    "link_img": "https://live.staticflickr.com/65535/49742905991_788e3f3fca_o.jpg",
    "id_image": "KAWAII1702202235133",
    "count_view": 0
  },
  {
    "link_thumb": "https://live.staticflickr.com/65535/49592231873_ddb759420f_n.jpg",
    "id_album": "-1431786825",
    "description": "KAWAII270220235123",
    "title": "KAWAII270220235123",
    "link_img": "https://live.staticflickr.com/65535/49592231873_cbc9d93ce9_o.jpg",
    "id_image": "KAWAII270220235123",
    "count_view": 0
  },
  {
    "link_thumb": "https://live.staticflickr.com/65535/49693580403_9889b43d40_n.jpg",
    "id_album": "-784970094",
    "description": "KAWAII170220223499",
    "title": "KAWAII170220223499",
    "link_img": "https://live.staticflickr.com/65535/49693580403_0394dbeeb7_o.jpg",
    "id_image": "KAWAII170220223499",
    "count_view": 0
  },
  {
    "link_thumb": "https://live.staticflickr.com/65535/49694395672_7f65285bda_n.jpg",
    "id_album": "1201366373",
    "description": "KAWAII120918230",
    "title": "KAWAII120918230",
    "link_img": "https://live.staticflickr.com/65535/49694395672_d8e7ccf8ef_o.jpg",
    "id_image": "KAWAII120918230",
    "count_view": 0
  },
  {
    "link_thumb": "https://live.staticflickr.com/65535/49742379248_eb54df3a78_n.jpg",
    "id_album": "-316663319",
    "description": "KAWAII060420214915163",
    "title": "KAWAII060420214915163",
    "link_img": "https://live.staticflickr.com/65535/49742379248_21f4d796f2_o.jpg",
    "id_image": "KAWAII060420214915163",
    "count_view": 0
  },
  {
    "link_thumb": "https://live.staticflickr.com/65535/49742390413_c6bbd32bc1_n.jpg",
    "id_album": "-1473448477",
    "description": "KAWAII060420214915246",
    "title": "KAWAII060420214915246",
    "link_img": "https://live.staticflickr.com/65535/49742390413_d03ccc27e5_o.jpg",
    "id_image": "KAWAII060420214915246",
    "count_view": 0
  },
  {
    "link_thumb": "https://live.staticflickr.com/65535/49548602866_68dc12d7a1_n.jpg",
    "id_album": "-1099943053",
    "description": "KAWAII120918350",
    "title": "KAWAII120918350",
    "link_img": "https://live.staticflickr.com/65535/49548602866_b528e1d3d1_o.jpg",
    "id_image": "KAWAII120918350",
    "count_view": 0
  },
  {
    "link_thumb": "https://live.staticflickr.com/65535/49742901501_e4f5d95199_n.jpg",
    "id_album": "-1913845949",
    "description": "KAWAII06042021491242",
    "title": "KAWAII06042021491242",
    "link_img": "https://live.staticflickr.com/65535/49742901501_d47960e2eb_o.jpg",
    "id_image": "KAWAII06042021491242",
    "count_view": 0
  },
  {
    "link_thumb": "https://live.staticflickr.com/65535/49592209268_d679ee2f10_n.jpg",
    "id_album": "-1432180061",
    "description": "KAWAII270220235138",
    "title": "KAWAII270220235138",
    "link_img": "https://live.staticflickr.com/65535/49592209268_998a8a6dfe_o.jpg",
    "id_image": "KAWAII270220235138",
    "count_view": 0
  },
  {
    "link_thumb": "https://live.staticflickr.com/65535/49549001717_8ec64f1a0b_n.jpg",
    "id_album": "949200594",
    "description": "KAWAII17091858",
    "title": "KAWAII17091858",
    "link_img": "https://live.staticflickr.com/65535/49549001717_cf02f085f2_o.jpg",
    "id_image": "KAWAII17091858",
    "count_view": 0
  },
  {
    "link_thumb": "https://live.staticflickr.com/65535/49693544323_3876cf45a3_n.jpg",
    "id_album": "1201366373",
    "description": "KAWAII120918178",
    "title": "KAWAII120918178",
    "link_img": "https://live.staticflickr.com/65535/49693544323_3bfcdb0658_o.jpg",
    "id_image": "KAWAII120918178",
    "count_view": 0
  },
  {
    "link_thumb": "https://live.staticflickr.com/65535/49726891718_e82beb4569_n.jpg",
    "id_album": "-316663319",
    "description": "KAWAII02042019451168",
    "title": "KAWAII02042019451168",
    "link_img": "https://live.staticflickr.com/65535/49726891718_a5c78c6d61_o.jpg",
    "id_image": "KAWAII02042019451168",
    "count_view": 0
  },
  {
    "link_thumb": "https://live.staticflickr.com/65535/49726900403_67e96a1c8c_n.jpg",
    "id_album": "742877173",
    "description": "KAWAII020420194511245",
    "title": "KAWAII020420194511245",
    "link_img": "https://live.staticflickr.com/65535/49726900403_9d34eb64b5_o.jpg",
    "id_image": "KAWAII020420194511245",
    "count_view": 0
  },
  {
    "link_thumb": "https://live.staticflickr.com/65535/49727738537_69ce1e2250_n.jpg",
    "id_album": "-1694302085",
    "description": "KAWAII020420194508122",
    "title": "KAWAII020420194508122",
    "link_img": "https://live.staticflickr.com/65535/49727738537_b847239a4a_o.jpg",
    "id_image": "KAWAII020420194508122",
    "count_view": 0
  },
  {
    "link_thumb": "https://live.staticflickr.com/65535/49694373172_02f25a146a_n.jpg",
    "id_album": "1201366373",
    "description": "KAWAII0503202021157",
    "title": "KAWAII0503202021157",
    "link_img": "https://live.staticflickr.com/65535/49694373172_b4df919907_o.jpg",
    "id_image": "KAWAII0503202021157",
    "count_view": 0
  },
  {
    "link_thumb": "https://live.staticflickr.com/65535/49694379302_6d40337bae_n.jpg",
    "id_album": "-643980979",
    "description": "KAWAII050320202156",
    "title": "KAWAII050320202156",
    "link_img": "https://live.staticflickr.com/65535/49694379302_393105eca9_o.jpg",
    "id_image": "KAWAII050320202156",
    "count_view": 0
  },
  {
    "link_thumb": "https://live.staticflickr.com/65535/49694387657_ca79ea691c_n.jpg",
    "id_album": "1201366373",
    "description": "KAWAII120918157",
    "title": "KAWAII120918157",
    "link_img": "https://live.staticflickr.com/65535/49694387657_6176250974_o.jpg",
    "id_image": "KAWAII120918157",
    "count_view": 0
  },
  {
    "link_thumb": "https://live.staticflickr.com/65535/49548045533_0e77f46a71_n.jpg",
    "id_album": "-422187261",
    "description": "KAWAII120918114",
    "title": "KAWAII120918114",
    "link_img": "https://live.staticflickr.com/65535/49548045533_09119d7bc6_o.jpg",
    "id_image": "KAWAII120918114",
    "count_view": 0
  },
  {
    "link_thumb": "https://live.staticflickr.com/65535/49694524137_b80953ce00_n.jpg",
    "id_album": "-1432180061",
    "description": "KAWAII12091838",
    "title": "KAWAII12091838",
    "link_img": "https://live.staticflickr.com/65535/49694524137_9730271caf_o.jpg",
    "id_image": "KAWAII12091838",
    "count_view": 0
  },
  {
    "link_thumb": "https://live.staticflickr.com/65535/49578750051_26e3a6ac43_n.jpg",
    "id_album": "-316663319",
    "description": "KAWAII190220211123",
    "title": "KAWAII190220211123",
    "link_img": "https://live.staticflickr.com/65535/49578750051_3bc0f9edfc_o.jpg",
    "id_image": "KAWAII190220211123",
    "count_view": 0
  },
  {
    "link_thumb": "https://live.staticflickr.com/65535/49742930621_46cbfcebfa_n.jpg",
    "id_album": "-316663319",
    "description": "KAWAII060420214917101",
    "title": "KAWAII060420214917101",
    "link_img": "https://live.staticflickr.com/65535/49742930621_c8a5efe622_o.jpg",
    "id_image": "KAWAII060420214917101",
    "count_view": 0
  },
  {
    "link_thumb": "https://live.staticflickr.com/65535/49622306878_f6b262f2dd_n.jpg",
    "id_album": "-316663319",
    "description": "KAWAII0503202021193",
    "title": "KAWAII0503202021193",
    "link_img": "https://live.staticflickr.com/65535/49622306878_1de4b7ac25_o.jpg",
    "id_image": "KAWAII0503202021193",
    "count_view": 0
  },
  {
    "link_thumb": "https://live.staticflickr.com/65535/49693545353_56f7edd886_n.jpg",
    "id_album": "1201366373",
    "description": "KAWAII120918189",
    "title": "KAWAII120918189",
    "link_img": "https://live.staticflickr.com/65535/49693545353_b22fd55d82_o.jpg",
    "id_image": "KAWAII120918189",
    "count_view": 0
  },
  {
    "link_thumb": "https://live.staticflickr.com/65535/49694064456_6ea5d4102b_n.jpg",
    "id_album": "1699819648",
    "description": "KAWAII0503202021271",
    "title": "KAWAII0503202021271",
    "link_img": "https://live.staticflickr.com/65535/49694064456_7c237f1e94_o.jpg",
    "id_image": "KAWAII0503202021271",
    "count_view": 0
  },
  {
    "link_thumb": "https://live.staticflickr.com/65535/49693527218_5bce209935_n.jpg",
    "id_album": "1201366373",
    "description": "KAWAII050320202116",
    "title": "KAWAII050320202116",
    "link_img": "https://live.staticflickr.com/65535/49693527218_3359fd468d_o.jpg",
    "id_image": "KAWAII050320202116",
    "count_view": 0
  },
  {
    "link_thumb": "https://live.staticflickr.com/65535/49694370822_2deb15b120_n.jpg",
    "id_album": "-1432180061",
    "description": "KAWAII120918222",
    "title": "KAWAII120918222",
    "link_img": "https://live.staticflickr.com/65535/49694370822_b592161bf5_o.jpg",
    "id_image": "KAWAII120918222",
    "count_view": 0
  },
  {
    "link_thumb": "https://live.staticflickr.com/65535/49694421397_1b9dd5a13f_n.jpg",
    "id_album": "1201366373",
    "description": "KAWAII17022023506",
    "title": "KAWAII17022023506",
    "link_img": "https://live.staticflickr.com/65535/49694421397_9545535f8f_o.jpg",
    "id_image": "KAWAII17022023506",
    "count_view": 0
  },
  {
    "link_thumb": "https://live.staticflickr.com/65535/49548742611_b5332b7a92_n.jpg",
    "id_album": "1396902986",
    "description": "KAWAII1702202239539",
    "title": "KAWAII1702202239539",
    "link_img": "https://live.staticflickr.com/65535/49548742611_78c0a19566_o.jpg",
    "id_image": "KAWAII1702202239539",
    "count_view": 0
  },
  {
    "link_thumb": "https://live.staticflickr.com/65535/49694416202_7f887b82b5_n.jpg",
    "id_album": "-643980979",
    "description": "KAWAII1702202239517",
    "title": "KAWAII1702202239517",
    "link_img": "https://live.staticflickr.com/65535/49694416202_00a576f716_o.jpg",
    "id_image": "KAWAII1702202239517",
    "count_view": 0
  },
  {
    "link_thumb": "https://live.staticflickr.com/65535/49693583198_75c583622b_n.jpg",
    "id_album": "-1431786825",
    "description": "KAWAII270220235195",
    "title": "KAWAII270220235195",
    "link_img": "https://live.staticflickr.com/65535/49693583198_20c97a95a0_o.jpg",
    "id_image": "KAWAII270220235195",
    "count_view": 0
  },
  {
    "link_thumb": "https://live.staticflickr.com/65535/49694123786_4dfbc91314_n.jpg",
    "id_album": "-358592519",
    "description": "KAWAII12091813",
    "title": "KAWAII12091813",
    "link_img": "https://live.staticflickr.com/65535/49694123786_e816227923_o.jpg",
    "id_image": "KAWAII12091813",
    "count_view": 0
  },
  {
    "link_thumb": "https://live.staticflickr.com/65535/49694102261_ea702f35c0_n.jpg",
    "id_album": "1201366373",
    "description": "KAWAII12091849",
    "title": "KAWAII12091849",
    "link_img": "https://live.staticflickr.com/65535/49694102261_3f4c6bfa43_o.jpg",
    "id_image": "KAWAII12091849",
    "count_view": 0
  },
  {
    "link_thumb": "https://live.staticflickr.com/65535/49742407823_323f75a2aa_n.jpg",
    "id_album": "-1431786825",
    "description": "KAWAII060420214914275",
    "title": "KAWAII060420214914275",
    "link_img": "https://live.staticflickr.com/65535/49742407823_2e8d533bf4_o.jpg",
    "id_image": "KAWAII060420214914275",
    "count_view": 0
  },
  {
    "link_thumb": "https://live.staticflickr.com/65535/49726927883_8b29fdece6_n.jpg",
    "id_album": "1226948986",
    "description": "KAWAII02042019450715",
    "title": "KAWAII02042019450715",
    "link_img": "https://live.staticflickr.com/65535/49726927883_646cf323b6_o.jpg",
    "id_image": "KAWAII02042019450715",
    "count_view": 0
  },
  {
    "link_thumb": "https://live.staticflickr.com/65535/49742952811_958f39fba4_n.jpg",
    "id_album": "-1862561193",
    "description": "KAWAII060420214917320",
    "title": "KAWAII060420214917320",
    "link_img": "https://live.staticflickr.com/65535/49742952811_f7a81fdf3b_o.jpg",
    "id_image": "KAWAII060420214917320",
    "count_view": 0
  },
  {
    "link_thumb": "https://live.staticflickr.com/65535/49742941756_a02cc6b55a_n.jpg",
    "id_album": "-1473448477",
    "description": "KAWAII06042021491737",
    "title": "KAWAII06042021491737",
    "link_img": "https://live.staticflickr.com/65535/49742941756_0cd2c07c03_o.jpg",
    "id_image": "KAWAII06042021491737",
    "count_view": 0
  },
  {
    "link_thumb": "https://live.staticflickr.com/65535/49693586493_dbd8522f66_n.jpg",
    "id_album": "1226948986",
    "description": "TOTORO22032015422",
    "title": "TOTORO22032015422",
    "link_img": "https://live.staticflickr.com/65535/49693586493_b3394f60c7_o.jpg",
    "id_image": "TOTORO22032015422",
    "count_view": 0
  },
  {
    "link_thumb": "https://live.staticflickr.com/65535/49548903742_c5a43ab67f_n.jpg",
    "id_album": "-316663319",
    "description": "KAWAII1702202236272",
    "title": "KAWAII1702202236272",
    "link_img": "https://live.staticflickr.com/65535/49548903742_3a39d3472c_o.jpg",
    "id_image": "KAWAII1702202236272",
    "count_view": 0
  },
  {
    "link_thumb": "https://live.staticflickr.com/65535/49548916167_7193644414_n.jpg",
    "id_album": "1396902986",
    "description": "KAWAII1702202237330",
    "title": "KAWAII1702202237330",
    "link_img": "https://live.staticflickr.com/65535/49548916167_ee64254e9d_o.jpg",
    "id_image": "KAWAII1702202237330",
    "count_view": 0
  },
  {
    "link_thumb": "https://live.staticflickr.com/65535/49726876208_e5b8d3e453_n.jpg",
    "id_album": "-422187261",
    "description": "KAWAII020420194511146",
    "title": "KAWAII020420194511146",
    "link_img": "https://live.staticflickr.com/65535/49726876208_5079248f53_o.jpg",
    "id_image": "KAWAII020420194511146",
    "count_view": 0
  },
  {
    "link_thumb": "https://live.staticflickr.com/65535/49548566621_f8a47d0bae_n.jpg",
    "id_album": "-1741487325",
    "description": "KAWAII120918192",
    "title": "KAWAII120918192",
    "link_img": "https://live.staticflickr.com/65535/49548566621_dcf7453533_o.jpg",
    "id_image": "KAWAII120918192",
    "count_view": 0
  },
  {
    "link_thumb": "https://live.staticflickr.com/65535/49592962932_0c0df353dc_n.jpg",
    "id_album": "-316663319",
    "description": "KAWAII270220235187",
    "title": "KAWAII270220235187",
    "link_img": "https://live.staticflickr.com/65535/49592962932_3900739668_o.jpg",
    "id_image": "KAWAII270220235187",
    "count_view": 0
  },
  {
    "link_thumb": "https://live.staticflickr.com/65535/49693587498_ae99d125d9_n.jpg",
    "id_album": "1226948986",
    "description": "TOTORO22032015428",
    "title": "TOTORO22032015428",
    "link_img": "https://live.staticflickr.com/65535/49693587498_8001c33ca7_o.jpg",
    "id_image": "TOTORO22032015428",
    "count_view": 0
  },
  {
    "link_thumb": "https://live.staticflickr.com/65535/49548903547_a7812df0f8_n.jpg",
    "id_album": "-422187261",
    "description": "KAWAII1702202236271",
    "title": "KAWAII1702202236271",
    "link_img": "https://live.staticflickr.com/65535/49548903547_c91e97f61d_o.jpg",
    "id_image": "KAWAII1702202236271",
    "count_view": 0
  },
  {
    "link_thumb": "https://live.staticflickr.com/65535/49623121817_428939bf32_n.jpg",
    "id_album": "-406350429",
    "description": "KAWAII050320202180",
    "title": "KAWAII050320202180",
    "link_img": "https://live.staticflickr.com/65535/49623121817_be6ebc97e5_o.jpg",
    "id_image": "KAWAII050320202180",
    "count_view": 0
  },
  {
    "link_thumb": "https://live.staticflickr.com/65535/49743248717_89998e2b97_n.jpg",
    "id_album": "-316663319",
    "description": "KAWAII06042021491331",
    "title": "KAWAII06042021491331",
    "link_img": "https://live.staticflickr.com/65535/49743248717_8234d51f71_o.jpg",
    "id_image": "KAWAII06042021491331",
    "count_view": 0
  },
  {
    "link_thumb": "https://live.staticflickr.com/65535/49742927826_6b604da117_n.jpg",
    "id_album": "-316663319",
    "description": "KAWAII060420214915208",
    "title": "KAWAII060420214915208",
    "link_img": "https://live.staticflickr.com/65535/49742927826_80a8486dc2_o.jpg",
    "id_image": "KAWAII060420214915208",
    "count_view": 0
  },
  {
    "link_thumb": "https://live.staticflickr.com/65535/49693682648_1a841806bb_n.jpg",
    "id_album": "46674803",
    "description": "KAWAII24032022050349",
    "title": "KAWAII24032022050349",
    "link_img": "https://live.staticflickr.com/65535/49693682648_21aa5984af_o.jpg",
    "id_image": "KAWAII24032022050349",
    "count_view": 0
  },
  {
    "link_thumb": "https://live.staticflickr.com/65535/49742954641_b73e14ecc3_n.jpg",
    "id_album": "-1431786825",
    "description": "KAWAII060420214912321",
    "title": "KAWAII060420214912321",
    "link_img": "https://live.staticflickr.com/65535/49742954641_468d595548_o.jpg",
    "id_image": "KAWAII060420214912321",
    "count_view": 0
  },
  {
    "link_thumb": "https://live.staticflickr.com/65535/49727761257_5ac0c27d19_n.jpg",
    "id_album": "742877173",
    "description": "KAWAII020420194510239",
    "title": "KAWAII020420194510239",
    "link_img": "https://live.staticflickr.com/65535/49727761257_d57cc01515_o.jpg",
    "id_image": "KAWAII020420194510239",
    "count_view": 0
  },
  {
    "link_thumb": "https://live.staticflickr.com/65535/49694377072_48cb4665a7_n.jpg",
    "id_album": "-643980979",
    "description": "KAWAII0503202021288",
    "title": "KAWAII0503202021288",
    "link_img": "https://live.staticflickr.com/65535/49694377072_f69cd73ae1_o.jpg",
    "id_image": "KAWAII0503202021288",
    "count_view": 0
  },
  {
    "link_thumb": "https://live.staticflickr.com/65535/49694374632_2933d986eb_n.jpg",
    "id_album": "-643980979",
    "description": "KAWAII0503202021195",
    "title": "KAWAII0503202021195",
    "link_img": "https://live.staticflickr.com/65535/49694374632_8924106525_o.jpg",
    "id_image": "KAWAII0503202021195",
    "count_view": 0
  },
  {
    "link_thumb": "https://live.staticflickr.com/65535/49742915231_bdcaf55483_n.jpg",
    "id_album": "-1497779911",
    "description": "KAWAII06042021491499",
    "title": "KAWAII06042021491499",
    "link_img": "https://live.staticflickr.com/65535/49742915231_530e7591da_o.jpg",
    "id_image": "KAWAII06042021491499",
    "count_view": 0
  },
  {
    "link_thumb": "https://live.staticflickr.com/65535/49548096168_960e4bf3a5_n.jpg",
    "id_album": "-1741487325",
    "description": "KAWAII120918331",
    "title": "KAWAII120918331",
    "link_img": "https://live.staticflickr.com/65535/49548096168_deab32ef86_o.jpg",
    "id_image": "KAWAII120918331",
    "count_view": 0
  },
  {
    "link_thumb": "https://live.staticflickr.com/65535/49592734871_2c04c37b6e_n.jpg",
    "id_album": "-1431786825",
    "description": "KAWAII270220235110",
    "title": "KAWAII270220235110",
    "link_img": "https://live.staticflickr.com/65535/49592734871_e8ba8146bd_o.jpg",
    "id_image": "KAWAII270220235110",
    "count_view": 0
  },
  {
    "link_thumb": "https://live.staticflickr.com/65535/49548785597_d1bf84a7e6_n.jpg",
    "id_album": "-422187261",
    "description": "KAWAII120918158",
    "title": "KAWAII120918158",
    "link_img": "https://live.staticflickr.com/65535/49548785597_604fe9e477_o.jpg",
    "id_image": "KAWAII120918158",
    "count_view": 0
  },
  {
    "link_thumb": "https://live.staticflickr.com/65535/49622816441_a1185fa8c3_n.jpg",
    "id_album": "-316663319",
    "description": "KAWAII0503202021128",
    "title": "KAWAII0503202021128",
    "link_img": "https://live.staticflickr.com/65535/49622816441_16b93e7b8c_o.jpg",
    "id_image": "KAWAII0503202021128",
    "count_view": 0
  },
  {
    "link_thumb": "https://live.staticflickr.com/65535/49548820112_3104e8a4ae_n.jpg",
    "id_album": "-1741487325",
    "description": "KAWAII12091831",
    "title": "KAWAII12091831",
    "link_img": "https://live.staticflickr.com/65535/49548820112_b161c7d4a1_o.jpg",
    "id_image": "KAWAII12091831",
    "count_view": 0
  },
  {
    "link_thumb": "https://live.staticflickr.com/65535/49727755717_c911ae91a5_n.jpg",
    "id_album": "742877173",
    "description": "KAWAII020420194507215",
    "title": "KAWAII020420194507215",
    "link_img": "https://live.staticflickr.com/65535/49727755717_9a4a305ae8_o.jpg",
    "id_image": "KAWAII020420194507215",
    "count_view": 0
  },
  {
    "link_thumb": "https://live.staticflickr.com/65535/49548611391_66f9798221_n.jpg",
    "id_album": "-1432180061",
    "description": "KAWAII12091848",
    "title": "KAWAII12091848",
    "link_img": "https://live.staticflickr.com/65535/49548611391_173cf43b70_o.jpg",
    "id_image": "KAWAII12091848",
    "count_view": 0
  },
  {
    "link_thumb": "https://live.staticflickr.com/65535/49592203818_4be5912330_n.jpg",
    "id_album": "1396902986",
    "description": "KAWAII2702202351117",
    "title": "KAWAII2702202351117",
    "link_img": "https://live.staticflickr.com/65535/49592203818_07fb022dd1_o.jpg",
    "id_image": "KAWAII2702202351117",
    "count_view": 0
  },
  {
    "link_thumb": "https://live.staticflickr.com/65535/49742393553_e67ac98db8_n.jpg",
    "id_album": "-1473448477",
    "description": "KAWAII060420214917160",
    "title": "KAWAII060420214917160",
    "link_img": "https://live.staticflickr.com/65535/49742393553_23d6edd7e0_o.jpg",
    "id_image": "KAWAII060420214917160",
    "count_view": 0
  },
  {
    "link_thumb": "https://live.staticflickr.com/65535/49548900632_a1b7c2ecdc_n.jpg",
    "id_album": "-1432180061",
    "description": "KAWAII1702202236255",
    "title": "KAWAII1702202236255",
    "link_img": "https://live.staticflickr.com/65535/49548900632_89634d0bd9_o.jpg",
    "id_image": "KAWAII1702202236255",
    "count_view": 0
  },
  {
    "link_thumb": "https://live.staticflickr.com/65535/49743224367_4843c13df6_n.jpg",
    "id_album": "-1913845949",
    "description": "KAWAII060420214912296",
    "title": "KAWAII060420214912296",
    "link_img": "https://live.staticflickr.com/65535/49743224367_699fd6fe3e_o.jpg",
    "id_image": "KAWAII060420214912296",
    "count_view": 0
  },
  {
    "link_thumb": "https://live.staticflickr.com/65535/49742923161_2d7e175f84_n.jpg",
    "id_album": "-316663319",
    "description": "KAWAII060420214913120",
    "title": "KAWAII060420214913120",
    "link_img": "https://live.staticflickr.com/65535/49742923161_e4af605f0b_o.jpg",
    "id_image": "KAWAII060420214913120",
    "count_view": 0
  },
  {
    "link_thumb": "https://live.staticflickr.com/65535/49548930407_6094d1e5b5_n.jpg",
    "id_album": "-422187261",
    "description": "KAWAII1702202237391",
    "title": "KAWAII1702202237391",
    "link_img": "https://live.staticflickr.com/65535/49548930407_6f625a7635_o.jpg",
    "id_image": "KAWAII1702202237391",
    "count_view": 0
  },
  {
    "link_thumb": "https://live.staticflickr.com/65535/49743249472_6c2ed4a0f7_n.jpg",
    "id_album": "-316663319",
    "description": "KAWAII060420214914239",
    "title": "KAWAII060420214914239",
    "link_img": "https://live.staticflickr.com/65535/49743249472_dd1416c502_o.jpg",
    "id_image": "KAWAII060420214914239",
    "count_view": 0
  },
  {
    "link_thumb": "https://live.staticflickr.com/65535/49592712941_9ab292a7fc_n.jpg",
    "id_album": "-316663319",
    "description": "KAWAII17091814",
    "title": "KAWAII17091814",
    "link_img": "https://live.staticflickr.com/65535/49592712941_b7c9d2594e_o.jpg",
    "id_image": "KAWAII17091814",
    "count_view": 0
  },
  {
    "link_thumb": "https://live.staticflickr.com/65535/49694128121_0a3c66066a_n.jpg",
    "id_album": "1226948986",
    "description": "KAWAII1209183",
    "title": "KAWAII1209183",
    "link_img": "https://live.staticflickr.com/65535/49694128121_8ec7588b7f_o.jpg",
    "id_image": "KAWAII1209183",
    "count_view": 0
  },
  {
    "link_thumb": "https://live.staticflickr.com/65535/49693524538_039d1e5efc_n.jpg",
    "id_album": "-1741487325",
    "description": "KAWAII2702202351104",
    "title": "KAWAII2702202351104",
    "link_img": "https://live.staticflickr.com/65535/49693524538_272d708b2d_o.jpg",
    "id_image": "KAWAII2702202351104",
    "count_view": 0
  },
  {
    "link_thumb": "https://live.staticflickr.com/65535/49548111123_f75e5dc4af_n.jpg",
    "id_album": "-316663319",
    "description": "KAWAII12091855",
    "title": "KAWAII12091855",
    "link_img": "https://live.staticflickr.com/65535/49548111123_bc4a7f7b98_o.jpg",
    "id_image": "KAWAII12091855",
    "count_view": 0
  },
  {
    "link_thumb": "https://live.staticflickr.com/65535/49743281657_9e4050ddeb_n.jpg",
    "id_album": "1226948986",
    "description": "KAWAII060420214918100",
    "title": "KAWAII060420214918100",
    "link_img": "https://live.staticflickr.com/65535/49743281657_b5d2110d32_o.jpg",
    "id_image": "KAWAII060420214918100",
    "count_view": 0
  },
  {
    "link_thumb": "https://live.staticflickr.com/65535/49743227472_f75f605e69_n.jpg",
    "id_album": "-1913845949",
    "description": "KAWAII060420214915318",
    "title": "KAWAII060420214915318",
    "link_img": "https://live.staticflickr.com/65535/49743227472_74a5f2b14f_o.jpg",
    "id_image": "KAWAII060420214915318",
    "count_view": 0
  },
  {
    "link_thumb": "https://live.staticflickr.com/65535/49710820856_27331632e1_n.jpg",
    "id_album": "-1599896063",
    "description": "LITTLEMONK2903201206345",
    "title": "LITTLEMONK2903201206345",
    "link_img": "https://live.staticflickr.com/65535/49710820856_873a5f0ae1_o.jpg",
    "id_image": "LITTLEMONK2903201206345",
    "count_view": 0
  },
  {
    "link_thumb": "https://live.staticflickr.com/65535/49623076732_9fbf54cc87_n.jpg",
    "id_album": "1396902986",
    "description": "KAWAII0503202021322",
    "title": "KAWAII0503202021322",
    "link_img": "https://live.staticflickr.com/65535/49623076732_2db56f4701_o.jpg",
    "id_image": "KAWAII0503202021322",
    "count_view": 0
  },
  {
    "link_thumb": "https://live.staticflickr.com/65535/49694070071_dde1f6737b_n.jpg",
    "id_album": "-643980979",
    "description": "KAWAII0503202021118",
    "title": "KAWAII0503202021118",
    "link_img": "https://live.staticflickr.com/65535/49694070071_8aebd40329_o.jpg",
    "id_image": "KAWAII0503202021118",
    "count_view": 0
  },
  {
    "link_thumb": "https://live.staticflickr.com/65535/49743264657_6b99584462_n.jpg",
    "id_album": "-1473448477",
    "description": "KAWAII06042021491622",
    "title": "KAWAII06042021491622",
    "link_img": "https://live.staticflickr.com/65535/49743264657_4a600af82d_o.jpg",
    "id_image": "KAWAII06042021491622",
    "count_view": 0
  },
  {
    "link_thumb": "https://live.staticflickr.com/65535/49727768952_ac7222a721_n.jpg",
    "id_album": "1201366373",
    "description": "KAWAII120918297",
    "title": "KAWAII120918297",
    "link_img": "https://live.staticflickr.com/65535/49727768952_403d1918af_o.jpg",
    "id_image": "KAWAII120918297",
    "count_view": 0
  },
  {
    "link_thumb": "https://live.staticflickr.com/65535/49726898223_db6360e8d8_n.jpg",
    "id_album": "742877173",
    "description": "KAWAII020420194510152",
    "title": "KAWAII020420194510152",
    "link_img": "https://live.staticflickr.com/65535/49726898223_764fd1c933_o.jpg",
    "id_image": "KAWAII020420194510152",
    "count_view": 0
  },
  {
    "link_thumb": "https://live.staticflickr.com/65535/49693541103_494d54ccb0_n.jpg",
    "id_album": "1201366373",
    "description": "KAWAII120918152",
    "title": "KAWAII120918152",
    "link_img": "https://live.staticflickr.com/65535/49693541103_bd085df047_o.jpg",
    "id_image": "KAWAII120918152",
    "count_view": 0
  },
  {
    "link_thumb": "https://live.staticflickr.com/65535/49622796941_4f3450b9b0_n.jpg",
    "id_album": "-422187261",
    "description": "KAWAII0503202021180",
    "title": "KAWAII0503202021180",
    "link_img": "https://live.staticflickr.com/65535/49622796941_225dec259f_o.jpg",
    "id_image": "KAWAII0503202021180",
    "count_view": 0
  },
  {
    "link_thumb": "https://live.staticflickr.com/65535/49548833852_d878829ec5_n.jpg",
    "id_album": "-1741487325",
    "description": "KAWAII120918365",
    "title": "KAWAII120918365",
    "link_img": "https://live.staticflickr.com/65535/49548833852_1826f5a600_o.jpg",
    "id_image": "KAWAII120918365",
    "count_view": 0
  },
  {
    "link_thumb": "https://live.staticflickr.com/65535/49693555748_fafc0c40c6_n.jpg",
    "id_album": "1201366373",
    "description": "KAWAII120918279",
    "title": "KAWAII120918279",
    "link_img": "https://live.staticflickr.com/65535/49693555748_6c68d75bc0_o.jpg",
    "id_image": "KAWAII120918279",
    "count_view": 0
  },
  {
    "link_thumb": "https://live.staticflickr.com/65535/49742408918_213cc96f26_n.jpg",
    "id_album": "-1431786825",
    "description": "KAWAII06042021491547",
    "title": "KAWAII06042021491547",
    "link_img": "https://live.staticflickr.com/65535/49742408918_6001cd189c_o.jpg",
    "id_image": "KAWAII06042021491547",
    "count_view": 0
  },
  {
    "link_thumb": "https://live.staticflickr.com/65535/49694084581_9d6fb6a1b8_n.jpg",
    "id_album": "-643980979",
    "description": "KAWAII120918151",
    "title": "KAWAII120918151",
    "link_img": "https://live.staticflickr.com/65535/49694084581_fd70a5c5b1_o.jpg",
    "id_image": "KAWAII120918151",
    "count_view": 0
  },
  {
    "link_thumb": "https://live.staticflickr.com/65535/49592949777_fc39988613_n.jpg",
    "id_album": "1396902986",
    "description": "KAWAII270220235115",
    "title": "KAWAII270220235115",
    "link_img": "https://live.staticflickr.com/65535/49592949777_f8055c5f8e_o.jpg",
    "id_image": "KAWAII270220235115",
    "count_view": 0
  },
  {
    "link_thumb": "https://live.staticflickr.com/65535/49548964322_51e844af5a_n.jpg",
    "id_album": "-1099943053",
    "description": "KAWAII1702202239518",
    "title": "KAWAII1702202239518",
    "link_img": "https://live.staticflickr.com/65535/49548964322_7516ae3c5c_o.jpg",
    "id_image": "KAWAII1702202239518",
    "count_view": 0
  },
  {
    "link_thumb": "https://live.staticflickr.com/65535/49548884902_c9ea1d67e8_n.jpg",
    "id_album": "-422187261",
    "description": "KAWAII1702202235175",
    "title": "KAWAII1702202235175",
    "link_img": "https://live.staticflickr.com/65535/49548884902_f126b3f549_o.jpg",
    "id_image": "KAWAII1702202235175",
    "count_view": 0
  },
  {
    "link_thumb": "https://live.staticflickr.com/65535/49726918223_14efc09ef8_n.jpg",
    "id_album": "1396902986",
    "description": "KAWAII1702202237334",
    "title": "KAWAII1702202237334",
    "link_img": "https://live.staticflickr.com/65535/49726918223_fe3aa519d5_o.jpg",
    "id_image": "KAWAII1702202237334",
    "count_view": 0
  },
  {
    "link_thumb": "https://live.staticflickr.com/65535/49548167628_cfc542d609_n.jpg",
    "id_album": "-422187261",
    "description": "KAWAII1702202236230",
    "title": "KAWAII1702202236230",
    "link_img": "https://live.staticflickr.com/65535/49548167628_6a59b842d8_o.jpg",
    "id_image": "KAWAII1702202236230",
    "count_view": 0
  },
  {
    "link_thumb": "https://live.staticflickr.com/65535/49726922003_09f9b4733a_n.jpg",
    "id_album": "-1862561193",
    "description": "KAWAII020420194511181",
    "title": "KAWAII020420194511181",
    "link_img": "https://live.staticflickr.com/65535/49726922003_90a28cea06_o.jpg",
    "id_image": "KAWAII020420194511181",
    "count_view": 0
  },
  {
    "link_thumb": "https://live.staticflickr.com/65535/49742944171_e5575bc4ba_n.jpg",
    "id_album": "-1779286820",
    "description": "KAWAII060420214915197",
    "title": "KAWAII060420214915197",
    "link_img": "https://live.staticflickr.com/65535/49742944171_fd10342417_o.jpg",
    "id_image": "KAWAII060420214915197",
    "count_view": 0
  },
  {
    "link_thumb": "https://live.staticflickr.com/65535/49726928948_b01828fda9_n.jpg",
    "id_album": "431597977",
    "description": "KAWAII020420194512247",
    "title": "KAWAII020420194512247",
    "link_img": "https://live.staticflickr.com/65535/49726928948_ddd06fd232_o.jpg",
    "id_image": "KAWAII020420194512247",
    "count_view": 0
  },
  {
    "link_thumb": "https://live.staticflickr.com/65535/49548041908_66b8047820_n.jpg",
    "id_album": "1396902986",
    "description": "KAWAII1209181",
    "title": "KAWAII1209181",
    "link_img": "https://live.staticflickr.com/65535/49548041908_1f80d1139e_o.jpg",
    "id_image": "KAWAII1209181",
    "count_view": 0
  },
  {
    "link_thumb": "https://live.staticflickr.com/65535/49694393827_79181ed563_n.jpg",
    "id_album": "-643980979",
    "description": "KAWAII120918210",
    "title": "KAWAII120918210",
    "link_img": "https://live.staticflickr.com/65535/49694393827_2b14e6a69c_o.jpg",
    "id_image": "KAWAII120918210",
    "count_view": 0
  },
  {
    "link_thumb": "https://live.staticflickr.com/65535/49622334453_e7acc9cfeb_n.jpg",
    "id_album": "-406350429",
    "description": "KAWAII050320202160",
    "title": "KAWAII050320202160",
    "link_img": "https://live.staticflickr.com/65535/49622334453_db673f5e89_o.jpg",
    "id_image": "KAWAII050320202160",
    "count_view": 0
  },
  {
    "link_thumb": "https://live.staticflickr.com/65535/49548847582_c1e6076bf8_n.jpg",
    "id_album": "-422187261",
    "description": "KAWAII1209189",
    "title": "KAWAII1209189",
    "link_img": "https://live.staticflickr.com/65535/49548847582_1ffc716c5e_o.jpg",
    "id_image": "KAWAII1209189",
    "count_view": 0
  },
  {
    "link_thumb": "https://live.staticflickr.com/65535/49727742027_652122fdb0_n.jpg",
    "id_album": "-1694302085",
    "description": "KAWAII190220211125",
    "title": "KAWAII190220211125",
    "link_img": "https://live.staticflickr.com/65535/49727742027_caa66c7ef6_o.jpg",
    "id_image": "KAWAII190220211125",
    "count_view": 0
  },
  {
    "link_thumb": "https://live.staticflickr.com/65535/49548683346_86605be243_n.jpg",
    "id_album": "-422187261",
    "description": "KAWAII1702202236306",
    "title": "KAWAII1702202236306",
    "link_img": "https://live.staticflickr.com/65535/49548683346_e9a5c7e8c8_o.jpg",
    "id_image": "KAWAII1702202236306",
    "count_view": 0
  },
  {
    "link_thumb": "https://live.staticflickr.com/65535/49548850542_101fe68911_n.jpg",
    "id_album": "431597977",
    "description": "KAWAII170220223312",
    "title": "KAWAII170220223312",
    "link_img": "https://live.staticflickr.com/65535/49548850542_8e4da06f99_o.jpg",
    "id_image": "KAWAII170220223312",
    "count_view": 0
  },
  {
    "link_thumb": "https://live.staticflickr.com/65535/49727432976_ecf2008e5f_n.jpg",
    "id_album": "-1497779911",
    "description": "KAWAII120918123",
    "title": "KAWAII120918123",
    "link_img": "https://live.staticflickr.com/65535/49727432976_dff0933007_o.jpg",
    "id_image": "KAWAII120918123",
    "count_view": 0
  },
  {
    "link_thumb": "https://live.staticflickr.com/65535/49743276592_fbdd67d330_n.jpg",
    "id_album": "-358592519",
    "description": "KAWAII060420214912266",
    "title": "KAWAII060420214912266",
    "link_img": "https://live.staticflickr.com/65535/49743276592_0be05d9327_o.jpg",
    "id_image": "KAWAII060420214912266",
    "count_view": 0
  },
  {
    "link_thumb": "https://live.staticflickr.com/65535/49592215883_1d103b4fd3_n.jpg",
    "id_album": "-316663319",
    "description": "KAWAII27022023515",
    "title": "KAWAII27022023515",
    "link_img": "https://live.staticflickr.com/65535/49592215883_0251ac3dd4_o.jpg",
    "id_image": "KAWAII27022023515",
    "count_view": 0
  },
  {
    "link_thumb": "https://live.staticflickr.com/65535/49694228631_25383a0fda_n.jpg",
    "id_album": "1226948986",
    "description": "KAWAII24032022050246",
    "title": "KAWAII24032022050246",
    "link_img": "https://live.staticflickr.com/65535/49694228631_37a3fc6b58_o.jpg",
    "id_image": "KAWAII24032022050246",
    "count_view": 0
  },
  {
    "link_thumb": "https://live.staticflickr.com/65535/49592735741_eb5276fb92_n.jpg",
    "id_album": "431597977",
    "description": "KAWAII270220235149",
    "title": "KAWAII270220235149",
    "link_img": "https://live.staticflickr.com/65535/49592735741_b088e9398f_o.jpg",
    "id_image": "KAWAII270220235149",
    "count_view": 0
  },
  {
    "link_thumb": "https://live.staticflickr.com/65535/49693572278_c69dba307a_n.jpg",
    "id_album": "-643980979",
    "description": "KAWAII170220234610",
    "title": "KAWAII170220234610",
    "link_img": "https://live.staticflickr.com/65535/49693572278_b2cf9a09b1_o.jpg",
    "id_image": "KAWAII170220234610",
    "count_view": 0
  },
  {
    "link_thumb": "https://live.staticflickr.com/65535/49742371068_caeff428eb_n.jpg",
    "id_album": "-128218148",
    "description": "KAWAII060420214912219",
    "title": "KAWAII060420214912219",
    "link_img": "https://live.staticflickr.com/65535/49742371068_280547c0b0_o.jpg",
    "id_image": "KAWAII060420214912219",
    "count_view": 0
  },
  {
    "link_thumb": "https://live.staticflickr.com/65535/49743233112_a052b832b6_n.jpg",
    "id_album": "-1694302085",
    "description": "KAWAII060420214913279",
    "title": "KAWAII060420214913279",
    "link_img": "https://live.staticflickr.com/65535/49743233112_74409ce0b3_o.jpg",
    "id_image": "KAWAII060420214913279",
    "count_view": 0
  },
  {
    "link_thumb": "https://live.staticflickr.com/65535/49548898457_9de20dea0d_n.jpg",
    "id_album": "-1099943053",
    "description": "KAWAII1702202236242",
    "title": "KAWAII1702202236242",
    "link_img": "https://live.staticflickr.com/65535/49548898457_c80e13399e_o.jpg",
    "id_image": "KAWAII1702202236242",
    "count_view": 0
  },
  {
    "link_thumb": "https://live.staticflickr.com/65535/49548572826_f4e86f8f90_n.jpg",
    "id_album": "-1694302085",
    "description": "KAWAII120918220",
    "title": "KAWAII120918220",
    "link_img": "https://live.staticflickr.com/65535/49548572826_25cc91e0a9_o.jpg",
    "id_image": "KAWAII120918220",
    "count_view": 0
  },
  {
    "link_thumb": "https://live.staticflickr.com/65535/49743275962_48012dd7d3_n.jpg",
    "id_album": "-1862561193",
    "description": "KAWAII060420214917269",
    "title": "KAWAII060420214917269",
    "link_img": "https://live.staticflickr.com/65535/49743275962_ff52811d6c_o.jpg",
    "id_image": "KAWAII060420214917269",
    "count_view": 0
  },
  {
    "link_thumb": "https://live.staticflickr.com/65535/49592211593_d8bbd64d7a_n.jpg",
    "id_album": "-316663319",
    "description": "KAWAII2702202351116",
    "title": "KAWAII2702202351116",
    "link_img": "https://live.staticflickr.com/65535/49592211593_9bcae88091_o.jpg",
    "id_image": "KAWAII2702202351116",
    "count_view": 0
  },
  {
    "link_thumb": "https://live.staticflickr.com/65535/49623079777_c5da71f73d_n.jpg",
    "id_album": "-1741487325",
    "description": "KAWAII0503202021216",
    "title": "KAWAII0503202021216",
    "link_img": "https://live.staticflickr.com/65535/49623079777_f2c7484f34_o.jpg",
    "id_image": "KAWAII0503202021216",
    "count_view": 0
  },
  {
    "link_thumb": "https://live.staticflickr.com/65535/49548635651_3666feeb14_n.jpg",
    "id_album": "1396902986",
    "description": "KAWAII170220223448",
    "title": "KAWAII170220223448",
    "link_img": "https://live.staticflickr.com/65535/49548635651_1d233f666d_o.jpg",
    "id_image": "KAWAII170220223448",
    "count_view": 0
  },
  {
    "link_thumb": "https://live.staticflickr.com/65535/49622317388_d2ecc4cbfe_n.jpg",
    "id_album": "-316663319",
    "description": "KAWAII0503202021307",
    "title": "KAWAII0503202021307",
    "link_img": "https://live.staticflickr.com/65535/49622317388_f116ac2f51_o.jpg",
    "id_image": "KAWAII0503202021307",
    "count_view": 0
  },
  {
    "link_thumb": "https://live.staticflickr.com/65535/49694127511_dfcb8f8d26_n.jpg",
    "id_album": "-755466332",
    "description": "KAWAII120918329",
    "title": "KAWAII120918329",
    "link_img": "https://live.staticflickr.com/65535/49694127511_fd11edfdf7_o.jpg",
    "id_image": "KAWAII120918329",
    "count_view": 0
  },
  {
    "link_thumb": "https://live.staticflickr.com/65535/49548174633_4ee07fc12f_n.jpg",
    "id_album": "-1694302085",
    "description": "KAWAII1702202236268",
    "title": "KAWAII1702202236268",
    "link_img": "https://live.staticflickr.com/65535/49548174633_12b2ef2a42_o.jpg",
    "id_image": "KAWAII1702202236268",
    "count_view": 0
  },
  {
    "link_thumb": "https://live.staticflickr.com/65535/49694216611_d0f7c86d52_n.jpg",
    "id_album": "-1741487325",
    "description": "KAWAII120918249",
    "title": "KAWAII120918249",
    "link_img": "https://live.staticflickr.com/65535/49694216611_86a098ca41_o.jpg",
    "id_image": "KAWAII120918249",
    "count_view": 0
  },
  {
    "link_thumb": "https://live.staticflickr.com/65535/49694120256_28cdfc4b93_n.jpg",
    "id_album": "-643980979",
    "description": "KAWAII1709186",
    "title": "KAWAII1709186",
    "link_img": "https://live.staticflickr.com/65535/49694120256_9b5ee318c4_o.jpg",
    "id_image": "KAWAII1709186",
    "count_view": 0
  },
  {
    "link_thumb": "https://live.staticflickr.com/65535/49694424292_b10521cd14_n.jpg",
    "id_album": "-643980979",
    "description": "KAWAII270220235118",
    "title": "KAWAII270220235118",
    "link_img": "https://live.staticflickr.com/65535/49694424292_3bc58e3135_o.jpg",
    "id_image": "KAWAII270220235118",
    "count_view": 0
  },
  {
    "link_thumb": "https://live.staticflickr.com/65535/49622290008_e30c3995b0_n.jpg",
    "id_album": "1396902986",
    "description": "KAWAII050320202166",
    "title": "KAWAII050320202166",
    "link_img": "https://live.staticflickr.com/65535/49622290008_2f36ae4ca9_o.jpg",
    "id_image": "KAWAII050320202166",
    "count_view": 0
  },
  {
    "link_thumb": "https://live.staticflickr.com/65535/49726916708_7e4a7f8d8c_n.jpg",
    "id_album": "1201366373",
    "description": "KAWAII120918300",
    "title": "KAWAII120918300",
    "link_img": "https://live.staticflickr.com/65535/49726916708_d4a00a2a6a_o.jpg",
    "id_image": "KAWAII120918300",
    "count_view": 0
  },
  {
    "link_thumb": "https://live.staticflickr.com/65535/49742933061_753661e456_n.jpg",
    "id_album": "-316663319",
    "description": "KAWAII06042021491846",
    "title": "KAWAII06042021491846",
    "link_img": "https://live.staticflickr.com/65535/49742933061_e984dfc0bd_o.jpg",
    "id_image": "KAWAII06042021491846",
    "count_view": 0
  },
  {
    "link_thumb": "https://live.staticflickr.com/65535/49727439176_c706ab0e38_n.jpg",
    "id_album": "-316663319",
    "description": "KAWAII020420194511234",
    "title": "KAWAII020420194511234",
    "link_img": "https://live.staticflickr.com/65535/49727439176_2b557b3b19_o.jpg",
    "id_image": "KAWAII020420194511234",
    "count_view": 0
  },
  {
    "link_thumb": "https://live.staticflickr.com/65535/49623103777_0910e27b3b_n.jpg",
    "id_album": "-316663319",
    "description": "KAWAII0503202021305",
    "title": "KAWAII0503202021305",
    "link_img": "https://live.staticflickr.com/65535/49623103777_4d46ebfa7a_o.jpg",
    "id_image": "KAWAII0503202021305",
    "count_view": 0
  },
  {
    "link_thumb": "https://live.staticflickr.com/65535/49592711586_5567f36eaf_n.jpg",
    "id_album": "-1741487325",
    "description": "KAWAII270220235125",
    "title": "KAWAII270220235125",
    "link_img": "https://live.staticflickr.com/65535/49592711586_efbfdb630f_o.jpg",
    "id_image": "KAWAII270220235125",
    "count_view": 0
  },
  {
    "link_thumb": "https://live.staticflickr.com/65535/49548157168_2631bc68a8_n.jpg",
    "id_album": "-1099943053",
    "description": "KAWAII1702202235180",
    "title": "KAWAII1702202235180",
    "link_img": "https://live.staticflickr.com/65535/49548157168_858f7d729f_o.jpg",
    "id_image": "KAWAII1702202235180",
    "count_view": 0
  },
  {
    "link_thumb": "https://live.staticflickr.com/65535/49742935991_5706ce237f_n.jpg",
    "id_album": "-1473448477",
    "description": "KAWAII060420214915181",
    "title": "KAWAII060420214915181",
    "link_img": "https://live.staticflickr.com/65535/49742935991_5bf8ff0426_o.jpg",
    "id_image": "KAWAII060420214915181",
    "count_view": 0
  },
  {
    "link_thumb": "https://live.staticflickr.com/65535/49694415617_cb48c63648_n.jpg",
    "id_album": "1201366373",
    "description": "KAWAII1702202238486",
    "title": "KAWAII1702202238486",
    "link_img": "https://live.staticflickr.com/65535/49694415617_80201d7773_o.jpg",
    "id_image": "KAWAII1702202238486",
    "count_view": 0
  },
  {
    "link_thumb": "https://live.staticflickr.com/65535/49548180778_6e380c3a9f_n.jpg",
    "id_album": "-1432180061",
    "description": "KAWAII1702202236298",
    "title": "KAWAII1702202236298",
    "link_img": "https://live.staticflickr.com/65535/49548180778_5d7d573817_o.jpg",
    "id_image": "KAWAII1702202236298",
    "count_view": 0
  },
  {
    "link_thumb": "https://live.staticflickr.com/65535/49548198158_5a9a25317d_n.jpg",
    "id_album": "1396902986",
    "description": "KAWAII1702202237373",
    "title": "KAWAII1702202237373",
    "link_img": "https://live.staticflickr.com/65535/49548198158_a3bf926739_o.jpg",
    "id_image": "KAWAII1702202237373",
    "count_view": 0
  },
  {
    "link_thumb": "https://live.staticflickr.com/65535/49548173768_b0c339bbb9_n.jpg",
    "id_album": "1396902986",
    "description": "KAWAII1702202236263",
    "title": "KAWAII1702202236263",
    "link_img": "https://live.staticflickr.com/65535/49548173768_00ebf4e24e_o.jpg",
    "id_image": "KAWAII1702202236263",
    "count_view": 0
  },
  {
    "link_thumb": "https://live.staticflickr.com/65535/49727441211_3a0d701017_n.jpg",
    "id_album": "742877173",
    "description": "KAWAII020420194508105",
    "title": "KAWAII020420194508105",
    "link_img": "https://live.staticflickr.com/65535/49727441211_8f9d2e417f_o.jpg",
    "id_image": "KAWAII020420194508105",
    "count_view": 0
  },
  {
    "link_thumb": "https://live.staticflickr.com/65535/49743248487_2470e7d2eb_n.jpg",
    "id_album": "-316663319",
    "description": "KAWAII060420214913307",
    "title": "KAWAII060420214913307",
    "link_img": "https://live.staticflickr.com/65535/49743248487_0739556b42_o.jpg",
    "id_image": "KAWAII060420214913307",
    "count_view": 0
  },
  {
    "link_thumb": "https://live.staticflickr.com/65535/49726922283_ca0505d06b_n.jpg",
    "id_album": "-1862561193",
    "description": "KAWAII020420194511233",
    "title": "KAWAII020420194511233",
    "link_img": "https://live.staticflickr.com/65535/49726922283_ed7cb0cc3b_o.jpg",
    "id_image": "KAWAII020420194511233",
    "count_view": 0
  },
  {
    "link_thumb": "https://live.staticflickr.com/65535/49548605916_6f8df17346_n.jpg",
    "id_album": "-1741487325",
    "description": "KAWAII120918363",
    "title": "KAWAII120918363",
    "link_img": "https://live.staticflickr.com/65535/49548605916_e273fba4db_o.jpg",
    "id_image": "KAWAII120918363",
    "count_view": 0
  },
  {
    "link_thumb": "https://live.staticflickr.com/65535/49592216943_17cddedd62_n.jpg",
    "id_album": "-316663319",
    "description": "KAWAII270220235169",
    "title": "KAWAII270220235169",
    "link_img": "https://live.staticflickr.com/65535/49592216943_9690c5453f_o.jpg",
    "id_image": "KAWAII270220235169",
    "count_view": 0
  },
  {
    "link_thumb": "https://live.staticflickr.com/65535/49742944516_1f7318f3ed_n.jpg",
    "id_album": "-1779286820",
    "description": "KAWAII06042021491571",
    "title": "KAWAII06042021491571",
    "link_img": "https://live.staticflickr.com/65535/49742944516_41d8a0b3d6_o.jpg",
    "id_image": "KAWAII06042021491571",
    "count_view": 0
  },
  {
    "link_thumb": "https://live.staticflickr.com/65535/49694384787_491000eb76_n.jpg",
    "id_album": "1201366373",
    "description": "KAWAII120918118",
    "title": "KAWAII120918118",
    "link_img": "https://live.staticflickr.com/65535/49694384787_a790272051_o.jpg",
    "id_image": "KAWAII120918118",
    "count_view": 0
  },
  {
    "link_thumb": "https://live.staticflickr.com/65535/49694077516_8d3d9517bb_n.jpg",
    "id_album": "-643980979",
    "description": "KAWAII050320202167",
    "title": "KAWAII050320202167",
    "link_img": "https://live.staticflickr.com/65535/49694077516_f2232cf1c9_o.jpg",
    "id_image": "KAWAII050320202167",
    "count_view": 0
  },
  {
    "link_thumb": "https://live.staticflickr.com/65535/49694380432_89f3889088_n.jpg",
    "id_album": "-643980979",
    "description": "KAWAII050320202175",
    "title": "KAWAII050320202175",
    "link_img": "https://live.staticflickr.com/65535/49694380432_579e059c17_o.jpg",
    "id_image": "KAWAII050320202175",
    "count_view": 0
  },
  {
    "link_thumb": "https://live.staticflickr.com/65535/49742409473_d444facdb2_n.jpg",
    "id_album": "-1431786825",
    "description": "KAWAII06042021491753",
    "title": "KAWAII06042021491753",
    "link_img": "https://live.staticflickr.com/65535/49742409473_e2d7689ec8_o.jpg",
    "id_image": "KAWAII06042021491753",
    "count_view": 0
  },
  {
    "link_thumb": "https://live.staticflickr.com/65535/49592230628_c6e755e674_n.jpg",
    "id_album": "949200594",
    "description": "KAWAII270220235176",
    "title": "KAWAII270220235176",
    "link_img": "https://live.staticflickr.com/65535/49592230628_149dc42680_o.jpg",
    "id_image": "KAWAII270220235176",
    "count_view": 0
  },
  {
    "link_thumb": "https://live.staticflickr.com/65535/49592953772_c7408199a6_n.jpg",
    "id_album": "-1741487325",
    "description": "KAWAII2702202351122",
    "title": "KAWAII2702202351122",
    "link_img": "https://live.staticflickr.com/65535/49592953772_69dc6e9f46_o.jpg",
    "id_image": "KAWAII2702202351122",
    "count_view": 0
  },
  {
    "link_thumb": "https://live.staticflickr.com/65535/49548144938_89248b4901_n.jpg",
    "id_album": "-1099943053",
    "description": "KAWAII170220223497",
    "title": "KAWAII170220223497",
    "link_img": "https://live.staticflickr.com/65535/49548144938_69b1952f1a_o.jpg",
    "id_image": "KAWAII170220223497",
    "count_view": 0
  },
  {
    "link_thumb": "https://live.staticflickr.com/65535/49742958361_ec0c86e7bb_n.jpg",
    "id_album": "1226948986",
    "description": "KAWAII06042021491791",
    "title": "KAWAII06042021491791",
    "link_img": "https://live.staticflickr.com/65535/49742958361_61b7b026d3_o.jpg",
    "id_image": "KAWAII06042021491791",
    "count_view": 0
  },
  {
    "link_thumb": "https://live.staticflickr.com/65535/49578243278_d8c625fc7d_n.jpg",
    "id_album": "-316663319",
    "description": "KAWAII190220211111",
    "title": "KAWAII190220211111",
    "link_img": "https://live.staticflickr.com/65535/49578243278_5f54ec2737_o.jpg",
    "id_image": "KAWAII190220211111",
    "count_view": 0
  },
  {
    "link_thumb": "https://live.staticflickr.com/65535/49726882983_1a981c019f_n.jpg",
    "id_album": "-1497779911",
    "description": "KAWAII020420194511232",
    "title": "KAWAII020420194511232",
    "link_img": "https://live.staticflickr.com/65535/49726882983_cddcb7cb6a_o.jpg",
    "id_image": "KAWAII020420194511232",
    "count_view": 0
  },
  {
    "link_thumb": "https://live.staticflickr.com/65535/49727475936_5723e4d0a5_n.jpg",
    "id_album": "431597977",
    "description": "KAWAII020420194512109",
    "title": "KAWAII020420194512109",
    "link_img": "https://live.staticflickr.com/65535/49727475936_5f53df718a_o.jpg",
    "id_image": "KAWAII020420194512109",
    "count_view": 0
  },
  {
    "link_thumb": "https://live.staticflickr.com/65535/49592958267_6c6c938d37_n.jpg",
    "id_album": "-316663319",
    "description": "KAWAII2702202351147",
    "title": "KAWAII2702202351147",
    "link_img": "https://live.staticflickr.com/65535/49592958267_63297f9b80_o.jpg",
    "id_image": "KAWAII2702202351147",
    "count_view": 0
  },
  {
    "link_thumb": "https://live.staticflickr.com/65535/49548738521_ccc056fc17_n.jpg",
    "id_album": "1396902986",
    "description": "KAWAII1702202239523",
    "title": "KAWAII1702202239523",
    "link_img": "https://live.staticflickr.com/65535/49548738521_371e61eabd_o.jpg",
    "id_image": "KAWAII1702202239523",
    "count_view": 0
  },
  {
    "link_thumb": "https://live.staticflickr.com/65535/49578247678_897aeb9c0b_n.jpg",
    "id_album": "-1099943053",
    "description": "KAWAII190220211110",
    "title": "KAWAII190220211110",
    "link_img": "https://live.staticflickr.com/65535/49578247678_5293d513a2_o.jpg",
    "id_image": "KAWAII190220211110",
    "count_view": 0
  },
  {
    "link_thumb": "https://live.staticflickr.com/65535/49548728826_0160971641_n.jpg",
    "id_album": "-1741487325",
    "description": "KAWAII1702202238487",
    "title": "KAWAII1702202238487",
    "link_img": "https://live.staticflickr.com/65535/49548728826_b3ea952716_o.jpg",
    "id_image": "KAWAII1702202238487",
    "count_view": 0
  },
  {
    "link_thumb": "https://live.staticflickr.com/65535/49548267818_9f48c0dd6c_n.jpg",
    "id_album": "-316663319",
    "description": "KAWAII17091834",
    "title": "KAWAII17091834",
    "link_img": "https://live.staticflickr.com/65535/49548267818_f463718cab_o.jpg",
    "id_image": "KAWAII17091834",
    "count_view": 0
  },
  {
    "link_thumb": "https://live.staticflickr.com/65535/49548663011_6cb79bc795_n.jpg",
    "id_album": "-1099943053",
    "description": "KAWAII1702202235201",
    "title": "KAWAII1702202235201",
    "link_img": "https://live.staticflickr.com/65535/49548663011_2b685b0a5d_o.jpg",
    "id_image": "KAWAII1702202235201",
    "count_view": 0
  },
  {
    "link_thumb": "https://live.staticflickr.com/65535/49548185898_3ef0c51f7b_n.jpg",
    "id_album": "-1741487325",
    "description": "KAWAII1702202237321",
    "title": "KAWAII1702202237321",
    "link_img": "https://live.staticflickr.com/65535/49548185898_abab100efd_o.jpg",
    "id_image": "KAWAII1702202237321",
    "count_view": 0
  },
  {
    "link_thumb": "https://live.staticflickr.com/65535/49742386178_0cfdce1133_n.jpg",
    "id_album": "742877173",
    "description": "KAWAII06042021491858",
    "title": "KAWAII06042021491858",
    "link_img": "https://live.staticflickr.com/65535/49742386178_b932cbaa6d_o.jpg",
    "id_image": "KAWAII06042021491858",
    "count_view": 0
  },
  {
    "link_thumb": "https://live.staticflickr.com/65535/49694091671_e2c80b25ac_n.jpg",
    "id_album": "1201366373",
    "description": "KAWAII120918213",
    "title": "KAWAII120918213",
    "link_img": "https://live.staticflickr.com/65535/49694091671_f396e77508_o.jpg",
    "id_image": "KAWAII120918213",
    "count_view": 0
  },
  {
    "link_thumb": "https://live.staticflickr.com/65535/49592212928_405a8dd919_n.jpg",
    "id_album": "-316663319",
    "description": "KAWAII2702202351143",
    "title": "KAWAII2702202351143",
    "link_img": "https://live.staticflickr.com/65535/49592212928_3f4652a666_o.jpg",
    "id_image": "KAWAII2702202351143",
    "count_view": 0
  },
  {
    "link_thumb": "https://live.staticflickr.com/65535/49548634151_aa774613fb_n.jpg",
    "id_album": "-422187261",
    "description": "KAWAII170220223441",
    "title": "KAWAII170220223441",
    "link_img": "https://live.staticflickr.com/65535/49548634151_3f11d7dfe3_o.jpg",
    "id_image": "KAWAII170220223441",
    "count_view": 0
  },
  {
    "link_thumb": "https://live.staticflickr.com/65535/49727428866_b94445e179_n.jpg",
    "id_album": "-1741487325",
    "description": "KAWAII020420194509190",
    "title": "KAWAII020420194509190",
    "link_img": "https://live.staticflickr.com/65535/49727428866_92a2cc237b_o.jpg",
    "id_image": "KAWAII020420194509190",
    "count_view": 0
  },
  {
    "link_thumb": "https://live.staticflickr.com/65535/49726886368_b98d4249b6_n.jpg",
    "id_album": "-1497779911",
    "description": "KAWAII12091841",
    "title": "KAWAII12091841",
    "link_img": "https://live.staticflickr.com/65535/49726886368_dd5b0a008f_o.jpg",
    "id_image": "KAWAII12091841",
    "count_view": 0
  },
  {
    "link_thumb": "https://live.staticflickr.com/65535/49592206198_a695eda715_n.jpg",
    "id_album": "1396902986",
    "description": "KAWAII27022023517",
    "title": "KAWAII27022023517",
    "link_img": "https://live.staticflickr.com/65535/49592206198_a184daf249_o.jpg",
    "id_image": "KAWAII27022023517",
    "count_view": 0
  },
  {
    "link_thumb": "https://live.staticflickr.com/65535/49623093352_35b1d184b3_n.jpg",
    "id_album": "-316663319",
    "description": "KAWAII0503202021191",
    "title": "KAWAII0503202021191",
    "link_img": "https://live.staticflickr.com/65535/49623093352_c23b7e6dbd_o.jpg",
    "id_image": "KAWAII0503202021191",
    "count_view": 0
  },
  {
    "link_thumb": "https://live.staticflickr.com/65535/49548659521_aa9eaafa9e_n.jpg",
    "id_album": "-422187261",
    "description": "KAWAII1702202235187",
    "title": "KAWAII1702202235187",
    "link_img": "https://live.staticflickr.com/65535/49548659521_185a302931_o.jpg",
    "id_image": "KAWAII1702202235187",
    "count_view": 0
  },
  {
    "link_thumb": "https://live.staticflickr.com/65535/49623077172_16baeb5882_n.jpg",
    "id_album": "1396902986",
    "description": "KAWAII05032020216",
    "title": "KAWAII05032020216",
    "link_img": "https://live.staticflickr.com/65535/49623077172_bbd401916a_o.jpg",
    "id_image": "KAWAII05032020216",
    "count_view": 0
  },
  {
    "link_thumb": "https://live.staticflickr.com/65535/49743244182_a033f0a672_n.jpg",
    "id_album": "-316663319",
    "description": "KAWAII060420214912107",
    "title": "KAWAII060420214912107",
    "link_img": "https://live.staticflickr.com/65535/49743244182_71f8f98f08_o.jpg",
    "id_image": "KAWAII060420214912107",
    "count_view": 0
  },
  {
    "link_thumb": "https://live.staticflickr.com/65535/49726884248_c550e37219_n.jpg",
    "id_album": "-1497779911",
    "description": "KAWAII0503202021211",
    "title": "KAWAII0503202021211",
    "link_img": "https://live.staticflickr.com/65535/49726884248_2c3b65451c_o.jpg",
    "id_image": "KAWAII0503202021211",
    "count_view": 0
  },
  {
    "link_thumb": "https://live.staticflickr.com/65535/49710820586_fe595c2acd_n.jpg",
    "id_album": "-1599896063",
    "description": "LITTLEMONK29032012063316",
    "title": "LITTLEMONK29032012063316",
    "link_img": "https://live.staticflickr.com/65535/49710820586_acbdb7b8ff_o.jpg",
    "id_image": "LITTLEMONK29032012063316",
    "count_view": 0
  },
  {
    "link_thumb": "https://live.staticflickr.com/65535/49726900543_19822a6e01_n.jpg",
    "id_album": "742877173",
    "description": "KAWAII020420194511259",
    "title": "KAWAII020420194511259",
    "link_img": "https://live.staticflickr.com/65535/49726900543_2f401ff096_o.jpg",
    "id_image": "KAWAII020420194511259",
    "count_view": 0
  },
  {
    "link_thumb": "https://live.staticflickr.com/65535/49727757377_18918f5616_n.jpg",
    "id_album": "742877173",
    "description": "KAWAII02042019450833",
    "title": "KAWAII02042019450833",
    "link_img": "https://live.staticflickr.com/65535/49727757377_ccb34e7fde_o.jpg",
    "id_image": "KAWAII02042019450833",
    "count_view": 0
  },
  {
    "link_thumb": "https://live.staticflickr.com/65535/49727760472_f207a0b69d_n.jpg",
    "id_album": "742877173",
    "description": "KAWAII020420194510165",
    "title": "KAWAII020420194510165",
    "link_img": "https://live.staticflickr.com/65535/49727760472_d1af13ab48_o.jpg",
    "id_image": "KAWAII020420194510165",
    "count_view": 0
  },
  {
    "link_thumb": "https://live.staticflickr.com/65535/49710822536_6e7910804a_n.jpg",
    "id_album": "-1599896063",
    "description": "LITTLEMONK2903201206396",
    "title": "LITTLEMONK2903201206396",
    "link_img": "https://live.staticflickr.com/65535/49710822536_705c64d0a0_o.jpg",
    "id_image": "LITTLEMONK2903201206396",
    "count_view": 0
  },
  {
    "link_thumb": "https://live.staticflickr.com/65535/49743255447_b5cdb13779_n.jpg",
    "id_album": "-316663319",
    "description": "KAWAII060420214917271",
    "title": "KAWAII060420214917271",
    "link_img": "https://live.staticflickr.com/65535/49743255447_4b9dbecc6a_o.jpg",
    "id_image": "KAWAII060420214917271",
    "count_view": 0
  },
  {
    "link_thumb": "https://live.staticflickr.com/65535/49694078321_cefdee9a95_n.jpg",
    "id_album": "-643980979",
    "description": "KAWAII050320202176",
    "title": "KAWAII050320202176",
    "link_img": "https://live.staticflickr.com/65535/49694078321_1849d53d29_o.jpg",
    "id_image": "KAWAII050320202176",
    "count_view": 0
  },
  {
    "link_thumb": "https://live.staticflickr.com/65535/49743266612_67a23a67d8_n.jpg",
    "id_album": "-1779286820",
    "description": "KAWAII06042021491236",
    "title": "KAWAII06042021491236",
    "link_img": "https://live.staticflickr.com/65535/49743266612_0ae8e41462_o.jpg",
    "id_image": "KAWAII06042021491236",
    "count_view": 0
  },
  {
    "link_thumb": "https://live.staticflickr.com/65535/49727453196_7151bc12f8_n.jpg",
    "id_album": "742877173",
    "description": "KAWAII02042019451430",
    "title": "KAWAII02042019451430",
    "link_img": "https://live.staticflickr.com/65535/49727453196_a3fe118243_o.jpg",
    "id_image": "KAWAII02042019451430",
    "count_view": 0
  },
  {
    "link_thumb": "https://live.staticflickr.com/65535/49548570486_dc709ec43b_n.jpg",
    "id_album": "-1694302085",
    "description": "KAWAII120918209",
    "title": "KAWAII120918209",
    "link_img": "https://live.staticflickr.com/65535/49548570486_5138dfca7b_o.jpg",
    "id_image": "KAWAII120918209",
    "count_view": 0
  },
  {
    "link_thumb": "https://live.staticflickr.com/65535/49592960942_cd3e725d7e_n.jpg",
    "id_album": "-316663319",
    "description": "KAWAII270220235147",
    "title": "KAWAII270220235147",
    "link_img": "https://live.staticflickr.com/65535/49592960942_c20af3a9ff_o.jpg",
    "id_image": "KAWAII270220235147",
    "count_view": 0
  },
  {
    "link_thumb": "https://live.staticflickr.com/65535/49694094696_78606a6e68_n.jpg",
    "id_album": "1201366373",
    "description": "KAWAII120918246",
    "title": "KAWAII120918246",
    "link_img": "https://live.staticflickr.com/65535/49694094696_3546c39ba8_o.jpg",
    "id_image": "KAWAII120918246",
    "count_view": 0
  },
  {
    "link_thumb": "https://live.staticflickr.com/65535/49694526187_c1cb44a107_n.jpg",
    "id_album": "-406350429",
    "description": "KAWAII270220235188",
    "title": "KAWAII270220235188",
    "link_img": "https://live.staticflickr.com/65535/49694526187_0d229d72ef_o.jpg",
    "id_image": "KAWAII270220235188",
    "count_view": 0
  },
  {
    "link_thumb": "https://live.staticflickr.com/65535/49727474271_07d32936da_n.jpg",
    "id_album": "1563362783",
    "description": "KAWAII1702202237328",
    "title": "KAWAII1702202237328",
    "link_img": "https://live.staticflickr.com/65535/49727474271_1ab324c88b_o.jpg",
    "id_image": "KAWAII1702202237328",
    "count_view": 0
  },
  {
    "link_thumb": "https://live.staticflickr.com/65535/49548818087_00d48ca029_n.jpg",
    "id_album": "-422187261",
    "description": "KAWAII120918302",
    "title": "KAWAII120918302",
    "link_img": "https://live.staticflickr.com/65535/49548818087_5861591717_o.jpg",
    "id_image": "KAWAII120918302",
    "count_view": 0
  },
  {
    "link_thumb": "https://live.staticflickr.com/65535/49742932701_d5377d3cb9_n.jpg",
    "id_album": "-316663319",
    "description": "KAWAII060420214918252",
    "title": "KAWAII060420214918252",
    "link_img": "https://live.staticflickr.com/65535/49742932701_f9a76244d5_o.jpg",
    "id_image": "KAWAII060420214918252",
    "count_view": 0
  },
  {
    "link_thumb": "https://live.staticflickr.com/65535/49548225908_8b02db5410_n.jpg",
    "id_album": "-1741487325",
    "description": "KAWAII1702202238477",
    "title": "KAWAII1702202238477",
    "link_img": "https://live.staticflickr.com/65535/49548225908_6b4d49fa09_o.jpg",
    "id_image": "KAWAII1702202238477",
    "count_view": 0
  },
  {
    "link_thumb": "https://live.staticflickr.com/65535/49548867492_3d9cb6c0b4_n.jpg",
    "id_album": "-316663319",
    "description": "KAWAII170220223468",
    "title": "KAWAII170220223468",
    "link_img": "https://live.staticflickr.com/65535/49548867492_84aca2cf5a_o.jpg",
    "id_image": "KAWAII170220223468",
    "count_view": 0
  },
  {
    "link_thumb": "https://live.staticflickr.com/65535/49548624861_25dfed5587_n.jpg",
    "id_album": "-316663319",
    "description": "KAWAII170220223321",
    "title": "KAWAII170220223321",
    "link_img": "https://live.staticflickr.com/65535/49548624861_ea60be6153_o.jpg",
    "id_image": "KAWAII170220223321",
    "count_view": 0
  },
  {
    "link_thumb": "https://live.staticflickr.com/65535/49693527668_57ff89f93a_n.jpg",
    "id_album": "-643980979",
    "description": "KAWAII050320202117",
    "title": "KAWAII050320202117",
    "link_img": "https://live.staticflickr.com/65535/49693527668_5f0f79687c_o.jpg",
    "id_image": "KAWAII050320202117",
    "count_view": 0
  },
  {
    "link_thumb": "https://live.staticflickr.com/65535/49548711691_52dff002c1_n.jpg",
    "id_album": "-422187261",
    "description": "KAWAII1702202238423",
    "title": "KAWAII1702202238423",
    "link_img": "https://live.staticflickr.com/65535/49548711691_a471ef5f97_o.jpg",
    "id_image": "KAWAII1702202238423",
    "count_view": 0
  },
  {
    "link_thumb": "https://live.staticflickr.com/65535/49694222031_32f2a3a884_n.jpg",
    "id_album": "-316663319",
    "description": "KAWAII24032022050211",
    "title": "KAWAII24032022050211",
    "link_img": "https://live.staticflickr.com/65535/49694222031_6565d723ca_o.jpg",
    "id_image": "KAWAII24032022050211",
    "count_view": 0
  },
  {
    "link_thumb": "https://live.staticflickr.com/65535/49742940636_d8143ca171_n.jpg",
    "id_album": "-1473448477",
    "description": "KAWAII06042021491592",
    "title": "KAWAII06042021491592",
    "link_img": "https://live.staticflickr.com/65535/49742940636_f6647df838_o.jpg",
    "id_image": "KAWAII06042021491592",
    "count_view": 0
  },
  {
    "link_thumb": "https://live.staticflickr.com/65535/49623096962_b2e24a4f06_n.jpg",
    "id_album": "-316663319",
    "description": "KAWAII0503202021223",
    "title": "KAWAII0503202021223",
    "link_img": "https://live.staticflickr.com/65535/49623096962_8d05fc8f26_o.jpg",
    "id_image": "KAWAII0503202021223",
    "count_view": 0
  },
  {
    "link_thumb": "https://live.staticflickr.com/65535/49622303293_655cb13b6d_n.jpg",
    "id_album": "-316663319",
    "description": "KAWAII0503202021146",
    "title": "KAWAII0503202021146",
    "link_img": "https://live.staticflickr.com/65535/49622303293_d1c675112f_o.jpg",
    "id_image": "KAWAII0503202021146",
    "count_view": 0
  },
  {
    "link_thumb": "https://live.staticflickr.com/65535/49742937191_4040c29279_n.jpg",
    "id_album": "-1473448477",
    "description": "KAWAII060420214915231",
    "title": "KAWAII060420214915231",
    "link_img": "https://live.staticflickr.com/65535/49742937191_69f587b69a_o.jpg",
    "id_image": "KAWAII060420214915231",
    "count_view": 0
  },
  {
    "link_thumb": "https://live.staticflickr.com/65535/49548544106_8405c0472a_n.jpg",
    "id_album": "-316663319",
    "description": "KAWAII12091810",
    "title": "KAWAII12091810",
    "link_img": "https://live.staticflickr.com/65535/49548544106_9f59e75a27_o.jpg",
    "id_image": "KAWAII12091810",
    "count_view": 0
  },
  {
    "link_thumb": "https://live.staticflickr.com/65535/49548654981_7ebe7d61b8_n.jpg",
    "id_album": "-316663319",
    "description": "KAWAII1702202235164",
    "title": "KAWAII1702202235164",
    "link_img": "https://live.staticflickr.com/65535/49548654981_c716c5d9e4_o.jpg",
    "id_image": "KAWAII1702202235164",
    "count_view": 0
  },
  {
    "link_thumb": "https://live.staticflickr.com/65535/49622806251_53961a8dca_n.jpg",
    "id_album": "-1741487325",
    "description": "KAWAII0503202021158",
    "title": "KAWAII0503202021158",
    "link_img": "https://live.staticflickr.com/65535/49622806251_a997a54bbd_o.jpg",
    "id_image": "KAWAII0503202021158",
    "count_view": 0
  },
  {
    "link_thumb": "https://live.staticflickr.com/65535/49622305398_fc6c1afdd2_n.jpg",
    "id_album": "-316663319",
    "description": "KAWAII0503202021184",
    "title": "KAWAII0503202021184",
    "link_img": "https://live.staticflickr.com/65535/49622305398_db7491fa16_o.jpg",
    "id_image": "KAWAII0503202021184",
    "count_view": 0
  },
  {
    "link_thumb": "https://live.staticflickr.com/65535/49727437841_c5fcc38879_n.jpg",
    "id_album": "-316663319",
    "description": "KAWAII0204201945103",
    "title": "KAWAII0204201945103",
    "link_img": "https://live.staticflickr.com/65535/49727437841_e533bc7326_o.jpg",
    "id_image": "KAWAII0204201945103",
    "count_view": 0
  },
  {
    "link_thumb": "https://live.staticflickr.com/65535/49552024348_0ec56c8447_n.jpg",
    "id_album": "-1432180061",
    "description": "KAWAII12091825180220205939",
    "title": "KAWAII12091825180220205939",
    "link_img": "https://live.staticflickr.com/65535/49552024348_b2b262bbb4_o.jpg",
    "id_image": "KAWAII12091825180220205939",
    "count_view": 0
  },
  {
    "link_thumb": "https://live.staticflickr.com/65535/49742398653_358db2c76e_n.jpg",
    "id_album": "-1779286820",
    "description": "KAWAII06042021491835",
    "title": "KAWAII06042021491835",
    "link_img": "https://live.staticflickr.com/65535/49742398653_4ee33a0760_o.jpg",
    "id_image": "KAWAII06042021491835",
    "count_view": 0
  },
  {
    "link_thumb": "https://live.staticflickr.com/65535/49693674833_7e8afd7a1d_n.jpg",
    "id_album": "-643980979",
    "description": "KAWAII24032022050132",
    "title": "KAWAII24032022050132",
    "link_img": "https://live.staticflickr.com/65535/49693674833_1a9ea677c4_o.jpg",
    "id_image": "KAWAII24032022050132",
    "count_view": 0
  },
  {
    "link_thumb": "https://live.staticflickr.com/65535/49548667946_8886f00704_n.jpg",
    "id_album": "-422187261",
    "description": "KAWAII1702202236227",
    "title": "KAWAII1702202236227",
    "link_img": "https://live.staticflickr.com/65535/49548667946_abc94f15f7_o.jpg",
    "id_image": "KAWAII1702202236227",
    "count_view": 0
  },
  {
    "link_thumb": "https://live.staticflickr.com/65535/49726919558_77af99ea8a_n.jpg",
    "id_album": "-1862561193",
    "description": "KAWAII020420194509207",
    "title": "KAWAII020420194509207",
    "link_img": "https://live.staticflickr.com/65535/49726919558_1fdcf5da62_o.jpg",
    "id_image": "KAWAII020420194509207",
    "count_view": 0
  },
  {
    "link_thumb": "https://live.staticflickr.com/65535/49548669546_d864b4cec1_n.jpg",
    "id_album": "-1741487325",
    "description": "KAWAII1702202236234",
    "title": "KAWAII1702202236234",
    "link_img": "https://live.staticflickr.com/65535/49548669546_02a854cb7a_o.jpg",
    "id_image": "KAWAII1702202236234",
    "count_view": 0
  },
  {
    "link_thumb": "https://live.staticflickr.com/65535/49622331253_409fec308c_n.jpg",
    "id_album": "-406350429",
    "description": "KAWAII0503202021251",
    "title": "KAWAII0503202021251",
    "link_img": "https://live.staticflickr.com/65535/49622331253_957a9a1d10_o.jpg",
    "id_image": "KAWAII0503202021251",
    "count_view": 0
  },
  {
    "link_thumb": "https://live.staticflickr.com/65535/49548083698_a5d5e71e7f_n.jpg",
    "id_album": "-1741487325",
    "description": "KAWAII120918282",
    "title": "KAWAII120918282",
    "link_img": "https://live.staticflickr.com/65535/49548083698_a9a5b35c14_o.jpg",
    "id_image": "KAWAII120918282",
    "count_view": 0
  },
  {
    "link_thumb": "https://live.staticflickr.com/65535/49727749037_9ed67e858e_n.jpg",
    "id_album": "-1497779911",
    "description": "KAWAII1702202238445",
    "title": "KAWAII1702202238445",
    "link_img": "https://live.staticflickr.com/65535/49727749037_3b79b4f4de_o.jpg",
    "id_image": "KAWAII1702202238445",
    "count_view": 0
  },
  {
    "link_thumb": "https://live.staticflickr.com/65535/49742957031_34edfd1845_n.jpg",
    "id_album": "-1431786825",
    "description": "KAWAII06042021491564",
    "title": "KAWAII06042021491564",
    "link_img": "https://live.staticflickr.com/65535/49742957031_7fb48a5c4c_o.jpg",
    "id_image": "KAWAII06042021491564",
    "count_view": 0
  },
  {
    "link_thumb": "https://live.staticflickr.com/65535/49727786567_53f487c2c8_n.jpg",
    "id_album": "-1862561193",
    "description": "KAWAII02042019451318",
    "title": "KAWAII02042019451318",
    "link_img": "https://live.staticflickr.com/65535/49727786567_55a0f50465_o.jpg",
    "id_image": "KAWAII02042019451318",
    "count_view": 0
  },
  {
    "link_thumb": "https://live.staticflickr.com/65535/49548645296_9dcffe9684_n.jpg",
    "id_album": "-1432180061",
    "description": "KAWAII170220223492",
    "title": "KAWAII170220223492",
    "link_img": "https://live.staticflickr.com/65535/49548645296_0a4dc82c12_o.jpg",
    "id_image": "KAWAII170220223492",
    "count_view": 0
  },
  {
    "link_thumb": "https://live.staticflickr.com/65535/49742954436_79e38cee5f_n.jpg",
    "id_album": "-1431786825",
    "description": "KAWAII060420214912268",
    "title": "KAWAII060420214912268",
    "link_img": "https://live.staticflickr.com/65535/49742954436_2ae6f8afb5_o.jpg",
    "id_image": "KAWAII060420214912268",
    "count_view": 0
  },
  {
    "link_thumb": "https://live.staticflickr.com/65535/49548587041_497fdce4ca_n.jpg",
    "id_album": "-316663319",
    "description": "KAWAII120918288",
    "title": "KAWAII120918288",
    "link_img": "https://live.staticflickr.com/65535/49548587041_cf1d84938a_o.jpg",
    "id_image": "KAWAII120918288",
    "count_view": 0
  },
  {
    "link_thumb": "https://live.staticflickr.com/65535/49742408543_f5f39b9b01_n.jpg",
    "id_album": "-1431786825",
    "description": "KAWAII060420214915193",
    "title": "KAWAII060420214915193",
    "link_img": "https://live.staticflickr.com/65535/49742408543_e1cc061ec5_o.jpg",
    "id_image": "KAWAII060420214915193",
    "count_view": 0
  },
  {
    "link_thumb": "https://live.staticflickr.com/65535/49548792212_18652bd969_n.jpg",
    "id_album": "-1694302085",
    "description": "KAWAII120918186",
    "title": "KAWAII120918186",
    "link_img": "https://live.staticflickr.com/65535/49548792212_2f9e4d6e30_o.jpg",
    "id_image": "KAWAII120918186",
    "count_view": 0
  },
  {
    "link_thumb": "https://live.staticflickr.com/65535/49742369103_b35dcc7e8f_n.jpg",
    "id_album": "-643980979",
    "description": "KAWAII270220235134",
    "title": "KAWAII270220235134",
    "link_img": "https://live.staticflickr.com/65535/49742369103_90c86aa867_o.jpg",
    "id_image": "KAWAII270220235134",
    "count_view": 0
  },
  {
    "link_thumb": "https://live.staticflickr.com/65535/49548555181_6094758b68_n.jpg",
    "id_album": "-1741487325",
    "description": "KAWAII120918144",
    "title": "KAWAII120918144",
    "link_img": "https://live.staticflickr.com/65535/49548555181_595bf68478_o.jpg",
    "id_image": "KAWAII120918144",
    "count_view": 0
  },
  {
    "link_thumb": "https://live.staticflickr.com/65535/49548978222_83df9d4960_n.jpg",
    "id_album": "-1694302085",
    "description": "KAWAII1702202239575",
    "title": "KAWAII1702202239575",
    "link_img": "https://live.staticflickr.com/65535/49548978222_34d8bacd1b_o.jpg",
    "id_image": "KAWAII1702202239575",
    "count_view": 0
  },
  {
    "link_thumb": "https://live.staticflickr.com/65535/49548051878_90ee37e07d_n.jpg",
    "id_album": "-316663319",
    "description": "KAWAII120918138",
    "title": "KAWAII120918138",
    "link_img": "https://live.staticflickr.com/65535/49548051878_8ff0cefa9d_o.jpg",
    "id_image": "KAWAII120918138",
    "count_view": 0
  },
  {
    "link_thumb": "https://live.staticflickr.com/65535/49548925482_76aa3720cf_n.jpg",
    "id_album": "-422187261",
    "description": "KAWAII1702202237369",
    "title": "KAWAII1702202237369",
    "link_img": "https://live.staticflickr.com/65535/49548925482_ec816fe0df_o.jpg",
    "id_image": "KAWAII1702202237369",
    "count_view": 0
  }
]