[
  {
    "link_thumb": "https://live.staticflickr.com/65535/49592728911_575c675ae4_n.jpg",
    "id_album": "949200594",
    "description": "KAWAII2702202351109",
    "title": "KAWAII2702202351109",
    "link_img": "https://live.staticflickr.com/65535/49592728911_b42aca2802_o.jpg",
    "id_image": "KAWAII2702202351109",
    "count_view": 0
  },
  {
    "link_thumb": "https://live.staticflickr.com/65535/49548191888_3a192a2b9e_n.jpg",
    "id_album": "-422187261",
    "description": "KAWAII1702202237348",
    "title": "KAWAII1702202237348",
    "link_img": "https://live.staticflickr.com/65535/49548191888_1e0f791fa2_o.jpg",
    "id_image": "KAWAII1702202237348",
    "count_view": 0
  },
  {
    "link_thumb": "https://live.staticflickr.com/65535/49743232892_ca4857bffc_n.jpg",
    "id_album": "-1694302085",
    "description": "KAWAII060420214912302",
    "title": "KAWAII060420214912302",
    "link_img": "https://live.staticflickr.com/65535/49743232892_df46f0b288_o.jpg",
    "id_image": "KAWAII060420214912302",
    "count_view": 0
  },
  {
    "link_thumb": "https://live.staticflickr.com/65535/49726883333_26fc3dfe7f_n.jpg",
    "id_album": "-1497779911",
    "description": "KAWAII0503202021107",
    "title": "KAWAII0503202021107",
    "link_img": "https://live.staticflickr.com/65535/49726883333_501bf31d6c_o.jpg",
    "id_image": "KAWAII0503202021107",
    "count_view": 0
  },
  {
    "link_thumb": "https://live.staticflickr.com/65535/49727745862_fe5f0d562c_n.jpg",
    "id_album": "-1497779911",
    "description": "KAWAII0503202021189",
    "title": "KAWAII0503202021189",
    "link_img": "https://live.staticflickr.com/65535/49727745862_a8cb1b0243_o.jpg",
    "id_image": "KAWAII0503202021189",
    "count_view": 0
  },
  {
    "link_thumb": "https://live.staticflickr.com/65535/49622837701_8c5132a8df_n.jpg",
    "id_album": "-316663319",
    "description": "KAWAII050320202153",
    "title": "KAWAII050320202153",
    "link_img": "https://live.staticflickr.com/65535/49622837701_082e4868e9_o.jpg",
    "id_image": "KAWAII050320202153",
    "count_view": 0
  },
  {
    "link_thumb": "https://live.staticflickr.com/65535/49726899073_0c787eac5c_n.jpg",
    "id_album": "742877173",
    "description": "KAWAII020420194510218",
    "title": "KAWAII020420194510218",
    "link_img": "https://live.staticflickr.com/65535/49726899073_150282ca4e_o.jpg",
    "id_image": "KAWAII020420194510218",
    "count_view": 0
  },
  {
    "link_thumb": "https://live.staticflickr.com/65535/49693528903_122ff17fb2_n.jpg",
    "id_album": "-643980979",
    "description": "KAWAII0503202021221",
    "title": "KAWAII0503202021221",
    "link_img": "https://live.staticflickr.com/65535/49693528903_94f5696501_o.jpg",
    "id_image": "KAWAII0503202021221",
    "count_view": 0
  },
  {
    "link_thumb": "https://live.staticflickr.com/65535/49548933977_7d5feaa596_n.jpg",
    "id_album": "1396902986",
    "description": "KAWAII1702202238403",
    "title": "KAWAII1702202238403",
    "link_img": "https://live.staticflickr.com/65535/49548933977_def2e352e9_o.jpg",
    "id_image": "KAWAII1702202238403",
    "count_view": 0
  },
  {
    "link_thumb": "https://live.staticflickr.com/65535/49727434356_c3ff8953bd_n.jpg",
    "id_album": "-1497779911",
    "description": "KAWAII1702202235125",
    "title": "KAWAII1702202235125",
    "link_img": "https://live.staticflickr.com/65535/49727434356_b768281799_o.jpg",
    "id_image": "KAWAII1702202235125",
    "count_view": 0
  },
  {
    "link_thumb": "https://live.staticflickr.com/65535/49694524487_a6a8840a83_n.jpg",
    "id_album": "-1432180061",
    "description": "KAWAII1702202235151",
    "title": "KAWAII1702202235151",
    "link_img": "https://live.staticflickr.com/65535/49694524487_e08cef51e0_o.jpg",
    "id_image": "KAWAII1702202235151",
    "count_view": 0
  },
  {
    "link_thumb": "https://live.staticflickr.com/65535/49578248238_c02e450583_n.jpg",
    "id_album": "-1099943053",
    "description": "KAWAII19022021116",
    "title": "KAWAII19022021116",
    "link_img": "https://live.staticflickr.com/65535/49578248238_266350c32d_o.jpg",
    "id_image": "KAWAII19022021116",
    "count_view": 0
  },
  {
    "link_thumb": "https://live.staticflickr.com/65535/49743233892_8006c1c9bf_n.jpg",
    "id_album": "-1694302085",
    "description": "KAWAII060420214917292",
    "title": "KAWAII060420214917292",
    "link_img": "https://live.staticflickr.com/65535/49743233892_aa0b5ce156_o.jpg",
    "id_image": "KAWAII060420214917292",
    "count_view": 0
  },
  {
    "link_thumb": "https://live.staticflickr.com/65535/49622330038_a73d48814a_n.jpg",
    "id_album": "-406350429",
    "description": "KAWAII050320202122",
    "title": "KAWAII050320202122",
    "link_img": "https://live.staticflickr.com/65535/49622330038_4729d9fd93_o.jpg",
    "id_image": "KAWAII050320202122",
    "count_view": 0
  },
  {
    "link_thumb": "https://live.staticflickr.com/65535/49742952006_e9716ab44a_n.jpg",
    "id_album": "-1862561193",
    "description": "KAWAII0604202149153",
    "title": "KAWAII0604202149153",
    "link_img": "https://live.staticflickr.com/65535/49742952006_73b3e51801_o.jpg",
    "id_image": "KAWAII0604202149153",
    "count_view": 0
  },
  {
    "link_thumb": "https://live.staticflickr.com/65535/49548603446_33fa09eeaf_n.jpg",
    "id_album": "-1099943053",
    "description": "KAWAII120918353",
    "title": "KAWAII120918353",
    "link_img": "https://live.staticflickr.com/65535/49548603446_c9733f6d5d_o.jpg",
    "id_image": "KAWAII120918353",
    "count_view": 0
  },
  {
    "link_thumb": "https://live.staticflickr.com/65535/49548043143_a178d66949_n.jpg",
    "id_album": "-316663319",
    "description": "KAWAII120918103",
    "title": "KAWAII120918103",
    "link_img": "https://live.staticflickr.com/65535/49548043143_f7ce068383_o.jpg",
    "id_image": "KAWAII120918103",
    "count_view": 0
  },
  {
    "link_thumb": "https://live.staticflickr.com/65535/49548180303_ee417ed302_n.jpg",
    "id_album": "1396902986",
    "description": "KAWAII1702202236296",
    "title": "KAWAII1702202236296",
    "link_img": "https://live.staticflickr.com/65535/49548180303_e1d6316ffd_o.jpg",
    "id_image": "KAWAII1702202236296",
    "count_view": 0
  },
  {
    "link_thumb": "https://live.staticflickr.com/65535/49548998657_d4c4792e73_n.jpg",
    "id_album": "949200594",
    "description": "KAWAII17091847",
    "title": "KAWAII17091847",
    "link_img": "https://live.staticflickr.com/65535/49548998657_170f4d120f_o.jpg",
    "id_image": "KAWAII17091847",
    "count_view": 0
  },
  {
    "link_thumb": "https://live.staticflickr.com/65535/49726924058_d46096920e_n.jpg",
    "id_album": "-1862561193",
    "description": "KAWAII020420194512240",
    "title": "KAWAII020420194512240",
    "link_img": "https://live.staticflickr.com/65535/49726924058_f0799f0eef_o.jpg",
    "id_image": "KAWAII020420194512240",
    "count_view": 0
  },
  {
    "link_thumb": "https://live.staticflickr.com/65535/49693678043_28ff5f0824_n.jpg",
    "id_album": "-1432180061",
    "description": "KAWAII1702202237331",
    "title": "KAWAII1702202237331",
    "link_img": "https://live.staticflickr.com/65535/49693678043_e1f98b1124_o.jpg",
    "id_image": "KAWAII1702202237331",
    "count_view": 0
  },
  {
    "link_thumb": "https://live.staticflickr.com/65535/49552022683_2c3037ec3c_n.jpg",
    "id_album": "431597977",
    "description": "KAWAII1209182518022020593",
    "title": "KAWAII1209182518022020593",
    "link_img": "https://live.staticflickr.com/65535/49552022683_e8585838e2_o.jpg",
    "id_image": "KAWAII1209182518022020593",
    "count_view": 0
  },
  {
    "link_thumb": "https://live.staticflickr.com/65535/49694222986_cda2beeb24_n.jpg",
    "id_album": "1201366373",
    "description": "KAWAII24032022050142",
    "title": "KAWAII24032022050142",
    "link_img": "https://live.staticflickr.com/65535/49694222986_33c2bf2483_o.jpg",
    "id_image": "KAWAII24032022050142",
    "count_view": 0
  },
  {
    "link_thumb": "https://live.staticflickr.com/65535/49727437436_c6c1274a44_n.jpg",
    "id_album": "-316663319",
    "description": "KAWAII020420194510260",
    "title": "KAWAII020420194510260",
    "link_img": "https://live.staticflickr.com/65535/49727437436_fdae47b3bc_o.jpg",
    "id_image": "KAWAII020420194510260",
    "count_view": 0
  },
  {
    "link_thumb": "https://live.staticflickr.com/65535/49548645296_9dcffe9684_n.jpg",
    "id_album": "-1432180061",
    "description": "KAWAII170220223492",
    "title": "KAWAII170220223492",
    "link_img": "https://live.staticflickr.com/65535/49548645296_0a4dc82c12_o.jpg",
    "id_image": "KAWAII170220223492",
    "count_view": 0
  },
  {
    "link_thumb": "https://live.staticflickr.com/65535/49548903547_a7812df0f8_n.jpg",
    "id_album": "-422187261",
    "description": "KAWAII1702202236271",
    "title": "KAWAII1702202236271",
    "link_img": "https://live.staticflickr.com/65535/49548903547_c91e97f61d_o.jpg",
    "id_image": "KAWAII1702202236271",
    "count_view": 0
  },
  {
    "link_thumb": "https://live.staticflickr.com/65535/49694405537_4e31a2246e_n.jpg",
    "id_album": "1201366373",
    "description": "KAWAII12091861",
    "title": "KAWAII12091861",
    "link_img": "https://live.staticflickr.com/65535/49694405537_f1c5d561c6_o.jpg",
    "id_image": "KAWAII12091861",
    "count_view": 0
  },
  {
    "link_thumb": "https://live.staticflickr.com/65535/49548608146_9fe9c57e70_n.jpg",
    "id_album": "-1741487325",
    "description": "KAWAII120918373",
    "title": "KAWAII120918373",
    "link_img": "https://live.staticflickr.com/65535/49548608146_ba1314391a_o.jpg",
    "id_image": "KAWAII120918373",
    "count_view": 0
  },
  {
    "link_thumb": "https://live.staticflickr.com/65535/49622827011_6611e8b22c_n.jpg",
    "id_album": "-316663319",
    "description": "KAWAII0503202021246",
    "title": "KAWAII0503202021246",
    "link_img": "https://live.staticflickr.com/65535/49622827011_6cfa1627f7_o.jpg",
    "id_image": "KAWAII0503202021246",
    "count_view": 0
  },
  {
    "link_thumb": "https://live.staticflickr.com/65535/49548978222_83df9d4960_n.jpg",
    "id_album": "-1694302085",
    "description": "KAWAII1702202239575",
    "title": "KAWAII1702202239575",
    "link_img": "https://live.staticflickr.com/65535/49548978222_34d8bacd1b_o.jpg",
    "id_image": "KAWAII1702202239575",
    "count_view": 0
  },
  {
    "link_thumb": "https://live.staticflickr.com/65535/49548896447_10611e9e0e_n.jpg",
    "id_album": "-316663319",
    "description": "KAWAII1702202236231",
    "title": "KAWAII1702202236231",
    "link_img": "https://live.staticflickr.com/65535/49548896447_e20532dd12_o.jpg",
    "id_image": "KAWAII1702202236231",
    "count_view": 0
  },
  {
    "link_thumb": "https://live.staticflickr.com/65535/49742389923_e272274913_n.jpg",
    "id_album": "-1473448477",
    "description": "KAWAII060420214915240",
    "title": "KAWAII060420214915240",
    "link_img": "https://live.staticflickr.com/65535/49742389923_3c886ac146_o.jpg",
    "id_image": "KAWAII060420214915240",
    "count_view": 0
  },
  {
    "link_thumb": "https://live.staticflickr.com/65535/49743239732_22caebe43d_n.jpg",
    "id_album": "-1497779911",
    "description": "KAWAII06042021491897",
    "title": "KAWAII06042021491897",
    "link_img": "https://live.staticflickr.com/65535/49743239732_45c8359692_o.jpg",
    "id_image": "KAWAII06042021491897",
    "count_view": 0
  },
  {
    "link_thumb": "https://live.staticflickr.com/65535/49743268647_5836ba6a0b_n.jpg",
    "id_album": "-1779286820",
    "description": "KAWAII06042021491810",
    "title": "KAWAII06042021491810",
    "link_img": "https://live.staticflickr.com/65535/49743268647_6d1c9c795c_o.jpg",
    "id_image": "KAWAII06042021491810",
    "count_view": 0
  },
  {
    "link_thumb": "https://live.staticflickr.com/65535/49743273837_bfef20cf50_n.jpg",
    "id_album": "-1862561193",
    "description": "KAWAII060420214911202",
    "title": "KAWAII060420214911202",
    "link_img": "https://live.staticflickr.com/65535/49743273837_eb67cda728_o.jpg",
    "id_image": "KAWAII060420214911202",
    "count_view": 0
  },
  {
    "link_thumb": "https://live.staticflickr.com/65535/49694127156_caf5214d04_n.jpg",
    "id_album": "1563362783",
    "description": "KAWAII1702202239565",
    "title": "KAWAII1702202239565",
    "link_img": "https://live.staticflickr.com/65535/49694127156_61cf2b0257_o.jpg",
    "id_image": "KAWAII1702202239565",
    "count_view": 0
  },
  {
    "link_thumb": "https://live.staticflickr.com/65535/49694123611_c7622fded6_n.jpg",
    "id_album": "-358592519",
    "description": "KAWAII120918106",
    "title": "KAWAII120918106",
    "link_img": "https://live.staticflickr.com/65535/49694123611_c2ff434e14_o.jpg",
    "id_image": "KAWAII120918106",
    "count_view": 0
  },
  {
    "link_thumb": "https://live.staticflickr.com/65535/49548565186_e0446b8503_n.jpg",
    "id_album": "-316663319",
    "description": "KAWAII120918185",
    "title": "KAWAII120918185",
    "link_img": "https://live.staticflickr.com/65535/49548565186_847cb5da01_o.jpg",
    "id_image": "KAWAII120918185",
    "count_view": 0
  },
  {
    "link_thumb": "https://live.staticflickr.com/65535/49548742611_b5332b7a92_n.jpg",
    "id_album": "1396902986",
    "description": "KAWAII1702202239539",
    "title": "KAWAII1702202239539",
    "link_img": "https://live.staticflickr.com/65535/49548742611_78c0a19566_o.jpg",
    "id_image": "KAWAII1702202239539",
    "count_view": 0
  },
  {
    "link_thumb": "https://live.staticflickr.com/65535/49726920793_d5f069a07f_n.jpg",
    "id_album": "-1862561193",
    "description": "KAWAII0204201945111",
    "title": "KAWAII0204201945111",
    "link_img": "https://live.staticflickr.com/65535/49726920793_d6b6f36c3f_o.jpg",
    "id_image": "KAWAII0204201945111",
    "count_view": 0
  },
  {
    "link_thumb": "https://live.staticflickr.com/65535/49726881143_d4a10af099_n.jpg",
    "id_album": "-1741487325",
    "description": "KAWAII02042019450827",
    "title": "KAWAII02042019450827",
    "link_img": "https://live.staticflickr.com/65535/49726881143_99a3e5255f_o.jpg",
    "id_image": "KAWAII02042019450827",
    "count_view": 0
  },
  {
    "link_thumb": "https://live.staticflickr.com/65535/49694387482_6e6cd0b89a_n.jpg",
    "id_album": "1201366373",
    "description": "KAWAII120918156",
    "title": "KAWAII120918156",
    "link_img": "https://live.staticflickr.com/65535/49694387482_748bc789cc_o.jpg",
    "id_image": "KAWAII120918156",
    "count_view": 0
  },
  {
    "link_thumb": "https://live.staticflickr.com/65535/49693533863_24f57dd157_n.jpg",
    "id_album": "1201366373",
    "description": "KAWAII050320202172",
    "title": "KAWAII050320202172",
    "link_img": "https://live.staticflickr.com/65535/49693533863_6a9820385c_o.jpg",
    "id_image": "KAWAII050320202172",
    "count_view": 0
  },
  {
    "link_thumb": "https://live.staticflickr.com/65535/49548566801_954692e382_n.jpg",
    "id_album": "-316663319",
    "description": "KAWAII120918193",
    "title": "KAWAII120918193",
    "link_img": "https://live.staticflickr.com/65535/49548566801_9b9ece4a00_o.jpg",
    "id_image": "KAWAII120918193",
    "count_view": 0
  },
  {
    "link_thumb": "https://live.staticflickr.com/65535/49552517546_3db48d2cf6_n.jpg",
    "id_album": "-1432180061",
    "description": "KAWAII12091825180220205914",
    "title": "KAWAII12091825180220205914",
    "link_img": "https://live.staticflickr.com/65535/49552517546_e89db4b3ec_o.jpg",
    "id_image": "KAWAII12091825180220205914",
    "count_view": 0
  },
  {
    "link_thumb": "https://live.staticflickr.com/65535/49552022963_0a629afafb_n.jpg",
    "id_album": "-1694302085",
    "description": "KAWAII12091825180220205931",
    "title": "KAWAII12091825180220205931",
    "link_img": "https://live.staticflickr.com/65535/49552022963_5b8deaced8_o.jpg",
    "id_image": "KAWAII12091825180220205931",
    "count_view": 0
  },
  {
    "link_thumb": "https://live.staticflickr.com/65535/49592951312_d3cd4b1750_n.jpg",
    "id_album": "1396902986",
    "description": "KAWAII270220235178",
    "title": "KAWAII270220235178",
    "link_img": "https://live.staticflickr.com/65535/49592951312_88327c789a_o.jpg",
    "id_image": "KAWAII270220235178",
    "count_view": 0
  },
  {
    "link_thumb": "https://live.staticflickr.com/65535/49694532697_ef3e3c520d_n.jpg",
    "id_album": "1226948986",
    "description": "KAWAII24032022050253",
    "title": "KAWAII24032022050253",
    "link_img": "https://live.staticflickr.com/65535/49694532697_e62fff0859_o.jpg",
    "id_image": "KAWAII24032022050253",
    "count_view": 0
  },
  {
    "link_thumb": "https://live.staticflickr.com/65535/49622802016_1558a39696_n.jpg",
    "id_album": "1396902986",
    "description": "KAWAII0503202021231",
    "title": "KAWAII0503202021231",
    "link_img": "https://live.staticflickr.com/65535/49622802016_e5b340f81d_o.jpg",
    "id_image": "KAWAII0503202021231",
    "count_view": 0
  },
  {
    "link_thumb": "https://live.staticflickr.com/65535/49548887987_33b8307549_n.jpg",
    "id_album": "-1694302085",
    "description": "KAWAII1702202235190",
    "title": "KAWAII1702202235190",
    "link_img": "https://live.staticflickr.com/65535/49548887987_cdf8aa4702_o.jpg",
    "id_image": "KAWAII1702202235190",
    "count_view": 0
  },
  {
    "link_thumb": "https://live.staticflickr.com/65535/49548275863_be7720d877_n.jpg",
    "id_album": "949200594",
    "description": "KAWAII1709188",
    "title": "KAWAII1709188",
    "link_img": "https://live.staticflickr.com/65535/49548275863_5317ecc65b_o.jpg",
    "id_image": "KAWAII1709188",
    "count_view": 0
  },
  {
    "link_thumb": "https://live.staticflickr.com/65535/49726883238_c1f6625ddc_n.jpg",
    "id_album": "-1497779911",
    "description": "KAWAII020420194512169",
    "title": "KAWAII020420194512169",
    "link_img": "https://live.staticflickr.com/65535/49726883238_e983ae8813_o.jpg",
    "id_image": "KAWAII020420194512169",
    "count_view": 0
  },
  {
    "link_thumb": "https://live.staticflickr.com/65535/49548172973_972b1737b0_n.jpg",
    "id_album": "-1432180061",
    "description": "KAWAII1702202236258",
    "title": "KAWAII1702202236258",
    "link_img": "https://live.staticflickr.com/65535/49548172973_c022eb6b6d_o.jpg",
    "id_image": "KAWAII1702202236258",
    "count_view": 0
  },
  {
    "link_thumb": "https://live.staticflickr.com/65535/49623114102_c4b0e64840_n.jpg",
    "id_album": "-406350429",
    "description": "KAWAII0503202021115",
    "title": "KAWAII0503202021115",
    "link_img": "https://live.staticflickr.com/65535/49623114102_63275bcc45_o.jpg",
    "id_image": "KAWAII0503202021115",
    "count_view": 0
  },
  {
    "link_thumb": "https://live.staticflickr.com/65535/49622825466_29ee1c26a4_n.jpg",
    "id_album": "-316663319",
    "description": "KAWAII0503202021227",
    "title": "KAWAII0503202021227",
    "link_img": "https://live.staticflickr.com/65535/49622825466_a5578440bd_o.jpg",
    "id_image": "KAWAII0503202021227",
    "count_view": 0
  },
  {
    "link_thumb": "https://live.staticflickr.com/65535/49694401032_dc3cc4f2c4_n.jpg",
    "id_album": "1201366373",
    "description": "KAWAII120918280",
    "title": "KAWAII120918280",
    "link_img": "https://live.staticflickr.com/65535/49694401032_1877c96ec1_o.jpg",
    "id_image": "KAWAII120918280",
    "count_view": 0
  },
  {
    "link_thumb": "https://live.staticflickr.com/65535/49548589441_a5fe42b307_n.jpg",
    "id_album": "-316663319",
    "description": "KAWAII120918298",
    "title": "KAWAII120918298",
    "link_img": "https://live.staticflickr.com/65535/49548589441_7894d2d0f6_o.jpg",
    "id_image": "KAWAII120918298",
    "count_view": 0
  },
  {
    "link_thumb": "https://live.staticflickr.com/65535/49743276592_fbdd67d330_n.jpg",
    "id_album": "-358592519",
    "description": "KAWAII060420214912266",
    "title": "KAWAII060420214912266",
    "link_img": "https://live.staticflickr.com/65535/49743276592_0be05d9327_o.jpg",
    "id_image": "KAWAII060420214912266",
    "count_view": 0
  },
  {
    "link_thumb": "https://live.staticflickr.com/65535/49742946911_554a53ee30_n.jpg",
    "id_album": "1396902986",
    "description": "KAWAII06042021491181",
    "title": "KAWAII06042021491181",
    "link_img": "https://live.staticflickr.com/65535/49742946911_fa5d7f719b_o.jpg",
    "id_image": "KAWAII06042021491181",
    "count_view": 0
  },
  {
    "link_thumb": "https://live.staticflickr.com/65535/49726888153_5b12154636_n.jpg",
    "id_album": "-316663319",
    "description": "KAWAII020420194507131",
    "title": "KAWAII020420194507131",
    "link_img": "https://live.staticflickr.com/65535/49726888153_0a189f0da6_o.jpg",
    "id_image": "KAWAII020420194507131",
    "count_view": 0
  },
  {
    "link_thumb": "https://live.staticflickr.com/65535/49548916167_7193644414_n.jpg",
    "id_album": "1396902986",
    "description": "KAWAII1702202237330",
    "title": "KAWAII1702202237330",
    "link_img": "https://live.staticflickr.com/65535/49548916167_ee64254e9d_o.jpg",
    "id_image": "KAWAII1702202237330",
    "count_view": 0
  },
  {
    "link_thumb": "https://live.staticflickr.com/65535/49726918963_b2a3514582_n.jpg",
    "id_album": "-1862561193",
    "description": "KAWAII020420194508177",
    "title": "KAWAII020420194508177",
    "link_img": "https://live.staticflickr.com/65535/49726918963_5ab6ca99ac_o.jpg",
    "id_image": "KAWAII020420194508177",
    "count_view": 0
  },
  {
    "link_thumb": "https://live.staticflickr.com/65535/49623106012_72c5b795af_n.jpg",
    "id_album": "-316663319",
    "description": "KAWAII0503202021329",
    "title": "KAWAII0503202021329",
    "link_img": "https://live.staticflickr.com/65535/49623106012_690d803bf8_o.jpg",
    "id_image": "KAWAII0503202021329",
    "count_view": 0
  },
  {
    "link_thumb": "https://live.staticflickr.com/65535/49742405328_c94bc0f915_n.jpg",
    "id_album": "-1862561193",
    "description": "KAWAII060420214918143",
    "title": "KAWAII060420214918143",
    "link_img": "https://live.staticflickr.com/65535/49742405328_bbc4ea039d_o.jpg",
    "id_image": "KAWAII060420214918143",
    "count_view": 0
  },
  {
    "link_thumb": "https://live.staticflickr.com/65535/49726896558_0919cc8216_n.jpg",
    "id_album": "742877173",
    "description": "KAWAII020420194509258",
    "title": "KAWAII020420194509258",
    "link_img": "https://live.staticflickr.com/65535/49726896558_3ed84326ed_o.jpg",
    "id_image": "KAWAII020420194509258",
    "count_view": 0
  },
  {
    "link_thumb": "https://live.staticflickr.com/65535/49742948581_82717c9931_n.jpg",
    "id_album": "1396902986",
    "description": "KAWAII060420214915119",
    "title": "KAWAII060420214915119",
    "link_img": "https://live.staticflickr.com/65535/49742948581_b2ef97035f_o.jpg",
    "id_image": "KAWAII060420214915119",
    "count_view": 0
  },
  {
    "link_thumb": "https://live.staticflickr.com/65535/49726917798_4ee746e417_n.jpg",
    "id_album": "1396902986",
    "description": "KAWAII02042019451145",
    "title": "KAWAII02042019451145",
    "link_img": "https://live.staticflickr.com/65535/49726917798_a2127fae77_o.jpg",
    "id_image": "KAWAII02042019451145",
    "count_view": 0
  },
  {
    "link_thumb": "https://live.staticflickr.com/65535/49726917398_dd2bc4f892_n.jpg",
    "id_album": "1396902986",
    "description": "KAWAII02042019451095",
    "title": "KAWAII02042019451095",
    "link_img": "https://live.staticflickr.com/65535/49726917398_d54f8e26c5_o.jpg",
    "id_image": "KAWAII02042019451095",
    "count_view": 0
  },
  {
    "link_thumb": "https://live.staticflickr.com/65535/49693583198_75c583622b_n.jpg",
    "id_album": "-1431786825",
    "description": "KAWAII270220235195",
    "title": "KAWAII270220235195",
    "link_img": "https://live.staticflickr.com/65535/49693583198_20c97a95a0_o.jpg",
    "id_image": "KAWAII270220235195",
    "count_view": 0
  },
  {
    "link_thumb": "https://live.staticflickr.com/65535/49548671831_2681909ac7_n.jpg",
    "id_album": "1396902986",
    "description": "KAWAII1702202236248",
    "title": "KAWAII1702202236248",
    "link_img": "https://live.staticflickr.com/65535/49548671831_386af457d9_o.jpg",
    "id_image": "KAWAII1702202236248",
    "count_view": 0
  },
  {
    "link_thumb": "https://live.staticflickr.com/65535/49578750051_26e3a6ac43_n.jpg",
    "id_album": "-316663319",
    "description": "KAWAII190220211123",
    "title": "KAWAII190220211123",
    "link_img": "https://live.staticflickr.com/65535/49578750051_3bc0f9edfc_o.jpg",
    "id_image": "KAWAII190220211123",
    "count_view": 0
  },
  {
    "link_thumb": "https://live.staticflickr.com/65535/49727427451_dcd1c43c47_n.jpg",
    "id_album": "-1694302085",
    "description": "KAWAII190220211113",
    "title": "KAWAII190220211113",
    "link_img": "https://live.staticflickr.com/65535/49727427451_0328f26d66_o.jpg",
    "id_image": "KAWAII190220211113",
    "count_view": 0
  },
  {
    "link_thumb": "https://live.staticflickr.com/65535/49694127511_dfcb8f8d26_n.jpg",
    "id_album": "-755466332",
    "description": "KAWAII120918329",
    "title": "KAWAII120918329",
    "link_img": "https://live.staticflickr.com/65535/49694127511_fd11edfdf7_o.jpg",
    "id_image": "KAWAII120918329",
    "count_view": 0
  },
  {
    "link_thumb": "https://live.staticflickr.com/65535/49552755517_25b299252c_n.jpg",
    "id_album": "-1694302085",
    "description": "KAWAII1209182518022020591",
    "title": "KAWAII1209182518022020591",
    "link_img": "https://live.staticflickr.com/65535/49552755517_359822b8ec_o.jpg",
    "id_image": "KAWAII1209182518022020591",
    "count_view": 0
  },
  {
    "link_thumb": "https://live.staticflickr.com/65535/49694522697_6334960ba2_n.jpg",
    "id_album": "-643980979",
    "description": "KAWAII24032022050234",
    "title": "KAWAII24032022050234",
    "link_img": "https://live.staticflickr.com/65535/49694522697_71a3a9111e_o.jpg",
    "id_image": "KAWAII24032022050234",
    "count_view": 0
  },
  {
    "link_thumb": "https://live.staticflickr.com/65535/49622828551_1cbbae756c_n.jpg",
    "id_album": "-316663319",
    "description": "KAWAII0503202021263",
    "title": "KAWAII0503202021263",
    "link_img": "https://live.staticflickr.com/65535/49622828551_abd9a8735d_o.jpg",
    "id_image": "KAWAII0503202021263",
    "count_view": 0
  },
  {
    "link_thumb": "https://live.staticflickr.com/65535/49548610471_c6a9e5014f_n.jpg",
    "id_album": "-316663319",
    "description": "KAWAII12091843",
    "title": "KAWAII12091843",
    "link_img": "https://live.staticflickr.com/65535/49548610471_bf36fce83f_o.jpg",
    "id_image": "KAWAII12091843",
    "count_view": 0
  },
  {
    "link_thumb": "https://live.staticflickr.com/65535/49548902482_4e5301c113_n.jpg",
    "id_album": "-1694302085",
    "description": "KAWAII1702202236264",
    "title": "KAWAII1702202236264",
    "link_img": "https://live.staticflickr.com/65535/49548902482_d915b835fa_o.jpg",
    "id_image": "KAWAII1702202236264",
    "count_view": 0
  },
  {
    "link_thumb": "https://live.staticflickr.com/65535/49694091671_e2c80b25ac_n.jpg",
    "id_album": "1201366373",
    "description": "KAWAII120918213",
    "title": "KAWAII120918213",
    "link_img": "https://live.staticflickr.com/65535/49694091671_f396e77508_o.jpg",
    "id_image": "KAWAII120918213",
    "count_view": 0
  },
  {
    "link_thumb": "https://live.staticflickr.com/65535/49727768697_a0ebfcc31b_n.jpg",
    "id_album": "1201366373",
    "description": "KAWAII120918296",
    "title": "KAWAII120918296",
    "link_img": "https://live.staticflickr.com/65535/49727768697_b04898132a_o.jpg",
    "id_image": "KAWAII120918296",
    "count_view": 0
  },
  {
    "link_thumb": "https://live.staticflickr.com/65535/49742409188_22e72030a2_n.jpg",
    "id_album": "-1431786825",
    "description": "KAWAII060420214917183",
    "title": "KAWAII060420214917183",
    "link_img": "https://live.staticflickr.com/65535/49742409188_e13fbcc783_o.jpg",
    "id_image": "KAWAII060420214917183",
    "count_view": 0
  },
  {
    "link_thumb": "https://live.staticflickr.com/65535/49693561393_32242b0474_n.jpg",
    "id_album": "1201366373",
    "description": "KAWAII12091886",
    "title": "KAWAII12091886",
    "link_img": "https://live.staticflickr.com/65535/49693561393_bb7b7c09f6_o.jpg",
    "id_image": "KAWAII12091886",
    "count_view": 0
  },
  {
    "link_thumb": "https://live.staticflickr.com/65535/49693541103_494d54ccb0_n.jpg",
    "id_album": "1201366373",
    "description": "KAWAII120918152",
    "title": "KAWAII120918152",
    "link_img": "https://live.staticflickr.com/65535/49693541103_bd085df047_o.jpg",
    "id_image": "KAWAII120918152",
    "count_view": 0
  },
  {
    "link_thumb": "https://live.staticflickr.com/65535/49548973157_f1d3995a25_n.jpg",
    "id_album": "-1099943053",
    "description": "KAWAII1702202239553",
    "title": "KAWAII1702202239553",
    "link_img": "https://live.staticflickr.com/65535/49548973157_eff501397b_o.jpg",
    "id_image": "KAWAII1702202239553",
    "count_view": 0
  },
  {
    "link_thumb": "https://live.staticflickr.com/65535/49548122483_6b98c05981_n.jpg",
    "id_album": "-422187261",
    "description": "KAWAII170220223319",
    "title": "KAWAII170220223319",
    "link_img": "https://live.staticflickr.com/65535/49548122483_00da78383f_o.jpg",
    "id_image": "KAWAII170220223319",
    "count_view": 0
  },
  {
    "link_thumb": "https://live.staticflickr.com/65535/49548785597_d1bf84a7e6_n.jpg",
    "id_album": "-422187261",
    "description": "KAWAII120918158",
    "title": "KAWAII120918158",
    "link_img": "https://live.staticflickr.com/65535/49548785597_604fe9e477_o.jpg",
    "id_image": "KAWAII120918158",
    "count_view": 0
  },
  {
    "link_thumb": "https://live.staticflickr.com/65535/49592734571_e7317aa3f2_n.jpg",
    "id_album": "949200594",
    "description": "KAWAII270220235193",
    "title": "KAWAII270220235193",
    "link_img": "https://live.staticflickr.com/65535/49592734571_d36286450a_o.jpg",
    "id_image": "KAWAII270220235193",
    "count_view": 0
  },
  {
    "link_thumb": "https://live.staticflickr.com/65535/49548595901_594b32ba8b_n.jpg",
    "id_album": "-316663319",
    "description": "KAWAII120918322",
    "title": "KAWAII120918322",
    "link_img": "https://live.staticflickr.com/65535/49548595901_a73b49f32b_o.jpg",
    "id_image": "KAWAII120918322",
    "count_view": 0
  },
  {
    "link_thumb": "https://live.staticflickr.com/65535/49592712246_0a39d9e57d_n.jpg",
    "id_album": "-1741487325",
    "description": "KAWAII270220235172",
    "title": "KAWAII270220235172",
    "link_img": "https://live.staticflickr.com/65535/49592712246_a0141f481e_o.jpg",
    "id_image": "KAWAII270220235172",
    "count_view": 0
  },
  {
    "link_thumb": "https://live.staticflickr.com/65535/49548605916_6f8df17346_n.jpg",
    "id_album": "-1741487325",
    "description": "KAWAII120918363",
    "title": "KAWAII120918363",
    "link_img": "https://live.staticflickr.com/65535/49548605916_e273fba4db_o.jpg",
    "id_image": "KAWAII120918363",
    "count_view": 0
  },
  {
    "link_thumb": "https://live.staticflickr.com/65535/49694404262_22983f7e5e_n.jpg",
    "id_album": "1201366373",
    "description": "KAWAII12091845",
    "title": "KAWAII12091845",
    "link_img": "https://live.staticflickr.com/65535/49694404262_a9eb8c4e27_o.jpg",
    "id_image": "KAWAII12091845",
    "count_view": 0
  },
  {
    "link_thumb": "https://live.staticflickr.com/65535/49743228317_96446c5e59_n.jpg",
    "id_album": "-1913845949",
    "description": "KAWAII060420214917223",
    "title": "KAWAII060420214917223",
    "link_img": "https://live.staticflickr.com/65535/49743228317_44d2346ef5_o.jpg",
    "id_image": "KAWAII060420214917223",
    "count_view": 0
  },
  {
    "link_thumb": "https://live.staticflickr.com/65535/49548195458_58ee968802_n.jpg",
    "id_album": "-1432180061",
    "description": "KAWAII1702202237363",
    "title": "KAWAII1702202237363",
    "link_img": "https://live.staticflickr.com/65535/49548195458_2d6f2e65ca_o.jpg",
    "id_image": "KAWAII1702202237363",
    "count_view": 0
  },
  {
    "link_thumb": "https://live.staticflickr.com/65535/49743247877_3868e1f44c_n.jpg",
    "id_album": "-316663319",
    "description": "KAWAII060420214913169",
    "title": "KAWAII060420214913169",
    "link_img": "https://live.staticflickr.com/65535/49743247877_8f7720baea_o.jpg",
    "id_image": "KAWAII060420214913169",
    "count_view": 0
  },
  {
    "link_thumb": "https://live.staticflickr.com/65535/49623068762_8707473d16_n.jpg",
    "id_album": "-422187261",
    "description": "KAWAII0503202021167",
    "title": "KAWAII0503202021167",
    "link_img": "https://live.staticflickr.com/65535/49623068762_44dbf4f645_o.jpg",
    "id_image": "KAWAII0503202021167",
    "count_view": 0
  },
  {
    "link_thumb": "https://live.staticflickr.com/65535/49742404138_dd39a00ba4_n.jpg",
    "id_album": "-1862561193",
    "description": "KAWAII060420214915222",
    "title": "KAWAII060420214915222",
    "link_img": "https://live.staticflickr.com/65535/49742404138_ee8899e8f9_o.jpg",
    "id_image": "KAWAII060420214915222",
    "count_view": 0
  },
  {
    "link_thumb": "https://live.staticflickr.com/65535/49693571673_b7157feeb2_n.jpg",
    "id_album": "-643980979",
    "description": "KAWAII1702202239562",
    "title": "KAWAII1702202239562",
    "link_img": "https://live.staticflickr.com/65535/49693571673_e6720ca332_o.jpg",
    "id_image": "KAWAII1702202239562",
    "count_view": 0
  },
  {
    "link_thumb": "https://live.staticflickr.com/65535/49742393218_dc38b39716_n.jpg",
    "id_album": "-1473448477",
    "description": "KAWAII06042021491598",
    "title": "KAWAII06042021491598",
    "link_img": "https://live.staticflickr.com/65535/49742393218_3c0017912a_o.jpg",
    "id_image": "KAWAII06042021491598",
    "count_view": 0
  },
  {
    "link_thumb": "https://live.staticflickr.com/65535/49622333383_66149eb52f_n.jpg",
    "id_album": "-406350429",
    "description": "KAWAII0503202021309",
    "title": "KAWAII0503202021309",
    "link_img": "https://live.staticflickr.com/65535/49622333383_b5ce7cf8e8_o.jpg",
    "id_image": "KAWAII0503202021309",
    "count_view": 0
  },
  {
    "link_thumb": "https://live.staticflickr.com/65535/49548709421_895991a160_n.jpg",
    "id_album": "-1431786825",
    "description": "KAWAII1702202238414",
    "title": "KAWAII1702202238414",
    "link_img": "https://live.staticflickr.com/65535/49548709421_143b10f046_o.jpg",
    "id_image": "KAWAII1702202238414",
    "count_view": 0
  },
  {
    "link_thumb": "https://live.staticflickr.com/65535/49742352773_f23c023f50_n.jpg",
    "id_album": "-1913845949",
    "description": "KAWAII060420214912141",
    "title": "KAWAII060420214912141",
    "link_img": "https://live.staticflickr.com/65535/49742352773_ba0938273d_o.jpg",
    "id_image": "KAWAII060420214912141",
    "count_view": 0
  },
  {
    "link_thumb": "https://live.staticflickr.com/65535/49727453971_8255094961_n.jpg",
    "id_album": "742877173",
    "description": "KAWAII02042019451497",
    "title": "KAWAII02042019451497",
    "link_img": "https://live.staticflickr.com/65535/49727453971_f333015350_o.jpg",
    "id_image": "KAWAII02042019451497",
    "count_view": 0
  },
  {
    "link_thumb": "https://live.staticflickr.com/65535/49548641176_daafac3d1b_n.jpg",
    "id_album": "-422187261",
    "description": "KAWAII170220223473",
    "title": "KAWAII170220223473",
    "link_img": "https://live.staticflickr.com/65535/49548641176_0de4ce227a_o.jpg",
    "id_image": "KAWAII170220223473",
    "count_view": 0
  },
  {
    "link_thumb": "https://live.staticflickr.com/65535/49693681563_0c652e2f73_n.jpg",
    "id_album": "-1862561193",
    "description": "KAWAII24032022050236",
    "title": "KAWAII24032022050236",
    "link_img": "https://live.staticflickr.com/65535/49693681563_3b6a993c59_o.jpg",
    "id_image": "KAWAII24032022050236",
    "count_view": 0
  },
  {
    "link_thumb": "https://live.staticflickr.com/65535/49694127666_c8551f3481_n.jpg",
    "id_album": "-755466332",
    "description": "KAWAII12091874",
    "title": "KAWAII12091874",
    "link_img": "https://live.staticflickr.com/65535/49694127666_91c51285b1_o.jpg",
    "id_image": "KAWAII12091874",
    "count_view": 0
  },
  {
    "link_thumb": "https://live.staticflickr.com/65535/49623121817_428939bf32_n.jpg",
    "id_album": "-406350429",
    "description": "KAWAII050320202180",
    "title": "KAWAII050320202180",
    "link_img": "https://live.staticflickr.com/65535/49623121817_be6ebc97e5_o.jpg",
    "id_image": "KAWAII050320202180",
    "count_view": 0
  },
  {
    "link_thumb": "https://live.staticflickr.com/65535/49592721871_d8c01a7af3_n.jpg",
    "id_album": "-316663319",
    "description": "KAWAII270220235192",
    "title": "KAWAII270220235192",
    "link_img": "https://live.staticflickr.com/65535/49592721871_96360fb768_o.jpg",
    "id_image": "KAWAII270220235192",
    "count_view": 0
  },
  {
    "link_thumb": "https://live.staticflickr.com/65535/49694124856_a23b5e8b4a_n.jpg",
    "id_album": "-358592519",
    "description": "KAWAII1702202236225",
    "title": "KAWAII1702202236225",
    "link_img": "https://live.staticflickr.com/65535/49694124856_a72e80d765_o.jpg",
    "id_image": "KAWAII1702202236225",
    "count_view": 0
  },
  {
    "link_thumb": "https://live.staticflickr.com/65535/49743279642_bfeb410fe6_n.jpg",
    "id_album": "-1431786825",
    "description": "KAWAII060420214915284",
    "title": "KAWAII060420214915284",
    "link_img": "https://live.staticflickr.com/65535/49743279642_dacfa22629_o.jpg",
    "id_image": "KAWAII060420214915284",
    "count_view": 0
  },
  {
    "link_thumb": "https://live.staticflickr.com/65535/49548093483_9ab45cb624_n.jpg",
    "id_album": "-1099943053",
    "description": "KAWAII120918320",
    "title": "KAWAII120918320",
    "link_img": "https://live.staticflickr.com/65535/49548093483_a370cd9c27_o.jpg",
    "id_image": "KAWAII120918320",
    "count_view": 0
  },
  {
    "link_thumb": "https://live.staticflickr.com/65535/49694424747_f4bca52c0e_n.jpg",
    "id_album": "-643980979",
    "description": "KAWAII270220235143",
    "title": "KAWAII270220235143",
    "link_img": "https://live.staticflickr.com/65535/49694424747_becc1d4f3a_o.jpg",
    "id_image": "KAWAII270220235143",
    "count_view": 0
  },
  {
    "link_thumb": "https://live.staticflickr.com/65535/49694064926_e7c66077c3_n.jpg",
    "id_album": "1699819648",
    "description": "KAWAII0503202021297",
    "title": "KAWAII0503202021297",
    "link_img": "https://live.staticflickr.com/65535/49694064926_6c9622cecc_o.jpg",
    "id_image": "KAWAII0503202021297",
    "count_view": 0
  },
  {
    "link_thumb": "https://live.staticflickr.com/65535/49727443936_beae1b9b89_n.jpg",
    "id_album": "742877173",
    "description": "KAWAII020420194509187",
    "title": "KAWAII020420194509187",
    "link_img": "https://live.staticflickr.com/65535/49727443936_a0e4d324d8_o.jpg",
    "id_image": "KAWAII020420194509187",
    "count_view": 0
  },
  {
    "link_thumb": "https://live.staticflickr.com/65535/49548728826_0160971641_n.jpg",
    "id_album": "-1741487325",
    "description": "KAWAII1702202238487",
    "title": "KAWAII1702202238487",
    "link_img": "https://live.staticflickr.com/65535/49548728826_b3ea952716_o.jpg",
    "id_image": "KAWAII1702202238487",
    "count_view": 0
  },
  {
    "link_thumb": "https://live.staticflickr.com/65535/49726929818_3e2f118e0b_n.jpg",
    "id_album": "431597977",
    "description": "KAWAII02042019451372",
    "title": "KAWAII02042019451372",
    "link_img": "https://live.staticflickr.com/65535/49726929818_4cfb510a0d_o.jpg",
    "id_image": "KAWAII02042019451372",
    "count_view": 0
  },
  {
    "link_thumb": "https://live.staticflickr.com/65535/49743282142_8e84ab67ca_n.jpg",
    "id_album": "1226948986",
    "description": "KAWAII060420214918282",
    "title": "KAWAII060420214918282",
    "link_img": "https://live.staticflickr.com/65535/49743282142_79a1d411eb_o.jpg",
    "id_image": "KAWAII060420214918282",
    "count_view": 0
  },
  {
    "link_thumb": "https://live.staticflickr.com/65535/49726884643_2a9d92e5af_n.jpg",
    "id_album": "-1497779911",
    "description": "KAWAII050320202123",
    "title": "KAWAII050320202123",
    "link_img": "https://live.staticflickr.com/65535/49726884643_2321187220_o.jpg",
    "id_image": "KAWAII050320202123",
    "count_view": 0
  },
  {
    "link_thumb": "https://live.staticflickr.com/65535/49710286373_5453a7f24c_n.jpg",
    "id_album": "-1599896063",
    "description": "LITTLEMONK29032012063212",
    "title": "LITTLEMONK29032012063212",
    "link_img": "https://live.staticflickr.com/65535/49710286373_05b860020e_o.jpg",
    "id_image": "LITTLEMONK29032012063212",
    "count_view": 0
  },
  {
    "link_thumb": "https://live.staticflickr.com/65535/49693583773_018250407a_n.jpg",
    "id_album": "1563362783",
    "description": "KAWAII12091825180220205945",
    "title": "KAWAII12091825180220205945",
    "link_img": "https://live.staticflickr.com/65535/49693583773_40f0fef43b_o.jpg",
    "id_image": "KAWAII12091825180220205945",
    "count_view": 0
  },
  {
    "link_thumb": "https://live.staticflickr.com/65535/49694123501_ec500e9a63_n.jpg",
    "id_album": "-784970094",
    "description": "KAWAII1702202235202",
    "title": "KAWAII1702202235202",
    "link_img": "https://live.staticflickr.com/65535/49694123501_326bc2acc0_o.jpg",
    "id_image": "KAWAII1702202235202",
    "count_view": 0
  },
  {
    "link_thumb": "https://live.staticflickr.com/65535/49592225723_8efd54fe30_n.jpg",
    "id_album": "949200594",
    "description": "KAWAII2702202351100",
    "title": "KAWAII2702202351100",
    "link_img": "https://live.staticflickr.com/65535/49592225723_39372012f5_o.jpg",
    "id_image": "KAWAII2702202351100",
    "count_view": 0
  },
  {
    "link_thumb": "https://live.staticflickr.com/65535/49548824417_efffec8b98_n.jpg",
    "id_album": "-1741487325",
    "description": "KAWAII120918328",
    "title": "KAWAII120918328",
    "link_img": "https://live.staticflickr.com/65535/49548824417_a9b7e9303d_o.jpg",
    "id_image": "KAWAII120918328",
    "count_view": 0
  },
  {
    "link_thumb": "https://live.staticflickr.com/65535/49727740517_150b78a0fe_n.jpg",
    "id_album": "-1694302085",
    "description": "KAWAII0503202021203",
    "title": "KAWAII0503202021203",
    "link_img": "https://live.staticflickr.com/65535/49727740517_44ae058446_o.jpg",
    "id_image": "KAWAII0503202021203",
    "count_view": 0
  },
  {
    "link_thumb": "https://live.staticflickr.com/65535/49592213803_e40d3b7299_n.jpg",
    "id_album": "-316663319",
    "description": "KAWAII2702202351157",
    "title": "KAWAII2702202351157",
    "link_img": "https://live.staticflickr.com/65535/49592213803_55e29ca507_o.jpg",
    "id_image": "KAWAII2702202351157",
    "count_view": 0
  },
  {
    "link_thumb": "https://live.staticflickr.com/65535/49726900543_19822a6e01_n.jpg",
    "id_album": "742877173",
    "description": "KAWAII020420194511259",
    "title": "KAWAII020420194511259",
    "link_img": "https://live.staticflickr.com/65535/49726900543_2f401ff096_o.jpg",
    "id_image": "KAWAII020420194511259",
    "count_view": 0
  },
  {
    "link_thumb": "https://live.staticflickr.com/65535/49694216366_23548fc773_n.jpg",
    "id_album": "-1741487325",
    "description": "KAWAII0503202021311",
    "title": "KAWAII0503202021311",
    "link_img": "https://live.staticflickr.com/65535/49694216366_9bb3068e36_o.jpg",
    "id_image": "KAWAII0503202021311",
    "count_view": 0
  },
  {
    "link_thumb": "https://live.staticflickr.com/65535/49694526327_66250a7747_n.jpg",
    "id_album": "1201366373",
    "description": "KAWAII1702202236243",
    "title": "KAWAII1702202236243",
    "link_img": "https://live.staticflickr.com/65535/49694526327_fbbe5a4484_o.jpg",
    "id_image": "KAWAII1702202236243",
    "count_view": 0
  },
  {
    "link_thumb": "https://live.staticflickr.com/65535/49548883037_90f47a531b_n.jpg",
    "id_album": "-1099943053",
    "description": "KAWAII1702202235167",
    "title": "KAWAII1702202235167",
    "link_img": "https://live.staticflickr.com/65535/49548883037_5000aae354_o.jpg",
    "id_image": "KAWAII1702202235167",
    "count_view": 0
  },
  {
    "link_thumb": "https://live.staticflickr.com/65535/49727784282_3fa89588d1_n.jpg",
    "id_album": "-1862561193",
    "description": "KAWAII02042019451140",
    "title": "KAWAII02042019451140",
    "link_img": "https://live.staticflickr.com/65535/49727784282_4ed66233ee_o.jpg",
    "id_image": "KAWAII02042019451140",
    "count_view": 0
  },
  {
    "link_thumb": "https://live.staticflickr.com/65535/49694366567_172b3e661b_n.jpg",
    "id_album": "1699819648",
    "description": "KAWAII0503202021285",
    "title": "KAWAII0503202021285",
    "link_img": "https://live.staticflickr.com/65535/49694366567_67b2ee0b66_o.jpg",
    "id_image": "KAWAII0503202021285",
    "count_view": 0
  },
  {
    "link_thumb": "https://live.staticflickr.com/65535/49727446656_3d400cb0f2_n.jpg",
    "id_album": "742877173",
    "description": "KAWAII020420194510205",
    "title": "KAWAII020420194510205",
    "link_img": "https://live.staticflickr.com/65535/49727446656_4aba0d4041_o.jpg",
    "id_image": "KAWAII020420194510205",
    "count_view": 0
  },
  {
    "link_thumb": "https://live.staticflickr.com/65535/49694387352_27923845d9_n.jpg",
    "id_album": "1201366373",
    "description": "KAWAII120918153",
    "title": "KAWAII120918153",
    "link_img": "https://live.staticflickr.com/65535/49694387352_611f10838a_o.jpg",
    "id_image": "KAWAII120918153",
    "count_view": 0
  },
  {
    "link_thumb": "https://live.staticflickr.com/65535/49727768952_ac7222a721_n.jpg",
    "id_album": "1201366373",
    "description": "KAWAII120918297",
    "title": "KAWAII120918297",
    "link_img": "https://live.staticflickr.com/65535/49727768952_403d1918af_o.jpg",
    "id_image": "KAWAII120918297",
    "count_view": 0
  },
  {
    "link_thumb": "https://live.staticflickr.com/65535/49742920946_83d0686ccb_n.jpg",
    "id_album": "-316663319",
    "description": "KAWAII060420214912142",
    "title": "KAWAII060420214912142",
    "link_img": "https://live.staticflickr.com/65535/49742920946_b4f8cbc8e9_o.jpg",
    "id_image": "KAWAII060420214912142",
    "count_view": 0
  },
  {
    "link_thumb": "https://live.staticflickr.com/65535/49711146377_82eb555582_n.jpg",
    "id_album": "-1599896063",
    "description": "LITTLEMONK29032012064018",
    "title": "LITTLEMONK29032012064018",
    "link_img": "https://live.staticflickr.com/65535/49711146377_944993cde7_o.jpg",
    "id_image": "LITTLEMONK29032012064018",
    "count_view": 0
  },
  {
    "link_thumb": "https://live.staticflickr.com/65535/49548745676_34bdbfa0cf_n.jpg",
    "id_album": "431597977",
    "description": "KAWAII1702202239552",
    "title": "KAWAII1702202239552",
    "link_img": "https://live.staticflickr.com/65535/49548745676_c9217c51d5_o.jpg",
    "id_image": "KAWAII1702202239552",
    "count_view": 0
  },
  {
    "link_thumb": "https://live.staticflickr.com/65535/49693674833_7e8afd7a1d_n.jpg",
    "id_album": "-643980979",
    "description": "KAWAII24032022050132",
    "title": "KAWAII24032022050132",
    "link_img": "https://live.staticflickr.com/65535/49693674833_1a9ea677c4_o.jpg",
    "id_image": "KAWAII24032022050132",
    "count_view": 0
  },
  {
    "link_thumb": "https://live.staticflickr.com/65535/49727471006_043647b0e6_n.jpg",
    "id_album": "-1862561193",
    "description": "KAWAII020420194512159",
    "title": "KAWAII020420194512159",
    "link_img": "https://live.staticflickr.com/65535/49727471006_f15fc868e5_o.jpg",
    "id_image": "KAWAII020420194512159",
    "count_view": 0
  },
  {
    "link_thumb": "https://live.staticflickr.com/65535/49548877017_2c93180579_n.jpg",
    "id_album": "-1432180061",
    "description": "KAWAII1702202235140",
    "title": "KAWAII1702202235140",
    "link_img": "https://live.staticflickr.com/65535/49548877017_93a4e04f3f_o.jpg",
    "id_image": "KAWAII1702202235140",
    "count_view": 0
  },
  {
    "link_thumb": "https://live.staticflickr.com/65535/49693519748_a79a94be96_n.jpg",
    "id_album": "1699819648",
    "description": "KAWAII050320202114",
    "title": "KAWAII050320202114",
    "link_img": "https://live.staticflickr.com/65535/49693519748_72ea22ea0c_o.jpg",
    "id_image": "KAWAII050320202114",
    "count_view": 0
  },
  {
    "link_thumb": "https://live.staticflickr.com/65535/49742376258_e2dfae3b26_n.jpg",
    "id_album": "-316663319",
    "description": "KAWAII06042021491321",
    "title": "KAWAII06042021491321",
    "link_img": "https://live.staticflickr.com/65535/49742376258_131657c0c2_o.jpg",
    "id_image": "KAWAII06042021491321",
    "count_view": 0
  },
  {
    "link_thumb": "https://live.staticflickr.com/65535/49623075332_dbe0d6c0f1_n.jpg",
    "id_album": "1396902986",
    "description": "KAWAII0503202021275",
    "title": "KAWAII0503202021275",
    "link_img": "https://live.staticflickr.com/65535/49623075332_e5eafa7577_o.jpg",
    "id_image": "KAWAII0503202021275",
    "count_view": 0
  },
  {
    "link_thumb": "https://live.staticflickr.com/65535/49694115596_8700cc913c_n.jpg",
    "id_album": "-643980979",
    "description": "KAWAII170220234613",
    "title": "KAWAII170220234613",
    "link_img": "https://live.staticflickr.com/65535/49694115596_4e60b7e973_o.jpg",
    "id_image": "KAWAII170220234613",
    "count_view": 0
  },
  {
    "link_thumb": "https://live.staticflickr.com/65535/49548602866_68dc12d7a1_n.jpg",
    "id_album": "-1099943053",
    "description": "KAWAII120918350",
    "title": "KAWAII120918350",
    "link_img": "https://live.staticflickr.com/65535/49548602866_b528e1d3d1_o.jpg",
    "id_image": "KAWAII120918350",
    "count_view": 0
  },
  {
    "link_thumb": "https://live.staticflickr.com/65535/49727754967_b6db8d013b_n.jpg",
    "id_album": "-316663319",
    "description": "KAWAII020420194513195",
    "title": "KAWAII020420194513195",
    "link_img": "https://live.staticflickr.com/65535/49727754967_d66f53f51c_o.jpg",
    "id_image": "KAWAII020420194513195",
    "count_view": 0
  },
  {
    "link_thumb": "https://live.staticflickr.com/65535/49743241307_74fce1c2ba_n.jpg",
    "id_album": "-128218148",
    "description": "KAWAII060420214911249",
    "title": "KAWAII060420214911249",
    "link_img": "https://live.staticflickr.com/65535/49743241307_d6e91fe2b3_o.jpg",
    "id_image": "KAWAII060420214911249",
    "count_view": 0
  },
  {
    "link_thumb": "https://live.staticflickr.com/65535/49742386353_169a844989_n.jpg",
    "id_album": "416744915",
    "description": "KAWAII060420214912114",
    "title": "KAWAII060420214912114",
    "link_img": "https://live.staticflickr.com/65535/49742386353_22d395e5c6_o.jpg",
    "id_image": "KAWAII060420214912114",
    "count_view": 0
  },
  {
    "link_thumb": "https://live.staticflickr.com/65535/49548097683_dce4ccbd7e_n.jpg",
    "id_album": "1396902986",
    "description": "KAWAII120918338",
    "title": "KAWAII120918338",
    "link_img": "https://live.staticflickr.com/65535/49548097683_818d033f2d_o.jpg",
    "id_image": "KAWAII120918338",
    "count_view": 0
  },
  {
    "link_thumb": "https://live.staticflickr.com/65535/49694085796_53f3554199_n.jpg",
    "id_album": "1201366373",
    "description": "KAWAII120918160",
    "title": "KAWAII120918160",
    "link_img": "https://live.staticflickr.com/65535/49694085796_06ce5074a9_o.jpg",
    "id_image": "KAWAII120918160",
    "count_view": 0
  },
  {
    "link_thumb": "https://live.staticflickr.com/65535/49592959667_2f7f2098df_n.jpg",
    "id_album": "-316663319",
    "description": "KAWAII270220235121",
    "title": "KAWAII270220235121",
    "link_img": "https://live.staticflickr.com/65535/49592959667_89894cfff3_o.jpg",
    "id_image": "KAWAII270220235121",
    "count_view": 0
  },
  {
    "link_thumb": "https://live.staticflickr.com/65535/49592977222_f58e952b9d_n.jpg",
    "id_album": "-1431786825",
    "description": "KAWAII270220235120",
    "title": "KAWAII270220235120",
    "link_img": "https://live.staticflickr.com/65535/49592977222_7328a342df_o.jpg",
    "id_image": "KAWAII270220235120",
    "count_view": 0
  },
  {
    "link_thumb": "https://live.staticflickr.com/65535/49622295503_702dda537d_n.jpg",
    "id_album": "-316663319",
    "description": "KAWAII0503202021114",
    "title": "KAWAII0503202021114",
    "link_img": "https://live.staticflickr.com/65535/49622295503_74778609a0_o.jpg",
    "id_image": "KAWAII0503202021114",
    "count_view": 0
  },
  {
    "link_thumb": "https://live.staticflickr.com/65535/49548681796_a26cc947ba_n.jpg",
    "id_album": "-422187261",
    "description": "KAWAII1702202236299",
    "title": "KAWAII1702202236299",
    "link_img": "https://live.staticflickr.com/65535/49548681796_cb8451079e_o.jpg",
    "id_image": "KAWAII1702202236299",
    "count_view": 0
  },
  {
    "link_thumb": "https://live.staticflickr.com/65535/49623101752_8ef3c2675c_n.jpg",
    "id_album": "-316663319",
    "description": "KAWAII0503202021287",
    "title": "KAWAII0503202021287",
    "link_img": "https://live.staticflickr.com/65535/49623101752_aea84ca120_o.jpg",
    "id_image": "KAWAII0503202021287",
    "count_view": 0
  },
  {
    "link_thumb": "https://live.staticflickr.com/65535/49694392417_3e8a76a371_n.jpg",
    "id_album": "1201366373",
    "description": "KAWAII120918198",
    "title": "KAWAII120918198",
    "link_img": "https://live.staticflickr.com/65535/49694392417_571fc3c679_o.jpg",
    "id_image": "KAWAII120918198",
    "count_view": 0
  },
  {
    "link_thumb": "https://live.staticflickr.com/65535/49622834286_33b4a5bf90_n.jpg",
    "id_album": "-316663319",
    "description": "KAWAII050320202139",
    "title": "KAWAII050320202139",
    "link_img": "https://live.staticflickr.com/65535/49622834286_570e0604cd_o.jpg",
    "id_image": "KAWAII050320202139",
    "count_view": 0
  },
  {
    "link_thumb": "https://live.staticflickr.com/65535/49743240962_68aa6de7b9_n.jpg",
    "id_album": "-1432180061",
    "description": "KAWAII06042021491889",
    "title": "KAWAII06042021491889",
    "link_img": "https://live.staticflickr.com/65535/49743240962_2d9f67db5f_o.jpg",
    "id_image": "KAWAII06042021491889",
    "count_view": 0
  },
  {
    "link_thumb": "https://live.staticflickr.com/65535/49592731401_a959ea4ae4_n.jpg",
    "id_album": "949200594",
    "description": "KAWAII2702202351141",
    "title": "KAWAII2702202351141",
    "link_img": "https://live.staticflickr.com/65535/49592731401_18a15bc207_o.jpg",
    "id_image": "KAWAII2702202351141",
    "count_view": 0
  },
  {
    "link_thumb": "https://live.staticflickr.com/65535/49693543518_7f415ef2a6_n.jpg",
    "id_album": "1201366373",
    "description": "KAWAII120918174",
    "title": "KAWAII120918174",
    "link_img": "https://live.staticflickr.com/65535/49693543518_017f9c514a_o.jpg",
    "id_image": "KAWAII120918174",
    "count_view": 0
  },
  {
    "link_thumb": "https://live.staticflickr.com/65535/49693543258_a0562319da_n.jpg",
    "id_album": "1201366373",
    "description": "KAWAII120918170",
    "title": "KAWAII120918170",
    "link_img": "https://live.staticflickr.com/65535/49693543258_81c88d8bb9_o.jpg",
    "id_image": "KAWAII120918170",
    "count_view": 0
  },
  {
    "link_thumb": "https://live.staticflickr.com/65535/49548734856_2e5ceddcba_n.jpg",
    "id_album": "-422187261",
    "description": "KAWAII1702202239509",
    "title": "KAWAII1702202239509",
    "link_img": "https://live.staticflickr.com/65535/49548734856_21e734e710_o.jpg",
    "id_image": "KAWAII1702202239509",
    "count_view": 0
  },
  {
    "link_thumb": "https://live.staticflickr.com/65535/49743253067_585dfdc469_n.jpg",
    "id_album": "-316663319",
    "description": "KAWAII060420214915301",
    "title": "KAWAII060420214915301",
    "link_img": "https://live.staticflickr.com/65535/49743253067_6eea8fa353_o.jpg",
    "id_image": "KAWAII060420214915301",
    "count_view": 0
  },
  {
    "link_thumb": "https://live.staticflickr.com/65535/49622799796_dd4a25355b_n.jpg",
    "id_album": "1396902986",
    "description": "KAWAII0503202021137",
    "title": "KAWAII0503202021137",
    "link_img": "https://live.staticflickr.com/65535/49622799796_cc0cd3eacf_o.jpg",
    "id_image": "KAWAII0503202021137",
    "count_view": 0
  },
  {
    "link_thumb": "https://live.staticflickr.com/65535/49548866597_0cfb98f563_n.jpg",
    "id_album": "-316663319",
    "description": "KAWAII170220223464",
    "title": "KAWAII170220223464",
    "link_img": "https://live.staticflickr.com/65535/49548866597_a1088b00c9_o.jpg",
    "id_image": "KAWAII170220223464",
    "count_view": 0
  },
  {
    "link_thumb": "https://live.staticflickr.com/65535/49694216831_3fed509938_n.jpg",
    "id_album": "-1741487325",
    "description": "KAWAII1702202234110",
    "title": "KAWAII1702202234110",
    "link_img": "https://live.staticflickr.com/65535/49694216831_f93740519b_o.jpg",
    "id_image": "KAWAII1702202234110",
    "count_view": 0
  },
  {
    "link_thumb": "https://live.staticflickr.com/65535/49592713626_c8f6ce9963_n.jpg",
    "id_album": "-316663319",
    "description": "KAWAII2702202351110",
    "title": "KAWAII2702202351110",
    "link_img": "https://live.staticflickr.com/65535/49592713626_9a23665c78_o.jpg",
    "id_image": "KAWAII2702202351110",
    "count_view": 0
  },
  {
    "link_thumb": "https://live.staticflickr.com/65535/49727467926_c4e070bd67_n.jpg",
    "id_album": "-1862561193",
    "description": "KAWAII020420194510256",
    "title": "KAWAII020420194510256",
    "link_img": "https://live.staticflickr.com/65535/49727467926_2caf5eb44b_o.jpg",
    "id_image": "KAWAII020420194510256",
    "count_view": 0
  },
  {
    "link_thumb": "https://live.staticflickr.com/65535/49743250357_13ae99ab78_n.jpg",
    "id_album": "-316663319",
    "description": "KAWAII06042021491462",
    "title": "KAWAII06042021491462",
    "link_img": "https://live.staticflickr.com/65535/49743250357_83a78b8b87_o.jpg",
    "id_image": "KAWAII06042021491462",
    "count_view": 0
  },
  {
    "link_thumb": "https://live.staticflickr.com/65535/49548672536_ebdfaf9237_n.jpg",
    "id_album": "-422187261",
    "description": "KAWAII1702202236252",
    "title": "KAWAII1702202236252",
    "link_img": "https://live.staticflickr.com/65535/49548672536_000c99449f_o.jpg",
    "id_image": "KAWAII1702202236252",
    "count_view": 0
  },
  {
    "link_thumb": "https://live.staticflickr.com/65535/49622829591_cc4a13fe48_n.jpg",
    "id_album": "-316663319",
    "description": "KAWAII0503202021284",
    "title": "KAWAII0503202021284",
    "link_img": "https://live.staticflickr.com/65535/49622829591_90a4c15241_o.jpg",
    "id_image": "KAWAII0503202021284",
    "count_view": 0
  },
  {
    "link_thumb": "https://live.staticflickr.com/65535/49548627951_1abdc4fe57_n.jpg",
    "id_album": "-316663319",
    "description": "KAWAII170220223335",
    "title": "KAWAII170220223335",
    "link_img": "https://live.staticflickr.com/65535/49548627951_b5dc7ff754_o.jpg",
    "id_image": "KAWAII170220223335",
    "count_view": 0
  },
  {
    "link_thumb": "https://live.staticflickr.com/65535/49552522646_f48c42dffb_n.jpg",
    "id_album": "431597977",
    "description": "KAWAII12091825180220205948",
    "title": "KAWAII12091825180220205948",
    "link_img": "https://live.staticflickr.com/65535/49552522646_e82ca66f82_o.jpg",
    "id_image": "KAWAII12091825180220205948",
    "count_view": 0
  },
  {
    "link_thumb": "https://live.staticflickr.com/65535/49726918223_14efc09ef8_n.jpg",
    "id_album": "1396902986",
    "description": "KAWAII1702202237334",
    "title": "KAWAII1702202237334",
    "link_img": "https://live.staticflickr.com/65535/49726918223_fe3aa519d5_o.jpg",
    "id_image": "KAWAII1702202237334",
    "count_view": 0
  },
  {
    "link_thumb": "https://live.staticflickr.com/65535/49592972197_bbe1fefcc0_n.jpg",
    "id_album": "949200594",
    "description": "KAWAII2702202351124",
    "title": "KAWAII2702202351124",
    "link_img": "https://live.staticflickr.com/65535/49592972197_c4a68a870f_o.jpg",
    "id_image": "KAWAII2702202351124",
    "count_view": 0
  },
  {
    "link_thumb": "https://live.staticflickr.com/65535/49622827431_3bd790c494_n.jpg",
    "id_album": "-316663319",
    "description": "KAWAII0503202021249",
    "title": "KAWAII0503202021249",
    "link_img": "https://live.staticflickr.com/65535/49622827431_1ff409f254_o.jpg",
    "id_image": "KAWAII0503202021249",
    "count_view": 0
  },
  {
    "link_thumb": "https://live.staticflickr.com/65535/49622326248_aebe21a59f_n.jpg",
    "id_album": "-316663319",
    "description": "KAWAII050320202199",
    "title": "KAWAII050320202199",
    "link_img": "https://live.staticflickr.com/65535/49622326248_fc40409f02_o.jpg",
    "id_image": "KAWAII050320202199",
    "count_view": 0
  },
  {
    "link_thumb": "https://live.staticflickr.com/65535/49694385397_00b09b98ba_n.jpg",
    "id_album": "1201366373",
    "description": "KAWAII120918122",
    "title": "KAWAII120918122",
    "link_img": "https://live.staticflickr.com/65535/49694385397_5c25b2ca6f_o.jpg",
    "id_image": "KAWAII120918122",
    "count_view": 0
  },
  {
    "link_thumb": "https://live.staticflickr.com/65535/49548964322_51e844af5a_n.jpg",
    "id_album": "-1099943053",
    "description": "KAWAII1702202239518",
    "title": "KAWAII1702202239518",
    "link_img": "https://live.staticflickr.com/65535/49548964322_7516ae3c5c_o.jpg",
    "id_image": "KAWAII1702202239518",
    "count_view": 0
  },
  {
    "link_thumb": "https://live.staticflickr.com/65535/49742394333_248e9fd4df_n.jpg",
    "id_album": "-1473448477",
    "description": "KAWAII06042021491769",
    "title": "KAWAII06042021491769",
    "link_img": "https://live.staticflickr.com/65535/49742394333_6a2ae180b8_o.jpg",
    "id_image": "KAWAII06042021491769",
    "count_view": 0
  },
  {
    "link_thumb": "https://live.staticflickr.com/65535/49622828131_4893d74f42_n.jpg",
    "id_album": "-316663319",
    "description": "KAWAII0503202021256",
    "title": "KAWAII0503202021256",
    "link_img": "https://live.staticflickr.com/65535/49622828131_59cc0046aa_o.jpg",
    "id_image": "KAWAII0503202021256",
    "count_view": 0
  },
  {
    "link_thumb": "https://live.staticflickr.com/65535/49711147167_74ea5921e5_n.jpg",
    "id_album": "-1599896063",
    "description": "LITTLEMONK2903201206428",
    "title": "LITTLEMONK2903201206428",
    "link_img": "https://live.staticflickr.com/65535/49711147167_a8450135b1_o.jpg",
    "id_image": "LITTLEMONK2903201206428",
    "count_view": 0
  },
  {
    "link_thumb": "https://live.staticflickr.com/65535/49548842097_f9d9253afd_n.jpg",
    "id_album": "-422187261",
    "description": "KAWAII12091862",
    "title": "KAWAII12091862",
    "link_img": "https://live.staticflickr.com/65535/49548842097_3395c1e152_o.jpg",
    "id_image": "KAWAII12091862",
    "count_view": 0
  },
  {
    "link_thumb": "https://live.staticflickr.com/65535/49623110077_21b03950bc_n.jpg",
    "id_album": "-316663319",
    "description": "KAWAII050320202154",
    "title": "KAWAII050320202154",
    "link_img": "https://live.staticflickr.com/65535/49623110077_15d7deab7b_o.jpg",
    "id_image": "KAWAII050320202154",
    "count_view": 0
  },
  {
    "link_thumb": "https://live.staticflickr.com/65535/49548833642_65f447d4b0_n.jpg",
    "id_album": "-1741487325",
    "description": "KAWAII120918364",
    "title": "KAWAII120918364",
    "link_img": "https://live.staticflickr.com/65535/49548833642_13ab6186c0_o.jpg",
    "id_image": "KAWAII120918364",
    "count_view": 0
  },
  {
    "link_thumb": "https://live.staticflickr.com/65535/49693528458_2508564005_n.jpg",
    "id_album": "-643980979",
    "description": "KAWAII050320202119",
    "title": "KAWAII050320202119",
    "link_img": "https://live.staticflickr.com/65535/49693528458_51366de5c9_o.jpg",
    "id_image": "KAWAII050320202119",
    "count_view": 0
  },
  {
    "link_thumb": "https://live.staticflickr.com/65535/49727425281_67878e2bdd_n.jpg",
    "id_album": "-1694302085",
    "description": "KAWAII020420194508201",
    "title": "KAWAII020420194508201",
    "link_img": "https://live.staticflickr.com/65535/49727425281_64f106fd43_o.jpg",
    "id_image": "KAWAII020420194508201",
    "count_view": 0
  },
  {
    "link_thumb": "https://live.staticflickr.com/65535/49592228118_d708974308_n.jpg",
    "id_album": "949200594",
    "description": "KAWAII2702202351134",
    "title": "KAWAII2702202351134",
    "link_img": "https://live.staticflickr.com/65535/49592228118_c90b3e7973_o.jpg",
    "id_image": "KAWAII2702202351134",
    "count_view": 0
  },
  {
    "link_thumb": "https://live.staticflickr.com/65535/49726884778_087ace6f08_n.jpg",
    "id_album": "-1497779911",
    "description": "KAWAII0503202021248",
    "title": "KAWAII0503202021248",
    "link_img": "https://live.staticflickr.com/65535/49726884778_9344b62852_o.jpg",
    "id_image": "KAWAII0503202021248",
    "count_view": 0
  },
  {
    "link_thumb": "https://live.staticflickr.com/65535/49592230628_c6e755e674_n.jpg",
    "id_album": "949200594",
    "description": "KAWAII270220235176",
    "title": "KAWAII270220235176",
    "link_img": "https://live.staticflickr.com/65535/49592230628_149dc42680_o.jpg",
    "id_image": "KAWAII270220235176",
    "count_view": 0
  },
  {
    "link_thumb": "https://live.staticflickr.com/65535/49727441211_3a0d701017_n.jpg",
    "id_album": "742877173",
    "description": "KAWAII020420194508105",
    "title": "KAWAII020420194508105",
    "link_img": "https://live.staticflickr.com/65535/49727441211_8f9d2e417f_o.jpg",
    "id_image": "KAWAII020420194508105",
    "count_view": 0
  },
  {
    "link_thumb": "https://live.staticflickr.com/65535/49592705886_95ab1e321a_n.jpg",
    "id_album": "1396902986",
    "description": "KAWAII27022023511",
    "title": "KAWAII27022023511",
    "link_img": "https://live.staticflickr.com/65535/49592705886_eec36d8b13_o.jpg",
    "id_image": "KAWAII27022023511",
    "count_view": 0
  },
  {
    "link_thumb": "https://live.staticflickr.com/65535/49694402162_571e2018be_n.jpg",
    "id_album": "1201366373",
    "description": "KAWAII120918301",
    "title": "KAWAII120918301",
    "link_img": "https://live.staticflickr.com/65535/49694402162_4b50bcf03a_o.jpg",
    "id_image": "KAWAII120918301",
    "count_view": 0
  },
  {
    "link_thumb": "https://live.staticflickr.com/65535/49623074172_249e72beff_n.jpg",
    "id_album": "1396902986",
    "description": "KAWAII0503202021219",
    "title": "KAWAII0503202021219",
    "link_img": "https://live.staticflickr.com/65535/49623074172_7f22c72567_o.jpg",
    "id_image": "KAWAII0503202021219",
    "count_view": 0
  },
  {
    "link_thumb": "https://live.staticflickr.com/65535/49694431617_90867bcb8a_n.jpg",
    "id_album": "1226948986",
    "description": "TOTORO220320154114",
    "title": "TOTORO220320154114",
    "link_img": "https://live.staticflickr.com/65535/49694431617_c4ac376478_o.jpg",
    "id_image": "TOTORO220320154114",
    "count_view": 0
  },
  {
    "link_thumb": "https://live.staticflickr.com/65535/49743236517_585777528f_n.jpg",
    "id_album": "-1741487325",
    "description": "KAWAII060420214918140",
    "title": "KAWAII060420214918140",
    "link_img": "https://live.staticflickr.com/65535/49743236517_c67a517862_o.jpg",
    "id_image": "KAWAII060420214918140",
    "count_view": 0
  },
  {
    "link_thumb": "https://live.staticflickr.com/65535/49694411082_7f8918b1ed_n.jpg",
    "id_album": "1201366373",
    "description": "KAWAII1702202235161",
    "title": "KAWAII1702202235161",
    "link_img": "https://live.staticflickr.com/65535/49694411082_770379d631_o.jpg",
    "id_image": "KAWAII1702202235161",
    "count_view": 0
  },
  {
    "link_thumb": "https://live.staticflickr.com/65535/49727756082_5da809012c_n.jpg",
    "id_album": "742877173",
    "description": "KAWAII020420194508118",
    "title": "KAWAII020420194508118",
    "link_img": "https://live.staticflickr.com/65535/49727756082_3e77906345_o.jpg",
    "id_image": "KAWAII020420194508118",
    "count_view": 0
  },
  {
    "link_thumb": "https://live.staticflickr.com/65535/49711146947_2b7b494f19_n.jpg",
    "id_album": "-1599896063",
    "description": "LITTLEMONK29032012064226",
    "title": "LITTLEMONK29032012064226",
    "link_img": "https://live.staticflickr.com/65535/49711146947_1ee772217a_o.jpg",
    "id_image": "LITTLEMONK29032012064226",
    "count_view": 0
  },
  {
    "link_thumb": "https://live.staticflickr.com/65535/49693679248_a4a8c175eb_n.jpg",
    "id_album": "-406350429",
    "description": "KAWAII270220235132",
    "title": "KAWAII270220235132",
    "link_img": "https://live.staticflickr.com/65535/49693679248_99819b71ca_o.jpg",
    "id_image": "KAWAII270220235132",
    "count_view": 0
  },
  {
    "link_thumb": "https://live.staticflickr.com/65535/49726882728_d4d89f133a_n.jpg",
    "id_album": "-1497779911",
    "description": "KAWAII02042019451083",
    "title": "KAWAII02042019451083",
    "link_img": "https://live.staticflickr.com/65535/49726882728_f2649991bf_o.jpg",
    "id_image": "KAWAII02042019451083",
    "count_view": 0
  },
  {
    "link_thumb": "https://live.staticflickr.com/65535/49548853587_31b76275ee_n.jpg",
    "id_album": "-1099943053",
    "description": "KAWAII170220223326",
    "title": "KAWAII170220223326",
    "link_img": "https://live.staticflickr.com/65535/49548853587_0dcdd11637_o.jpg",
    "id_image": "KAWAII170220223326",
    "count_view": 0
  },
  {
    "link_thumb": "https://live.staticflickr.com/65535/49552517241_cfe1185bd3_n.jpg",
    "id_album": "-1694302085",
    "description": "KAWAII12091825180220205911",
    "title": "KAWAII12091825180220205911",
    "link_img": "https://live.staticflickr.com/65535/49552517241_e6d0dcecb0_o.jpg",
    "id_image": "KAWAII12091825180220205911",
    "count_view": 0
  },
  {
    "link_thumb": "https://live.staticflickr.com/65535/49694530172_55f3fd7ce6_n.jpg",
    "id_album": "1226948986",
    "description": "KAWAII2403202205019",
    "title": "KAWAII2403202205019",
    "link_img": "https://live.staticflickr.com/65535/49694530172_170787ec41_o.jpg",
    "id_image": "KAWAII2403202205019",
    "count_view": 0
  },
  {
    "link_thumb": "https://live.staticflickr.com/65535/49727436536_7dee9d1b02_n.jpg",
    "id_album": "-316663319",
    "description": "KAWAII0204201945099",
    "title": "KAWAII0204201945099",
    "link_img": "https://live.staticflickr.com/65535/49727436536_0fcc53344f_o.jpg",
    "id_image": "KAWAII0204201945099",
    "count_view": 0
  },
  {
    "link_thumb": "https://live.staticflickr.com/65535/49548715926_c11836b31f_n.jpg",
    "id_album": "-422187261",
    "description": "KAWAII1702202238439",
    "title": "KAWAII1702202238439",
    "link_img": "https://live.staticflickr.com/65535/49548715926_bc37b6ac4d_o.jpg",
    "id_image": "KAWAII1702202238439",
    "count_view": 0
  },
  {
    "link_thumb": "https://live.staticflickr.com/65535/49694425462_c4ddd144bd_n.jpg",
    "id_album": "-643980979",
    "description": "KAWAII270220235175",
    "title": "KAWAII270220235175",
    "link_img": "https://live.staticflickr.com/65535/49694425462_c8d144aa33_o.jpg",
    "id_image": "KAWAII270220235175",
    "count_view": 0
  },
  {
    "link_thumb": "https://live.staticflickr.com/65535/49693524538_039d1e5efc_n.jpg",
    "id_album": "-1741487325",
    "description": "KAWAII2702202351104",
    "title": "KAWAII2702202351104",
    "link_img": "https://live.staticflickr.com/65535/49693524538_272d708b2d_o.jpg",
    "id_image": "KAWAII2702202351104",
    "count_view": 0
  },
  {
    "link_thumb": "https://live.staticflickr.com/65535/49548847582_c1e6076bf8_n.jpg",
    "id_album": "-422187261",
    "description": "KAWAII1209189",
    "title": "KAWAII1209189",
    "link_img": "https://live.staticflickr.com/65535/49548847582_1ffc716c5e_o.jpg",
    "id_image": "KAWAII1209189",
    "count_view": 0
  },
  {
    "link_thumb": "https://live.staticflickr.com/65535/49548991617_4db3ec9d8e_n.jpg",
    "id_album": "-422187261",
    "description": "KAWAII17091824",
    "title": "KAWAII17091824",
    "link_img": "https://live.staticflickr.com/65535/49548991617_f9fd738220_o.jpg",
    "id_image": "KAWAII17091824",
    "count_view": 0
  },
  {
    "link_thumb": "https://live.staticflickr.com/65535/49694519607_e4b83724e6_n.jpg",
    "id_album": "-1694302085",
    "description": "KAWAII24032022050240",
    "title": "KAWAII24032022050240",
    "link_img": "https://live.staticflickr.com/65535/49694519607_620c1d6101_o.jpg",
    "id_image": "KAWAII24032022050240",
    "count_view": 0
  },
  {
    "link_thumb": "https://live.staticflickr.com/65535/49693571198_a82879b5bf_n.jpg",
    "id_album": "-643980979",
    "description": "KAWAII1702202239525",
    "title": "KAWAII1702202239525",
    "link_img": "https://live.staticflickr.com/65535/49693571198_79c07df54a_o.jpg",
    "id_image": "KAWAII1702202239525",
    "count_view": 0
  },
  {
    "link_thumb": "https://live.staticflickr.com/65535/49548121913_60da61ca27_n.jpg",
    "id_album": "-422187261",
    "description": "KAWAII170220223316",
    "title": "KAWAII170220223316",
    "link_img": "https://live.staticflickr.com/65535/49548121913_44d0b61ddf_o.jpg",
    "id_image": "KAWAII170220223316",
    "count_view": 0
  },
  {
    "link_thumb": "https://live.staticflickr.com/65535/49742949226_03384e63de_n.jpg",
    "id_album": "1396902986",
    "description": "KAWAII06042021491527",
    "title": "KAWAII06042021491527",
    "link_img": "https://live.staticflickr.com/65535/49742949226_a8176444e2_o.jpg",
    "id_image": "KAWAII06042021491527",
    "count_view": 0
  },
  {
    "link_thumb": "https://live.staticflickr.com/65535/49742937191_4040c29279_n.jpg",
    "id_album": "-1473448477",
    "description": "KAWAII060420214915231",
    "title": "KAWAII060420214915231",
    "link_img": "https://live.staticflickr.com/65535/49742937191_69f587b69a_o.jpg",
    "id_image": "KAWAII060420214915231",
    "count_view": 0
  },
  {
    "link_thumb": "https://live.staticflickr.com/65535/49742407823_323f75a2aa_n.jpg",
    "id_album": "-1431786825",
    "description": "KAWAII060420214914275",
    "title": "KAWAII060420214914275",
    "link_img": "https://live.staticflickr.com/65535/49742407823_2e8d533bf4_o.jpg",
    "id_image": "KAWAII060420214914275",
    "count_view": 0
  },
  {
    "link_thumb": "https://live.staticflickr.com/65535/49548735951_b794b658f5_n.jpg",
    "id_album": "-1099943053",
    "description": "KAWAII1702202239513",
    "title": "KAWAII1702202239513",
    "link_img": "https://live.staticflickr.com/65535/49548735951_f7a5f3408a_o.jpg",
    "id_image": "KAWAII1702202239513",
    "count_view": 0
  },
  {
    "link_thumb": "https://live.staticflickr.com/65535/49694524137_b80953ce00_n.jpg",
    "id_album": "-1432180061",
    "description": "KAWAII12091838",
    "title": "KAWAII12091838",
    "link_img": "https://live.staticflickr.com/65535/49694524137_9730271caf_o.jpg",
    "id_image": "KAWAII12091838",
    "count_view": 0
  },
  {
    "link_thumb": "https://live.staticflickr.com/65535/49727426016_3ea6756eb8_n.jpg",
    "id_album": "-1694302085",
    "description": "KAWAII02042019451159",
    "title": "KAWAII02042019451159",
    "link_img": "https://live.staticflickr.com/65535/49727426016_645aebf6ea_o.jpg",
    "id_image": "KAWAII02042019451159",
    "count_view": 0
  },
  {
    "link_thumb": "https://live.staticflickr.com/65535/49694532017_2f599c40e0_n.jpg",
    "id_album": "1226948986",
    "description": "KAWAII24032022050237",
    "title": "KAWAII24032022050237",
    "link_img": "https://live.staticflickr.com/65535/49694532017_1504776f2b_o.jpg",
    "id_image": "KAWAII24032022050237",
    "count_view": 0
  },
  {
    "link_thumb": "https://live.staticflickr.com/65535/49727738072_e0b319797c_n.jpg",
    "id_album": "-1694302085",
    "description": "KAWAII020420194508100",
    "title": "KAWAII020420194508100",
    "link_img": "https://live.staticflickr.com/65535/49727738072_5cb5e421e0_o.jpg",
    "id_image": "KAWAII020420194508100",
    "count_view": 0
  },
  {
    "link_thumb": "https://live.staticflickr.com/65535/49623103582_c6ce891571_n.jpg",
    "id_album": "-316663319",
    "description": "KAWAII0503202021302",
    "title": "KAWAII0503202021302",
    "link_img": "https://live.staticflickr.com/65535/49623103582_0438ee03ca_o.jpg",
    "id_image": "KAWAII0503202021302",
    "count_view": 0
  },
  {
    "link_thumb": "https://live.staticflickr.com/65535/49693574773_9ab839bcc5_n.jpg",
    "id_album": "-643980979",
    "description": "KAWAII17022023466",
    "title": "KAWAII17022023466",
    "link_img": "https://live.staticflickr.com/65535/49693574773_4eef323433_o.jpg",
    "id_image": "KAWAII17022023466",
    "count_view": 0
  },
  {
    "link_thumb": "https://live.staticflickr.com/65535/49710822451_3c883385b1_n.jpg",
    "id_album": "-1599896063",
    "description": "LITTLEMONK29032012063923",
    "title": "LITTLEMONK29032012063923",
    "link_img": "https://live.staticflickr.com/65535/49710822451_c8ba1ea2fe_o.jpg",
    "id_image": "LITTLEMONK29032012063923",
    "count_view": 0
  },
  {
    "link_thumb": "https://live.staticflickr.com/65535/49726877153_37ba83f92c_n.jpg",
    "id_album": "-1694302085",
    "description": "KAWAII020420194508143",
    "title": "KAWAII020420194508143",
    "link_img": "https://live.staticflickr.com/65535/49726877153_fc993e5b2d_o.jpg",
    "id_image": "KAWAII020420194508143",
    "count_view": 0
  },
  {
    "link_thumb": "https://live.staticflickr.com/65535/49548569911_ae8fa3c61b_n.jpg",
    "id_album": "-316663319",
    "description": "KAWAII120918206",
    "title": "KAWAII120918206",
    "link_img": "https://live.staticflickr.com/65535/49548569911_2d31a8ac7c_o.jpg",
    "id_image": "KAWAII120918206",
    "count_view": 0
  },
  {
    "link_thumb": "https://live.staticflickr.com/65535/49552026338_0531aab024_n.jpg",
    "id_album": "-316663319",
    "description": "KAWAII1209182518022020597",
    "title": "KAWAII1209182518022020597",
    "link_img": "https://live.staticflickr.com/65535/49552026338_a9506c28a3_o.jpg",
    "id_image": "KAWAII1209182518022020597",
    "count_view": 0
  },
  {
    "link_thumb": "https://live.staticflickr.com/65535/49592735741_eb5276fb92_n.jpg",
    "id_album": "431597977",
    "description": "KAWAII270220235149",
    "title": "KAWAII270220235149",
    "link_img": "https://live.staticflickr.com/65535/49592735741_b088e9398f_o.jpg",
    "id_image": "KAWAII270220235149",
    "count_view": 0
  },
  {
    "link_thumb": "https://live.staticflickr.com/65535/49694113391_93707dee7b_n.jpg",
    "id_album": "1201366373",
    "description": "KAWAII1702202239507",
    "title": "KAWAII1702202239507",
    "link_img": "https://live.staticflickr.com/65535/49694113391_47d1006bf4_o.jpg",
    "id_image": "KAWAII1702202239507",
    "count_view": 0
  },
  {
    "link_thumb": "https://live.staticflickr.com/65535/49694525352_e0861033b7_n.jpg",
    "id_album": "-1432180061",
    "description": "KAWAII17022023464",
    "title": "KAWAII17022023464",
    "link_img": "https://live.staticflickr.com/65535/49694525352_07bed07793_o.jpg",
    "id_image": "KAWAII17022023464",
    "count_view": 0
  },
  {
    "link_thumb": "https://live.staticflickr.com/65535/49622290498_4b0b08cd85_n.jpg",
    "id_album": "-1741487325",
    "description": "KAWAII0503202021117",
    "title": "KAWAII0503202021117",
    "link_img": "https://live.staticflickr.com/65535/49622290498_c9f4c4f7ae_o.jpg",
    "id_image": "KAWAII0503202021117",
    "count_view": 0
  },
  {
    "link_thumb": "https://live.staticflickr.com/65535/49548098158_6496ed01f2_n.jpg",
    "id_album": "-1741487325",
    "description": "KAWAII120918340",
    "title": "KAWAII120918340",
    "link_img": "https://live.staticflickr.com/65535/49548098158_49da34b78f_o.jpg",
    "id_image": "KAWAII120918340",
    "count_view": 0
  },
  {
    "link_thumb": "https://live.staticflickr.com/65535/49694110991_1c3a41c632_n.jpg",
    "id_album": "-643980979",
    "description": "KAWAII1702202237374",
    "title": "KAWAII1702202237374",
    "link_img": "https://live.staticflickr.com/65535/49694110991_6fd8867659_o.jpg",
    "id_image": "KAWAII1702202237374",
    "count_view": 0
  },
  {
    "link_thumb": "https://live.staticflickr.com/65535/49548661171_80dc43847e_n.jpg",
    "id_album": "-1431786825",
    "description": "KAWAII1702202235194",
    "title": "KAWAII1702202235194",
    "link_img": "https://live.staticflickr.com/65535/49548661171_d8e0c4fa0a_o.jpg",
    "id_image": "KAWAII1702202235194",
    "count_view": 0
  },
  {
    "link_thumb": "https://live.staticflickr.com/65535/49742905991_c9c478aab5_n.jpg",
    "id_album": "-1913845949",
    "description": "KAWAII1702202235133",
    "title": "KAWAII1702202235133",
    "link_img": "https://live.staticflickr.com/65535/49742905991_788e3f3fca_o.jpg",
    "id_image": "KAWAII1702202235133",
    "count_view": 0
  },
  {
    "link_thumb": "https://live.staticflickr.com/65535/49694125311_154b517e69_n.jpg",
    "id_album": "-358592519",
    "description": "KAWAII1702202237314",
    "title": "KAWAII1702202237314",
    "link_img": "https://live.staticflickr.com/65535/49694125311_83b4919df8_o.jpg",
    "id_image": "KAWAII1702202237314",
    "count_view": 0
  },
  {
    "link_thumb": "https://live.staticflickr.com/65535/49743253787_13d6aba4d4_n.jpg",
    "id_album": "-316663319",
    "description": "KAWAII06042021491559",
    "title": "KAWAII06042021491559",
    "link_img": "https://live.staticflickr.com/65535/49743253787_9168c4f110_o.jpg",
    "id_image": "KAWAII06042021491559",
    "count_view": 0
  },
  {
    "link_thumb": "https://live.staticflickr.com/65535/49578750876_bea642f332_n.jpg",
    "id_album": "-1694302085",
    "description": "KAWAII190220211135",
    "title": "KAWAII190220211135",
    "link_img": "https://live.staticflickr.com/65535/49578750876_721cb6ccf2_o.jpg",
    "id_image": "KAWAII190220211135",
    "count_view": 0
  },
  {
    "link_thumb": "https://live.staticflickr.com/65535/49727465396_43aa8d7c90_n.jpg",
    "id_album": "1396902986",
    "description": "KAWAII02042019451249",
    "title": "KAWAII02042019451249",
    "link_img": "https://live.staticflickr.com/65535/49727465396_a64da1a456_o.jpg",
    "id_image": "KAWAII02042019451249",
    "count_view": 0
  },
  {
    "link_thumb": "https://live.staticflickr.com/65535/49693532323_7162d35f4b_n.jpg",
    "id_album": "-643980979",
    "description": "KAWAII050320202143",
    "title": "KAWAII050320202143",
    "link_img": "https://live.staticflickr.com/65535/49693532323_2bbe67359d_o.jpg",
    "id_image": "KAWAII050320202143",
    "count_view": 0
  },
  {
    "link_thumb": "https://live.staticflickr.com/65535/49548098368_c33c390434_n.jpg",
    "id_album": "-422187261",
    "description": "KAWAII120918341",
    "title": "KAWAII120918341",
    "link_img": "https://live.staticflickr.com/65535/49548098368_4983148212_o.jpg",
    "id_image": "KAWAII120918341",
    "count_view": 0
  },
  {
    "link_thumb": "https://live.staticflickr.com/65535/49694384787_491000eb76_n.jpg",
    "id_album": "1201366373",
    "description": "KAWAII120918118",
    "title": "KAWAII120918118",
    "link_img": "https://live.staticflickr.com/65535/49694384787_a790272051_o.jpg",
    "id_image": "KAWAII120918118",
    "count_view": 0
  },
  {
    "link_thumb": "https://live.staticflickr.com/65535/49727443351_559cf78630_n.jpg",
    "id_album": "742877173",
    "description": "KAWAII02042019450867",
    "title": "KAWAII02042019450867",
    "link_img": "https://live.staticflickr.com/65535/49727443351_48a92a949e_o.jpg",
    "id_image": "KAWAII02042019450867",
    "count_view": 0
  },
  {
    "link_thumb": "https://live.staticflickr.com/65535/49552523746_a8b4097645_n.jpg",
    "id_album": "1396902986",
    "description": "KAWAII1209182518022020599",
    "title": "KAWAII1209182518022020599",
    "link_img": "https://live.staticflickr.com/65535/49552523746_1566cd17a8_o.jpg",
    "id_image": "KAWAII1209182518022020599",
    "count_view": 0
  },
  {
    "link_thumb": "https://live.staticflickr.com/65535/49548832647_f7abbc16dc_n.jpg",
    "id_album": "-1431786825",
    "description": "KAWAII120918360",
    "title": "KAWAII120918360",
    "link_img": "https://live.staticflickr.com/65535/49548832647_6954825421_o.jpg",
    "id_image": "KAWAII120918360",
    "count_view": 0
  },
  {
    "link_thumb": "https://live.staticflickr.com/65535/49592731011_49c2a743bf_n.jpg",
    "id_album": "949200594",
    "description": "KAWAII2702202351131",
    "title": "KAWAII2702202351131",
    "link_img": "https://live.staticflickr.com/65535/49592731011_23595a6872_o.jpg",
    "id_image": "KAWAII2702202351131",
    "count_view": 0
  },
  {
    "link_thumb": "https://live.staticflickr.com/65535/49727439666_4d7308a57b_n.jpg",
    "id_album": "-316663319",
    "description": "KAWAII020420194512154",
    "title": "KAWAII020420194512154",
    "link_img": "https://live.staticflickr.com/65535/49727439666_09f88a6c49_o.jpg",
    "id_image": "KAWAII020420194512154",
    "count_view": 0
  },
  {
    "link_thumb": "https://live.staticflickr.com/65535/49742357843_50649d48d6_n.jpg",
    "id_album": "-1913845949",
    "description": "KAWAII060420214918161",
    "title": "KAWAII060420214918161",
    "link_img": "https://live.staticflickr.com/65535/49742357843_b193694e5e_o.jpg",
    "id_image": "KAWAII060420214918161",
    "count_view": 0
  },
  {
    "link_thumb": "https://live.staticflickr.com/65535/49592954487_25b10e6300_n.jpg",
    "id_album": "-1741487325",
    "description": "KAWAII270220235150",
    "title": "KAWAII270220235150",
    "link_img": "https://live.staticflickr.com/65535/49592954487_925a645ab0_o.jpg",
    "id_image": "KAWAII270220235150",
    "count_view": 0
  },
  {
    "link_thumb": "https://live.staticflickr.com/65535/49548721141_54705f70dc_n.jpg",
    "id_album": "-422187261",
    "description": "KAWAII1702202238458",
    "title": "KAWAII1702202238458",
    "link_img": "https://live.staticflickr.com/65535/49548721141_d281d1b5e8_o.jpg",
    "id_image": "KAWAII1702202238458",
    "count_view": 0
  },
  {
    "link_thumb": "https://live.staticflickr.com/65535/49743240552_7cd755625e_n.jpg",
    "id_album": "-1432180061",
    "description": "KAWAII060420214914122",
    "title": "KAWAII060420214914122",
    "link_img": "https://live.staticflickr.com/65535/49743240552_875d81d504_o.jpg",
    "id_image": "KAWAII060420214914122",
    "count_view": 0
  }
]