[
  {
    "link_thumb": "https://live.staticflickr.com/65535/49592214838_890bcf4f6d_n.jpg",
    "id_album": "-316663319",
    "description": "KAWAII270220235129",
    "title": "KAWAII270220235129",
    "link_img": "https://live.staticflickr.com/65535/49592214838_713a6a5106_o.jpg",
    "id_image": "KAWAII270220235129",
    "count_view": 0
  },
  {
    "link_thumb": "https://live.staticflickr.com/65535/49694228911_22e5202745_n.jpg",
    "id_album": "1226948986",
    "description": "KAWAII24032022050252",
    "title": "KAWAII24032022050252",
    "link_img": "https://live.staticflickr.com/65535/49694228911_fae9953d61_o.jpg",
    "id_image": "KAWAII24032022050252",
    "count_view": 0
  },
  {
    "link_thumb": "https://live.staticflickr.com/65535/49592213803_e40d3b7299_n.jpg",
    "id_album": "-316663319",
    "description": "KAWAII2702202351157",
    "title": "KAWAII2702202351157",
    "link_img": "https://live.staticflickr.com/65535/49592213803_55e29ca507_o.jpg",
    "id_image": "KAWAII2702202351157",
    "count_view": 0
  },
  {
    "link_thumb": "https://live.staticflickr.com/65535/49592732726_278f17e315_n.jpg",
    "id_album": "949200594",
    "description": "KAWAII270220235154",
    "title": "KAWAII270220235154",
    "link_img": "https://live.staticflickr.com/65535/49592732726_7fb09fa990_o.jpg",
    "id_image": "KAWAII270220235154",
    "count_view": 0
  },
  {
    "link_thumb": "https://live.staticflickr.com/65535/49742932701_d5377d3cb9_n.jpg",
    "id_album": "-316663319",
    "description": "KAWAII060420214918252",
    "title": "KAWAII060420214918252",
    "link_img": "https://live.staticflickr.com/65535/49742932701_f9a76244d5_o.jpg",
    "id_image": "KAWAII060420214918252",
    "count_view": 0
  },
  {
    "link_thumb": "https://live.staticflickr.com/65535/49693576683_b0ede188d0_n.jpg",
    "id_album": "1201366373",
    "description": "KAWAII17091832",
    "title": "KAWAII17091832",
    "link_img": "https://live.staticflickr.com/65535/49693576683_cfec756f53_o.jpg",
    "id_image": "KAWAII17091832",
    "count_view": 0
  },
  {
    "link_thumb": "https://live.staticflickr.com/65535/49592212103_2bcfe25c63_n.jpg",
    "id_album": "-316663319",
    "description": "KAWAII2702202351132",
    "title": "KAWAII2702202351132",
    "link_img": "https://live.staticflickr.com/65535/49592212103_44cba4b19f_o.jpg",
    "id_image": "KAWAII2702202351132",
    "count_view": 0
  },
  {
    "link_thumb": "https://live.staticflickr.com/65535/49743268837_23516a0724_n.jpg",
    "id_album": "-1779286820",
    "description": "KAWAII060420214918103",
    "title": "KAWAII060420214918103",
    "link_img": "https://live.staticflickr.com/65535/49743268837_894b3edc40_o.jpg",
    "id_image": "KAWAII060420214918103",
    "count_view": 0
  },
  {
    "link_thumb": "https://live.staticflickr.com/65535/49743223077_cb6b0d531b_n.jpg",
    "id_album": "-1913845949",
    "description": "KAWAII06042021491116",
    "title": "KAWAII06042021491116",
    "link_img": "https://live.staticflickr.com/65535/49743223077_8b00a1bf15_o.jpg",
    "id_image": "KAWAII06042021491116",
    "count_view": 0
  },
  {
    "link_thumb": "https://live.staticflickr.com/65535/49548096618_cf27c22d92_n.jpg",
    "id_album": "-316663319",
    "description": "KAWAII120918333",
    "title": "KAWAII120918333",
    "link_img": "https://live.staticflickr.com/65535/49548096618_b4ddfc91c2_o.jpg",
    "id_image": "KAWAII120918333",
    "count_view": 0
  },
  {
    "link_thumb": "https://live.staticflickr.com/65535/49742920591_936f45c463_n.jpg",
    "id_album": "-316663319",
    "description": "KAWAII060420214912117",
    "title": "KAWAII060420214912117",
    "link_img": "https://live.staticflickr.com/65535/49742920591_768b5a36c8_o.jpg",
    "id_image": "KAWAII060420214912117",
    "count_view": 0
  },
  {
    "link_thumb": "https://live.staticflickr.com/65535/49743272922_9784ee7c02_n.jpg",
    "id_album": "1396902986",
    "description": "KAWAII060420214915233",
    "title": "KAWAII060420214915233",
    "link_img": "https://live.staticflickr.com/65535/49743272922_1f2442eeac_o.jpg",
    "id_image": "KAWAII060420214915233",
    "count_view": 0
  },
  {
    "link_thumb": "https://live.staticflickr.com/65535/49694116601_dd81e1197d_n.jpg",
    "id_album": "-643980979",
    "description": "KAWAII170220234619",
    "title": "KAWAII170220234619",
    "link_img": "https://live.staticflickr.com/65535/49694116601_5f6ba4f4f0_o.jpg",
    "id_image": "KAWAII170220234619",
    "count_view": 0
  },
  {
    "link_thumb": "https://live.staticflickr.com/65535/49623114102_c4b0e64840_n.jpg",
    "id_album": "-406350429",
    "description": "KAWAII0503202021115",
    "title": "KAWAII0503202021115",
    "link_img": "https://live.staticflickr.com/65535/49623114102_63275bcc45_o.jpg",
    "id_image": "KAWAII0503202021115",
    "count_view": 0
  },
  {
    "link_thumb": "https://live.staticflickr.com/65535/49548950137_20fe5592c7_n.jpg",
    "id_album": "-422187261",
    "description": "KAWAII1702202238466",
    "title": "KAWAII1702202238466",
    "link_img": "https://live.staticflickr.com/65535/49548950137_9c34f5805d_o.jpg",
    "id_image": "KAWAII1702202238466",
    "count_view": 0
  },
  {
    "link_thumb": "https://live.staticflickr.com/65535/49694128691_4f0e62d6c1_n.jpg",
    "id_album": "1226948986",
    "description": "TOTORO220320154113",
    "title": "TOTORO220320154113",
    "link_img": "https://live.staticflickr.com/65535/49694128691_9b97e65182_o.jpg",
    "id_image": "TOTORO220320154113",
    "count_view": 0
  },
  {
    "link_thumb": "https://live.staticflickr.com/65535/49548711691_52dff002c1_n.jpg",
    "id_album": "-422187261",
    "description": "KAWAII1702202238423",
    "title": "KAWAII1702202238423",
    "link_img": "https://live.staticflickr.com/65535/49548711691_a471ef5f97_o.jpg",
    "id_image": "KAWAII1702202238423",
    "count_view": 0
  },
  {
    "link_thumb": "https://live.staticflickr.com/65535/49694418562_51e263706d_n.jpg",
    "id_album": "-643980979",
    "description": "KAWAII170220234616",
    "title": "KAWAII170220234616",
    "link_img": "https://live.staticflickr.com/65535/49694418562_c02075e061_o.jpg",
    "id_image": "KAWAII170220234616",
    "count_view": 0
  },
  {
    "link_thumb": "https://live.staticflickr.com/65535/49592729811_69d3876a8a_n.jpg",
    "id_album": "949200594",
    "description": "KAWAII2702202351123",
    "title": "KAWAII2702202351123",
    "link_img": "https://live.staticflickr.com/65535/49592729811_aa8665d905_o.jpg",
    "id_image": "KAWAII2702202351123",
    "count_view": 0
  },
  {
    "link_thumb": "https://live.staticflickr.com/65535/49726896998_47dd5053fe_n.jpg",
    "id_album": "742877173",
    "description": "KAWAII02042019450939",
    "title": "KAWAII02042019450939",
    "link_img": "https://live.staticflickr.com/65535/49726896998_74612dd085_o.jpg",
    "id_image": "KAWAII02042019450939",
    "count_view": 0
  },
  {
    "link_thumb": "https://live.staticflickr.com/65535/49548994707_c8586bc144_n.jpg",
    "id_album": "-422187261",
    "description": "KAWAII17091833",
    "title": "KAWAII17091833",
    "link_img": "https://live.staticflickr.com/65535/49548994707_a8a894a3b9_o.jpg",
    "id_image": "KAWAII17091833",
    "count_view": 0
  },
  {
    "link_thumb": "https://live.staticflickr.com/65535/49693546958_bf60f7305c_n.jpg",
    "id_album": "1201366373",
    "description": "KAWAII120918205",
    "title": "KAWAII120918205",
    "link_img": "https://live.staticflickr.com/65535/49693546958_624b9d5b61_o.jpg",
    "id_image": "KAWAII120918205",
    "count_view": 0
  },
  {
    "link_thumb": "https://live.staticflickr.com/65535/49624020033_40a24b60dc_n.jpg",
    "id_album": "-406350429",
    "description": "KAWAII0503202021293",
    "title": "KAWAII0503202021293",
    "link_img": "https://live.staticflickr.com/65535/49624020033_5c1f61c9d3_o.jpg",
    "id_image": "KAWAII0503202021293",
    "count_view": 0
  },
  {
    "link_thumb": "https://live.staticflickr.com/65535/49548669546_d864b4cec1_n.jpg",
    "id_album": "-1741487325",
    "description": "KAWAII1702202236234",
    "title": "KAWAII1702202236234",
    "link_img": "https://live.staticflickr.com/65535/49548669546_02a854cb7a_o.jpg",
    "id_image": "KAWAII1702202236234",
    "count_view": 0
  },
  {
    "link_thumb": "https://live.staticflickr.com/65535/49592209268_d679ee2f10_n.jpg",
    "id_album": "-1432180061",
    "description": "KAWAII270220235138",
    "title": "KAWAII270220235138",
    "link_img": "https://live.staticflickr.com/65535/49592209268_998a8a6dfe_o.jpg",
    "id_image": "KAWAII270220235138",
    "count_view": 0
  },
  {
    "link_thumb": "https://live.staticflickr.com/65535/49548840722_6e3f1a1450_n.jpg",
    "id_album": "-422187261",
    "description": "KAWAII12091856",
    "title": "KAWAII12091856",
    "link_img": "https://live.staticflickr.com/65535/49548840722_050bcf7237_o.jpg",
    "id_image": "KAWAII12091856",
    "count_view": 0
  },
  {
    "link_thumb": "https://live.staticflickr.com/65535/49592210588_349e58581a_n.jpg",
    "id_album": "-316663319",
    "description": "KAWAII2702202351107",
    "title": "KAWAII2702202351107",
    "link_img": "https://live.staticflickr.com/65535/49592210588_7a766ca9b7_o.jpg",
    "id_image": "KAWAII2702202351107",
    "count_view": 0
  },
  {
    "link_thumb": "https://live.staticflickr.com/65535/49548560621_51602de8fb_n.jpg",
    "id_album": "-1741487325",
    "description": "KAWAII120918165",
    "title": "KAWAII120918165",
    "link_img": "https://live.staticflickr.com/65535/49548560621_5f6ce9a1d9_o.jpg",
    "id_image": "KAWAII120918165",
    "count_view": 0
  },
  {
    "link_thumb": "https://live.staticflickr.com/65535/49693676763_e5880238a2_n.jpg",
    "id_album": "-643980979",
    "description": "KAWAII24032022050256",
    "title": "KAWAII24032022050256",
    "link_img": "https://live.staticflickr.com/65535/49693676763_63e49d7ae3_o.jpg",
    "id_image": "KAWAII24032022050256",
    "count_view": 0
  },
  {
    "link_thumb": "https://live.staticflickr.com/65535/49711146377_82eb555582_n.jpg",
    "id_album": "-1599896063",
    "description": "LITTLEMONK29032012064018",
    "title": "LITTLEMONK29032012064018",
    "link_img": "https://live.staticflickr.com/65535/49711146377_944993cde7_o.jpg",
    "id_image": "LITTLEMONK29032012064018",
    "count_view": 0
  },
  {
    "link_thumb": "https://live.staticflickr.com/65535/49548575786_8f0aed1d58_n.jpg",
    "id_album": "-422187261",
    "description": "KAWAII120918234",
    "title": "KAWAII120918234",
    "link_img": "https://live.staticflickr.com/65535/49548575786_4f6ee3c300_o.jpg",
    "id_image": "KAWAII120918234",
    "count_view": 0
  },
  {
    "link_thumb": "https://live.staticflickr.com/65535/49694521192_97b4274123_n.jpg",
    "id_album": "-643980979",
    "description": "KAWAII24032022050125",
    "title": "KAWAII24032022050125",
    "link_img": "https://live.staticflickr.com/65535/49694521192_64c2887938_o.jpg",
    "id_image": "KAWAII24032022050125",
    "count_view": 0
  },
  {
    "link_thumb": "https://live.staticflickr.com/65535/49694118056_c340991dd2_n.jpg",
    "id_album": "-643980979",
    "description": "KAWAII17022023469",
    "title": "KAWAII17022023469",
    "link_img": "https://live.staticflickr.com/65535/49694118056_221d389d0f_o.jpg",
    "id_image": "KAWAII17022023469",
    "count_view": 0
  },
  {
    "link_thumb": "https://live.staticflickr.com/65535/49548997562_78b5dab695_n.jpg",
    "id_album": "-316663319",
    "description": "KAWAII17091843",
    "title": "KAWAII17091843",
    "link_img": "https://live.staticflickr.com/65535/49548997562_84d0f9d739_o.jpg",
    "id_image": "KAWAII17091843",
    "count_view": 0
  },
  {
    "link_thumb": "https://live.staticflickr.com/65535/49727787947_bff7db4229_n.jpg",
    "id_album": "-1099943053",
    "description": "KAWAII020420194508220",
    "title": "KAWAII020420194508220",
    "link_img": "https://live.staticflickr.com/65535/49727787947_98cf0ca607_o.jpg",
    "id_image": "KAWAII020420194508220",
    "count_view": 0
  },
  {
    "link_thumb": "https://live.staticflickr.com/65535/49743252577_c5c37b428b_n.jpg",
    "id_album": "-316663319",
    "description": "KAWAII060420214915250",
    "title": "KAWAII060420214915250",
    "link_img": "https://live.staticflickr.com/65535/49743252577_4990f8d560_o.jpg",
    "id_image": "KAWAII060420214915250",
    "count_view": 0
  },
  {
    "link_thumb": "https://live.staticflickr.com/65535/49592216793_9f13e875ce_n.jpg",
    "id_album": "-316663319",
    "description": "KAWAII270220235168",
    "title": "KAWAII270220235168",
    "link_img": "https://live.staticflickr.com/65535/49592216793_25bdab5987_o.jpg",
    "id_image": "KAWAII270220235168",
    "count_view": 0
  },
  {
    "link_thumb": "https://live.staticflickr.com/65535/49592711586_5567f36eaf_n.jpg",
    "id_album": "-1741487325",
    "description": "KAWAII270220235125",
    "title": "KAWAII270220235125",
    "link_img": "https://live.staticflickr.com/65535/49592711586_efbfdb630f_o.jpg",
    "id_image": "KAWAII270220235125",
    "count_view": 0
  },
  {
    "link_thumb": "https://live.staticflickr.com/65535/49694375002_c347401b0e_n.jpg",
    "id_album": "-643980979",
    "description": "KAWAII0503202021225",
    "title": "KAWAII0503202021225",
    "link_img": "https://live.staticflickr.com/65535/49694375002_7e97191bb9_o.jpg",
    "id_image": "KAWAII0503202021225",
    "count_view": 0
  },
  {
    "link_thumb": "https://live.staticflickr.com/65535/49694099141_6079f0800d_n.jpg",
    "id_album": "1201366373",
    "description": "KAWAII120918285",
    "title": "KAWAII120918285",
    "link_img": "https://live.staticflickr.com/65535/49694099141_d0069c4ce2_o.jpg",
    "id_image": "KAWAII120918285",
    "count_view": 0
  },
  {
    "link_thumb": "https://live.staticflickr.com/65535/49694079036_c5b22da7ce_n.jpg",
    "id_album": "-643980979",
    "description": "KAWAII050320202184",
    "title": "KAWAII050320202184",
    "link_img": "https://live.staticflickr.com/65535/49694079036_5552a877d7_o.jpg",
    "id_image": "KAWAII050320202184",
    "count_view": 0
  },
  {
    "link_thumb": "https://live.staticflickr.com/65535/49727466646_be3177e0ae_n.jpg",
    "id_album": "-1862561193",
    "description": "KAWAII020420194509184",
    "title": "KAWAII020420194509184",
    "link_img": "https://live.staticflickr.com/65535/49727466646_dce2693bf9_o.jpg",
    "id_image": "KAWAII020420194509184",
    "count_view": 0
  },
  {
    "link_thumb": "https://live.staticflickr.com/65535/49622822056_7ef88d9cff_n.jpg",
    "id_album": "-316663319",
    "description": "KAWAII0503202021194",
    "title": "KAWAII0503202021194",
    "link_img": "https://live.staticflickr.com/65535/49622822056_ae65e77ce7_o.jpg",
    "id_image": "KAWAII0503202021194",
    "count_view": 0
  },
  {
    "link_thumb": "https://live.staticflickr.com/65535/49694397282_ee9e7004e9_n.jpg",
    "id_album": "1201366373",
    "description": "KAWAII120918248",
    "title": "KAWAII120918248",
    "link_img": "https://live.staticflickr.com/65535/49694397282_e3e2589734_o.jpg",
    "id_image": "KAWAII120918248",
    "count_view": 0
  },
  {
    "link_thumb": "https://live.staticflickr.com/65535/49727741362_aa4939b53a_n.jpg",
    "id_album": "-1694302085",
    "description": "KAWAII1702202238438",
    "title": "KAWAII1702202238438",
    "link_img": "https://live.staticflickr.com/65535/49727741362_428eb0275b_o.jpg",
    "id_image": "KAWAII1702202238438",
    "count_view": 0
  },
  {
    "link_thumb": "https://live.staticflickr.com/65535/49743255447_b5cdb13779_n.jpg",
    "id_album": "-316663319",
    "description": "KAWAII060420214917271",
    "title": "KAWAII060420214917271",
    "link_img": "https://live.staticflickr.com/65535/49743255447_4b9dbecc6a_o.jpg",
    "id_image": "KAWAII060420214917271",
    "count_view": 0
  },
  {
    "link_thumb": "https://live.staticflickr.com/65535/49727756497_6a2efa6382_n.jpg",
    "id_album": "742877173",
    "description": "KAWAII020420194508166",
    "title": "KAWAII020420194508166",
    "link_img": "https://live.staticflickr.com/65535/49727756497_ab118d068f_o.jpg",
    "id_image": "KAWAII020420194508166",
    "count_view": 0
  },
  {
    "link_thumb": "https://live.staticflickr.com/65535/49592706831_861ca62369_n.jpg",
    "id_album": "1396902986",
    "description": "KAWAII2702202351138",
    "title": "KAWAII2702202351138",
    "link_img": "https://live.staticflickr.com/65535/49592706831_561d937080_o.jpg",
    "id_image": "KAWAII2702202351138",
    "count_view": 0
  },
  {
    "link_thumb": "https://live.staticflickr.com/65535/49743259472_e3b19a4610_n.jpg",
    "id_album": "-1473448477",
    "description": "KAWAII06042021491517",
    "title": "KAWAII06042021491517",
    "link_img": "https://live.staticflickr.com/65535/49743259472_059f78e1bf_o.jpg",
    "id_image": "KAWAII06042021491517",
    "count_view": 0
  },
  {
    "link_thumb": "https://live.staticflickr.com/65535/49622806061_acc7361557_n.jpg",
    "id_album": "-1741487325",
    "description": "KAWAII0503202021132",
    "title": "KAWAII0503202021132",
    "link_img": "https://live.staticflickr.com/65535/49622806061_f780ea6420_o.jpg",
    "id_image": "KAWAII0503202021132",
    "count_view": 0
  },
  {
    "link_thumb": "https://live.staticflickr.com/65535/49693556423_912b6b5276_n.jpg",
    "id_album": "1201366373",
    "description": "KAWAII12091829",
    "title": "KAWAII12091829",
    "link_img": "https://live.staticflickr.com/65535/49693556423_9168122226_o.jpg",
    "id_image": "KAWAII12091829",
    "count_view": 0
  },
  {
    "link_thumb": "https://live.staticflickr.com/65535/49694064926_e7c66077c3_n.jpg",
    "id_album": "1699819648",
    "description": "KAWAII0503202021297",
    "title": "KAWAII0503202021297",
    "link_img": "https://live.staticflickr.com/65535/49694064926_6c9622cecc_o.jpg",
    "id_image": "KAWAII0503202021297",
    "count_view": 0
  },
  {
    "link_thumb": "https://live.staticflickr.com/65535/49693571673_b7157feeb2_n.jpg",
    "id_album": "-643980979",
    "description": "KAWAII1702202239562",
    "title": "KAWAII1702202239562",
    "link_img": "https://live.staticflickr.com/65535/49693571673_e6720ca332_o.jpg",
    "id_image": "KAWAII1702202239562",
    "count_view": 0
  },
  {
    "link_thumb": "https://live.staticflickr.com/65535/49548195908_e7ed86881e_n.jpg",
    "id_album": "-1431786825",
    "description": "KAWAII1702202237365",
    "title": "KAWAII1702202237365",
    "link_img": "https://live.staticflickr.com/65535/49548195908_d1ae362fbc_o.jpg",
    "id_image": "KAWAII1702202237365",
    "count_view": 0
  },
  {
    "link_thumb": "https://live.staticflickr.com/65535/49742942536_fc02d0a26a_n.jpg",
    "id_album": "-1779286820",
    "description": "KAWAII060420214912196",
    "title": "KAWAII060420214912196",
    "link_img": "https://live.staticflickr.com/65535/49742942536_e90b189efb_o.jpg",
    "id_image": "KAWAII060420214912196",
    "count_view": 0
  },
  {
    "link_thumb": "https://live.staticflickr.com/65535/49548191888_3a192a2b9e_n.jpg",
    "id_album": "-422187261",
    "description": "KAWAII1702202237348",
    "title": "KAWAII1702202237348",
    "link_img": "https://live.staticflickr.com/65535/49548191888_1e0f791fa2_o.jpg",
    "id_image": "KAWAII1702202237348",
    "count_view": 0
  },
  {
    "link_thumb": "https://live.staticflickr.com/65535/49592731011_49c2a743bf_n.jpg",
    "id_album": "949200594",
    "description": "KAWAII2702202351131",
    "title": "KAWAII2702202351131",
    "link_img": "https://live.staticflickr.com/65535/49592731011_23595a6872_o.jpg",
    "id_image": "KAWAII2702202351131",
    "count_view": 0
  },
  {
    "link_thumb": "https://live.staticflickr.com/65535/49623070857_ff489a050a_n.jpg",
    "id_album": "1396902986",
    "description": "KAWAII0503202021104",
    "title": "KAWAII0503202021104",
    "link_img": "https://live.staticflickr.com/65535/49623070857_d45001360d_o.jpg",
    "id_image": "KAWAII0503202021104",
    "count_view": 0
  },
  {
    "link_thumb": "https://live.staticflickr.com/65535/49742932331_dd92b481c5_n.jpg",
    "id_album": "-316663319",
    "description": "KAWAII06042021491767",
    "title": "KAWAII06042021491767",
    "link_img": "https://live.staticflickr.com/65535/49742932331_ce3f21680a_o.jpg",
    "id_image": "KAWAII06042021491767",
    "count_view": 0
  },
  {
    "link_thumb": "https://live.staticflickr.com/65535/49694125931_f8f3987c14_n.jpg",
    "id_album": "-358592519",
    "description": "KAWAII1702202239568",
    "title": "KAWAII1702202239568",
    "link_img": "https://live.staticflickr.com/65535/49694125931_361e3743c3_o.jpg",
    "id_image": "KAWAII1702202239568",
    "count_view": 0
  },
  {
    "link_thumb": "https://live.staticflickr.com/65535/49548774506_5e5205fcd8_n.jpg",
    "id_album": "-316663319",
    "description": "KAWAII17091856",
    "title": "KAWAII17091856",
    "link_img": "https://live.staticflickr.com/65535/49548774506_33ee29b511_o.jpg",
    "id_image": "KAWAII17091856",
    "count_view": 0
  },
  {
    "link_thumb": "https://live.staticflickr.com/65535/49693672998_18981af17b_n.jpg",
    "id_album": "-1741487325",
    "description": "KAWAII0503202021121",
    "title": "KAWAII0503202021121",
    "link_img": "https://live.staticflickr.com/65535/49693672998_32a6f17ddf_o.jpg",
    "id_image": "KAWAII0503202021121",
    "count_view": 0
  },
  {
    "link_thumb": "https://live.staticflickr.com/65535/49623079617_1afe6fdccf_n.jpg",
    "id_album": "-1741487325",
    "description": "KAWAII0503202021174",
    "title": "KAWAII0503202021174",
    "link_img": "https://live.staticflickr.com/65535/49623079617_de337d40a0_o.jpg",
    "id_image": "KAWAII0503202021174",
    "count_view": 0
  },
  {
    "link_thumb": "https://live.staticflickr.com/65535/49592217268_d6786c2d1a_n.jpg",
    "id_album": "-316663319",
    "description": "KAWAII270220235181",
    "title": "KAWAII270220235181",
    "link_img": "https://live.staticflickr.com/65535/49592217268_d78b40da3a_o.jpg",
    "id_image": "KAWAII270220235181",
    "count_view": 0
  },
  {
    "link_thumb": "https://live.staticflickr.com/65535/49548596946_8b990ae9b8_n.jpg",
    "id_album": "1396902986",
    "description": "KAWAII120918327",
    "title": "KAWAII120918327",
    "link_img": "https://live.staticflickr.com/65535/49548596946_df4eb020d8_o.jpg",
    "id_image": "KAWAII120918327",
    "count_view": 0
  },
  {
    "link_thumb": "https://live.staticflickr.com/65535/49727790872_fe112749e1_n.jpg",
    "id_album": "431597977",
    "description": "KAWAII0204201945124",
    "title": "KAWAII0204201945124",
    "link_img": "https://live.staticflickr.com/65535/49727790872_fed9586986_o.jpg",
    "id_image": "KAWAII0204201945124",
    "count_view": 0
  },
  {
    "link_thumb": "https://live.staticflickr.com/65535/49727448281_b4ec788374_n.jpg",
    "id_album": "742877173",
    "description": "KAWAII020420194511265",
    "title": "KAWAII020420194511265",
    "link_img": "https://live.staticflickr.com/65535/49727448281_40f223619f_o.jpg",
    "id_image": "KAWAII020420194511265",
    "count_view": 0
  },
  {
    "link_thumb": "https://live.staticflickr.com/65535/49622284898_9e965641df_n.jpg",
    "id_album": "1396902986",
    "description": "KAWAII0503202021155",
    "title": "KAWAII0503202021155",
    "link_img": "https://live.staticflickr.com/65535/49622284898_19d82e608c_o.jpg",
    "id_image": "KAWAII0503202021155",
    "count_view": 0
  },
  {
    "link_thumb": "https://live.staticflickr.com/65535/49592714866_6f627c0f8c_n.jpg",
    "id_album": "-316663319",
    "description": "KAWAII2702202351133",
    "title": "KAWAII2702202351133",
    "link_img": "https://live.staticflickr.com/65535/49592714866_e095f49d99_o.jpg",
    "id_image": "KAWAII2702202351133",
    "count_view": 0
  },
  {
    "link_thumb": "https://live.staticflickr.com/65535/49592211593_d8bbd64d7a_n.jpg",
    "id_album": "-316663319",
    "description": "KAWAII2702202351116",
    "title": "KAWAII2702202351116",
    "link_img": "https://live.staticflickr.com/65535/49592211593_9bcae88091_o.jpg",
    "id_image": "KAWAII2702202351116",
    "count_view": 0
  },
  {
    "link_thumb": "https://live.staticflickr.com/65535/49742405328_c94bc0f915_n.jpg",
    "id_album": "-1862561193",
    "description": "KAWAII060420214918143",
    "title": "KAWAII060420214918143",
    "link_img": "https://live.staticflickr.com/65535/49742405328_bbc4ea039d_o.jpg",
    "id_image": "KAWAII060420214918143",
    "count_view": 0
  },
  {
    "link_thumb": "https://live.staticflickr.com/65535/49710286373_5453a7f24c_n.jpg",
    "id_album": "-1599896063",
    "description": "LITTLEMONK29032012063212",
    "title": "LITTLEMONK29032012063212",
    "link_img": "https://live.staticflickr.com/65535/49710286373_05b860020e_o.jpg",
    "id_image": "LITTLEMONK29032012063212",
    "count_view": 0
  },
  {
    "link_thumb": "https://live.staticflickr.com/65535/49592705886_95ab1e321a_n.jpg",
    "id_album": "1396902986",
    "description": "KAWAII27022023511",
    "title": "KAWAII27022023511",
    "link_img": "https://live.staticflickr.com/65535/49592705886_eec36d8b13_o.jpg",
    "id_image": "KAWAII27022023511",
    "count_view": 0
  },
  {
    "link_thumb": "https://live.staticflickr.com/65535/49592729676_51ee2d2792_n.jpg",
    "id_album": "949200594",
    "description": "KAWAII2702202351121",
    "title": "KAWAII2702202351121",
    "link_img": "https://live.staticflickr.com/65535/49592729676_4bae3275f4_o.jpg",
    "id_image": "KAWAII2702202351121",
    "count_view": 0
  },
  {
    "link_thumb": "https://live.staticflickr.com/65535/49727433841_c762cbbf94_n.jpg",
    "id_album": "-1497779911",
    "description": "KAWAII120918354",
    "title": "KAWAII120918354",
    "link_img": "https://live.staticflickr.com/65535/49727433841_784ef85c23_o.jpg",
    "id_image": "KAWAII120918354",
    "count_view": 0
  },
  {
    "link_thumb": "https://live.staticflickr.com/65535/49742933061_753661e456_n.jpg",
    "id_album": "-316663319",
    "description": "KAWAII06042021491846",
    "title": "KAWAII06042021491846",
    "link_img": "https://live.staticflickr.com/65535/49742933061_e984dfc0bd_o.jpg",
    "id_image": "KAWAII06042021491846",
    "count_view": 0
  },
  {
    "link_thumb": "https://live.staticflickr.com/65535/49694090886_f5a8983a5b_n.jpg",
    "id_album": "1201366373",
    "description": "KAWAII120918207",
    "title": "KAWAII120918207",
    "link_img": "https://live.staticflickr.com/65535/49694090886_f2d6594686_o.jpg",
    "id_image": "KAWAII120918207",
    "count_view": 0
  },
  {
    "link_thumb": "https://live.staticflickr.com/65535/49548661441_14782e41aa_n.jpg",
    "id_album": "1396902986",
    "description": "KAWAII1702202235195",
    "title": "KAWAII1702202235195",
    "link_img": "https://live.staticflickr.com/65535/49548661441_a2262afb5f_o.jpg",
    "id_image": "KAWAII1702202235195",
    "count_view": 0
  },
  {
    "link_thumb": "https://live.staticflickr.com/65535/49548577646_2773c3c0fa_n.jpg",
    "id_album": "-316663319",
    "description": "KAWAII120918245",
    "title": "KAWAII120918245",
    "link_img": "https://live.staticflickr.com/65535/49548577646_e55c07aff1_o.jpg",
    "id_image": "KAWAII120918245",
    "count_view": 0
  },
  {
    "link_thumb": "https://live.staticflickr.com/65535/49548819262_0081057c24_n.jpg",
    "id_album": "-316663319",
    "description": "KAWAII120918307",
    "title": "KAWAII120918307",
    "link_img": "https://live.staticflickr.com/65535/49548819262_2eea310c23_o.jpg",
    "id_image": "KAWAII120918307",
    "count_view": 0
  },
  {
    "link_thumb": "https://live.staticflickr.com/65535/49727475286_91fcb0b675_n.jpg",
    "id_album": "1226948986",
    "description": "KAWAII020420194508229",
    "title": "KAWAII020420194508229",
    "link_img": "https://live.staticflickr.com/65535/49727475286_d55afbf765_o.jpg",
    "id_image": "KAWAII020420194508229",
    "count_view": 0
  },
  {
    "link_thumb": "https://live.staticflickr.com/65535/49743246732_2d10fc3bb7_n.jpg",
    "id_album": "-316663319",
    "description": "KAWAII06042021491261",
    "title": "KAWAII06042021491261",
    "link_img": "https://live.staticflickr.com/65535/49743246732_5b45f39239_o.jpg",
    "id_image": "KAWAII06042021491261",
    "count_view": 0
  },
  {
    "link_thumb": "https://live.staticflickr.com/65535/49548751601_4e0a006104_n.jpg",
    "id_album": "-1694302085",
    "description": "KAWAII1702202239578",
    "title": "KAWAII1702202239578",
    "link_img": "https://live.staticflickr.com/65535/49548751601_d309a50e64_o.jpg",
    "id_image": "KAWAII1702202239578",
    "count_view": 0
  },
  {
    "link_thumb": "https://live.staticflickr.com/65535/49694097081_996458b2c0_n.jpg",
    "id_album": "1201366373",
    "description": "KAWAII120918259",
    "title": "KAWAII120918259",
    "link_img": "https://live.staticflickr.com/65535/49694097081_3712d412e7_o.jpg",
    "id_image": "KAWAII120918259",
    "count_view": 0
  },
  {
    "link_thumb": "https://live.staticflickr.com/65535/49742949936_19f0003080_n.jpg",
    "id_album": "1396902986",
    "description": "KAWAII0604202149184",
    "title": "KAWAII0604202149184",
    "link_img": "https://live.staticflickr.com/65535/49742949936_4d7d1605c3_o.jpg",
    "id_image": "KAWAII0604202149184",
    "count_view": 0
  },
  {
    "link_thumb": "https://live.staticflickr.com/65535/49742948761_e94d2c008c_n.jpg",
    "id_album": "1396902986",
    "description": "KAWAII060420214915147",
    "title": "KAWAII060420214915147",
    "link_img": "https://live.staticflickr.com/65535/49742948761_b4e2a9b1d7_o.jpg",
    "id_image": "KAWAII060420214915147",
    "count_view": 0
  },
  {
    "link_thumb": "https://live.staticflickr.com/65535/49552520441_084ea7f0c8_n.jpg",
    "id_album": "-1694302085",
    "description": "KAWAII12091825180220205935",
    "title": "KAWAII12091825180220205935",
    "link_img": "https://live.staticflickr.com/65535/49552520441_ca754aa233_o.jpg",
    "id_image": "KAWAII12091825180220205935",
    "count_view": 0
  },
  {
    "link_thumb": "https://live.staticflickr.com/65535/49592716031_e0d6182500_n.jpg",
    "id_album": "-316663319",
    "description": "KAWAII2702202351153",
    "title": "KAWAII2702202351153",
    "link_img": "https://live.staticflickr.com/65535/49592716031_f22e33cbe3_o.jpg",
    "id_image": "KAWAII2702202351153",
    "count_view": 0
  },
  {
    "link_thumb": "https://live.staticflickr.com/65535/49742916301_5761ab09ce_n.jpg",
    "id_album": "-643980979",
    "description": "KAWAII060420214913191",
    "title": "KAWAII060420214913191",
    "link_img": "https://live.staticflickr.com/65535/49742916301_681a230855_o.jpg",
    "id_image": "KAWAII060420214913191",
    "count_view": 0
  },
  {
    "link_thumb": "https://live.staticflickr.com/65535/49623077527_f75a4ccf12_n.jpg",
    "id_album": "1396902986",
    "description": "KAWAII050320202189",
    "title": "KAWAII050320202189",
    "link_img": "https://live.staticflickr.com/65535/49623077527_f93d23b57d_o.jpg",
    "id_image": "KAWAII050320202189",
    "count_view": 0
  },
  {
    "link_thumb": "https://live.staticflickr.com/65535/49548715926_c11836b31f_n.jpg",
    "id_album": "-422187261",
    "description": "KAWAII1702202238439",
    "title": "KAWAII1702202238439",
    "link_img": "https://live.staticflickr.com/65535/49548715926_bc37b6ac4d_o.jpg",
    "id_image": "KAWAII1702202238439",
    "count_view": 0
  },
  {
    "link_thumb": "https://live.staticflickr.com/65535/49622330993_59746efec9_n.jpg",
    "id_album": "-406350429",
    "description": "KAWAII0503202021245",
    "title": "KAWAII0503202021245",
    "link_img": "https://live.staticflickr.com/65535/49622330993_a2d208c7c7_o.jpg",
    "id_image": "KAWAII0503202021245",
    "count_view": 0
  },
  {
    "link_thumb": "https://live.staticflickr.com/65535/49742906436_89f93e8695_n.jpg",
    "id_album": "1699819648",
    "description": "KAWAII02042019450858",
    "title": "KAWAII02042019450858",
    "link_img": "https://live.staticflickr.com/65535/49742906436_63f0d7b2be_o.jpg",
    "id_image": "KAWAII02042019450858",
    "count_view": 0
  },
  {
    "link_thumb": "https://live.staticflickr.com/65535/49694422457_9d228a8ec9_n.jpg",
    "id_album": "1201366373",
    "description": "KAWAII17091844",
    "title": "KAWAII17091844",
    "link_img": "https://live.staticflickr.com/65535/49694422457_49d9464530_o.jpg",
    "id_image": "KAWAII17091844",
    "count_view": 0
  },
  {
    "link_thumb": "https://live.staticflickr.com/65535/49592732471_e9a532fc75_n.jpg",
    "id_album": "949200594",
    "description": "KAWAII270220235142",
    "title": "KAWAII270220235142",
    "link_img": "https://live.staticflickr.com/65535/49592732471_92871a61fd_o.jpg",
    "id_image": "KAWAII270220235142",
    "count_view": 0
  },
  {
    "link_thumb": "https://live.staticflickr.com/65535/49742356483_b4dbd813b8_n.jpg",
    "id_album": "-1913845949",
    "description": "KAWAII060420214915298",
    "title": "KAWAII060420214915298",
    "link_img": "https://live.staticflickr.com/65535/49742356483_5d266574ca_o.jpg",
    "id_image": "KAWAII060420214915298",
    "count_view": 0
  },
  {
    "link_thumb": "https://live.staticflickr.com/65535/49742368198_a78aea33e3_n.jpg",
    "id_album": "-1497779911",
    "description": "KAWAII060420214917131",
    "title": "KAWAII060420214917131",
    "link_img": "https://live.staticflickr.com/65535/49742368198_ec94c1902b_o.jpg",
    "id_image": "KAWAII060420214917131",
    "count_view": 0
  },
  {
    "link_thumb": "https://live.staticflickr.com/65535/49622293143_c3bc3c28f8_n.jpg",
    "id_album": "-1432180061",
    "description": "KAWAII050320202144",
    "title": "KAWAII050320202144",
    "link_img": "https://live.staticflickr.com/65535/49622293143_5ca737778f_o.jpg",
    "id_image": "KAWAII050320202144",
    "count_view": 0
  },
  {
    "link_thumb": "https://live.staticflickr.com/65535/49548997357_9ce11ec73d_n.jpg",
    "id_album": "-1741487325",
    "description": "KAWAII17091842",
    "title": "KAWAII17091842",
    "link_img": "https://live.staticflickr.com/65535/49548997357_47b164462a_o.jpg",
    "id_image": "KAWAII17091842",
    "count_view": 0
  },
  {
    "link_thumb": "https://live.staticflickr.com/65535/49742397118_31632c9a8a_n.jpg",
    "id_album": "-1779286820",
    "description": "KAWAII060420214917108",
    "title": "KAWAII060420214917108",
    "link_img": "https://live.staticflickr.com/65535/49742397118_7036c67f36_o.jpg",
    "id_image": "KAWAII060420214917108",
    "count_view": 0
  },
  {
    "link_thumb": "https://live.staticflickr.com/65535/49548269008_3483f63071_n.jpg",
    "id_album": "-316663319",
    "description": "KAWAII17091839",
    "title": "KAWAII17091839",
    "link_img": "https://live.staticflickr.com/65535/49548269008_b3bcef5d54_o.jpg",
    "id_image": "KAWAII17091839",
    "count_view": 0
  },
  {
    "link_thumb": "https://live.staticflickr.com/65535/49694118476_3994733a26_n.jpg",
    "id_album": "1201366373",
    "description": "KAWAII170220235011",
    "title": "KAWAII170220235011",
    "link_img": "https://live.staticflickr.com/65535/49694118476_ec04766452_o.jpg",
    "id_image": "KAWAII170220235011",
    "count_view": 0
  },
  {
    "link_thumb": "https://live.staticflickr.com/65535/49742920946_83d0686ccb_n.jpg",
    "id_album": "-316663319",
    "description": "KAWAII060420214912142",
    "title": "KAWAII060420214912142",
    "link_img": "https://live.staticflickr.com/65535/49742920946_b4f8cbc8e9_o.jpg",
    "id_image": "KAWAII060420214912142",
    "count_view": 0
  },
  {
    "link_thumb": "https://live.staticflickr.com/65535/49694110351_5db1d489ac_n.jpg",
    "id_album": "-643980979",
    "description": "KAWAII1702202236295",
    "title": "KAWAII1702202236295",
    "link_img": "https://live.staticflickr.com/65535/49694110351_b45f617bf8_o.jpg",
    "id_image": "KAWAII1702202236295",
    "count_view": 0
  },
  {
    "link_thumb": "https://live.staticflickr.com/65535/49552022963_0a629afafb_n.jpg",
    "id_album": "-1694302085",
    "description": "KAWAII12091825180220205931",
    "title": "KAWAII12091825180220205931",
    "link_img": "https://live.staticflickr.com/65535/49552022963_5b8deaced8_o.jpg",
    "id_image": "KAWAII12091825180220205931",
    "count_view": 0
  },
  {
    "link_thumb": "https://live.staticflickr.com/65535/49726877153_37ba83f92c_n.jpg",
    "id_album": "-1694302085",
    "description": "KAWAII020420194508143",
    "title": "KAWAII020420194508143",
    "link_img": "https://live.staticflickr.com/65535/49726877153_fc993e5b2d_o.jpg",
    "id_image": "KAWAII020420194508143",
    "count_view": 0
  },
  {
    "link_thumb": "https://live.staticflickr.com/65535/49548167628_cfc542d609_n.jpg",
    "id_album": "-422187261",
    "description": "KAWAII1702202236230",
    "title": "KAWAII1702202236230",
    "link_img": "https://live.staticflickr.com/65535/49548167628_6a59b842d8_o.jpg",
    "id_image": "KAWAII1702202236230",
    "count_view": 0
  },
  {
    "link_thumb": "https://live.staticflickr.com/65535/49548214718_71dbf76d31_n.jpg",
    "id_album": "-1099943053",
    "description": "KAWAII1702202238437",
    "title": "KAWAII1702202238437",
    "link_img": "https://live.staticflickr.com/65535/49548214718_d4af29ef99_o.jpg",
    "id_image": "KAWAII1702202238437",
    "count_view": 0
  },
  {
    "link_thumb": "https://live.staticflickr.com/65535/49548889667_c6eddf8f20_n.jpg",
    "id_album": "-422187261",
    "description": "KAWAII1702202235197",
    "title": "KAWAII1702202235197",
    "link_img": "https://live.staticflickr.com/65535/49548889667_866252b1f5_o.jpg",
    "id_image": "KAWAII1702202235197",
    "count_view": 0
  },
  {
    "link_thumb": "https://live.staticflickr.com/65535/49548623586_f55e5b16ef_n.jpg",
    "id_album": "-316663319",
    "description": "KAWAII170220223315",
    "title": "KAWAII170220223315",
    "link_img": "https://live.staticflickr.com/65535/49548623586_c374067c56_o.jpg",
    "id_image": "KAWAII170220223315",
    "count_view": 0
  },
  {
    "link_thumb": "https://live.staticflickr.com/65535/49742366293_a9b3d63c14_n.jpg",
    "id_album": "-1497779911",
    "description": "KAWAII06042021491220",
    "title": "KAWAII06042021491220",
    "link_img": "https://live.staticflickr.com/65535/49742366293_472b9104f5_o.jpg",
    "id_image": "KAWAII06042021491220",
    "count_view": 0
  },
  {
    "link_thumb": "https://live.staticflickr.com/65535/49727754687_0ef88fd8c3_n.jpg",
    "id_album": "-316663319",
    "description": "KAWAII02042019451298",
    "title": "KAWAII02042019451298",
    "link_img": "https://live.staticflickr.com/65535/49727754687_d35c90e8e0_o.jpg",
    "id_image": "KAWAII02042019451298",
    "count_view": 0
  },
  {
    "link_thumb": "https://live.staticflickr.com/65535/49694123091_16ef87c5f9_n.jpg",
    "id_album": "-643980979",
    "description": "KAWAII270220235177",
    "title": "KAWAII270220235177",
    "link_img": "https://live.staticflickr.com/65535/49694123091_4b33fbff62_o.jpg",
    "id_image": "KAWAII270220235177",
    "count_view": 0
  },
  {
    "link_thumb": "https://live.staticflickr.com/65535/49694377467_b776f7ced0_n.jpg",
    "id_album": "1201366373",
    "description": "KAWAII0503202021306",
    "title": "KAWAII0503202021306",
    "link_img": "https://live.staticflickr.com/65535/49694377467_5f1941966d_o.jpg",
    "id_image": "KAWAII0503202021306",
    "count_view": 0
  },
  {
    "link_thumb": "https://live.staticflickr.com/65535/49694418432_bbcce21390_n.jpg",
    "id_album": "-643980979",
    "description": "KAWAII170220234615",
    "title": "KAWAII170220234615",
    "link_img": "https://live.staticflickr.com/65535/49694418432_8fa6f8d931_o.jpg",
    "id_image": "KAWAII170220234615",
    "count_view": 0
  },
  {
    "link_thumb": "https://live.staticflickr.com/65535/49693573483_ea8d2f7051_n.jpg",
    "id_album": "-643980979",
    "description": "KAWAII170220234617",
    "title": "KAWAII170220234617",
    "link_img": "https://live.staticflickr.com/65535/49693573483_049617c5d9_o.jpg",
    "id_image": "KAWAII170220234617",
    "count_view": 0
  },
  {
    "link_thumb": "https://live.staticflickr.com/65535/49548611391_66f9798221_n.jpg",
    "id_album": "-1432180061",
    "description": "KAWAII12091848",
    "title": "KAWAII12091848",
    "link_img": "https://live.staticflickr.com/65535/49548611391_173cf43b70_o.jpg",
    "id_image": "KAWAII12091848",
    "count_view": 0
  },
  {
    "link_thumb": "https://live.staticflickr.com/65535/49623110077_21b03950bc_n.jpg",
    "id_album": "-316663319",
    "description": "KAWAII050320202154",
    "title": "KAWAII050320202154",
    "link_img": "https://live.staticflickr.com/65535/49623110077_15d7deab7b_o.jpg",
    "id_image": "KAWAII050320202154",
    "count_view": 0
  },
  {
    "link_thumb": "https://live.staticflickr.com/65535/49623115537_abfe410cf9_n.jpg",
    "id_album": "-406350429",
    "description": "KAWAII0503202021164",
    "title": "KAWAII0503202021164",
    "link_img": "https://live.staticflickr.com/65535/49623115537_6f1a6bb2e6_o.jpg",
    "id_image": "KAWAII0503202021164",
    "count_view": 0
  },
  {
    "link_thumb": "https://live.staticflickr.com/65535/49743248262_2c94a665f8_n.jpg",
    "id_album": "-316663319",
    "description": "KAWAII060420214913211",
    "title": "KAWAII060420214913211",
    "link_img": "https://live.staticflickr.com/65535/49743248262_287f405867_o.jpg",
    "id_image": "KAWAII060420214913211",
    "count_view": 0
  },
  {
    "link_thumb": "https://live.staticflickr.com/65535/49592203478_94e007ee2a_n.jpg",
    "id_album": "1396902986",
    "description": "KAWAII2702202351101",
    "title": "KAWAII2702202351101",
    "link_img": "https://live.staticflickr.com/65535/49592203478_565de20aab_o.jpg",
    "id_image": "KAWAII2702202351101",
    "count_view": 0
  },
  {
    "link_thumb": "https://live.staticflickr.com/65535/49743230212_a927f80940_n.jpg",
    "id_album": "-422187261",
    "description": "KAWAII02042019451474",
    "title": "KAWAII02042019451474",
    "link_img": "https://live.staticflickr.com/65535/49743230212_5680ef703f_o.jpg",
    "id_image": "KAWAII02042019451474",
    "count_view": 0
  },
  {
    "link_thumb": "https://live.staticflickr.com/65535/49548267818_9f48c0dd6c_n.jpg",
    "id_album": "-316663319",
    "description": "KAWAII17091834",
    "title": "KAWAII17091834",
    "link_img": "https://live.staticflickr.com/65535/49548267818_f463718cab_o.jpg",
    "id_image": "KAWAII17091834",
    "count_view": 0
  },
  {
    "link_thumb": "https://live.staticflickr.com/65535/49742915231_bdcaf55483_n.jpg",
    "id_album": "-1497779911",
    "description": "KAWAII06042021491499",
    "title": "KAWAII06042021491499",
    "link_img": "https://live.staticflickr.com/65535/49742915231_530e7591da_o.jpg",
    "id_image": "KAWAII06042021491499",
    "count_view": 0
  },
  {
    "link_thumb": "https://live.staticflickr.com/65535/49727429366_4dc911d79c_n.jpg",
    "id_album": "-1741487325",
    "description": "KAWAII02042019451286",
    "title": "KAWAII02042019451286",
    "link_img": "https://live.staticflickr.com/65535/49727429366_9d132547f7_o.jpg",
    "id_image": "KAWAII02042019451286",
    "count_view": 0
  },
  {
    "link_thumb": "https://live.staticflickr.com/65535/49742408543_f5f39b9b01_n.jpg",
    "id_album": "-1431786825",
    "description": "KAWAII060420214915193",
    "title": "KAWAII060420214915193",
    "link_img": "https://live.staticflickr.com/65535/49742408543_e1cc061ec5_o.jpg",
    "id_image": "KAWAII060420214915193",
    "count_view": 0
  },
  {
    "link_thumb": "https://live.staticflickr.com/65535/49727761752_c968d433f3_n.jpg",
    "id_album": "742877173",
    "description": "KAWAII02042019451113",
    "title": "KAWAII02042019451113",
    "link_img": "https://live.staticflickr.com/65535/49727761752_441f8fa031_o.jpg",
    "id_image": "KAWAII02042019451113",
    "count_view": 0
  },
  {
    "link_thumb": "https://live.staticflickr.com/65535/49592225723_8efd54fe30_n.jpg",
    "id_album": "949200594",
    "description": "KAWAII2702202351100",
    "title": "KAWAII2702202351100",
    "link_img": "https://live.staticflickr.com/65535/49592225723_39372012f5_o.jpg",
    "id_image": "KAWAII2702202351100",
    "count_view": 0
  },
  {
    "link_thumb": "https://live.staticflickr.com/65535/49742356068_9a5b2b97e1_n.jpg",
    "id_album": "-1913845949",
    "description": "KAWAII060420214915285",
    "title": "KAWAII060420214915285",
    "link_img": "https://live.staticflickr.com/65535/49742356068_001339ef2a_o.jpg",
    "id_image": "KAWAII060420214915285",
    "count_view": 0
  },
  {
    "link_thumb": "https://live.staticflickr.com/65535/49622841011_3417453e23_n.jpg",
    "id_album": "-406350429",
    "description": "KAWAII0503202021100",
    "title": "KAWAII0503202021100",
    "link_img": "https://live.staticflickr.com/65535/49622841011_b10733d940_o.jpg",
    "id_image": "KAWAII0503202021100",
    "count_view": 0
  },
  {
    "link_thumb": "https://live.staticflickr.com/65535/49743246987_d06bd0e462_n.jpg",
    "id_album": "-316663319",
    "description": "KAWAII06042021491263",
    "title": "KAWAII06042021491263",
    "link_img": "https://live.staticflickr.com/65535/49743246987_31ab39aa3d_o.jpg",
    "id_image": "KAWAII06042021491263",
    "count_view": 0
  },
  {
    "link_thumb": "https://live.staticflickr.com/65535/49693676418_9c8e1de302_n.jpg",
    "id_album": "-643980979",
    "description": "KAWAII24032022050239",
    "title": "KAWAII24032022050239",
    "link_img": "https://live.staticflickr.com/65535/49693676418_5a3f922bbf_o.jpg",
    "id_image": "KAWAII24032022050239",
    "count_view": 0
  },
  {
    "link_thumb": "https://live.staticflickr.com/65535/49694401032_dc3cc4f2c4_n.jpg",
    "id_album": "1201366373",
    "description": "KAWAII120918280",
    "title": "KAWAII120918280",
    "link_img": "https://live.staticflickr.com/65535/49694401032_1877c96ec1_o.jpg",
    "id_image": "KAWAII120918280",
    "count_view": 0
  },
  {
    "link_thumb": "https://live.staticflickr.com/65535/49742949226_03384e63de_n.jpg",
    "id_album": "1396902986",
    "description": "KAWAII06042021491527",
    "title": "KAWAII06042021491527",
    "link_img": "https://live.staticflickr.com/65535/49742949226_a8176444e2_o.jpg",
    "id_image": "KAWAII06042021491527",
    "count_view": 0
  },
  {
    "link_thumb": "https://live.staticflickr.com/65535/49742944906_9c8b773a84_n.jpg",
    "id_album": "-1779286820",
    "description": "KAWAII060420214917139",
    "title": "KAWAII060420214917139",
    "link_img": "https://live.staticflickr.com/65535/49742944906_b56b6e9b71_o.jpg",
    "id_image": "KAWAII060420214917139",
    "count_view": 0
  },
  {
    "link_thumb": "https://live.staticflickr.com/65535/49743251342_f5abde3d17_n.jpg",
    "id_album": "-316663319",
    "description": "KAWAII060420214915168",
    "title": "KAWAII060420214915168",
    "link_img": "https://live.staticflickr.com/65535/49743251342_3c5a096da3_o.jpg",
    "id_image": "KAWAII060420214915168",
    "count_view": 0
  },
  {
    "link_thumb": "https://live.staticflickr.com/65535/49694123611_c7622fded6_n.jpg",
    "id_album": "-358592519",
    "description": "KAWAII120918106",
    "title": "KAWAII120918106",
    "link_img": "https://live.staticflickr.com/65535/49694123611_c2ff434e14_o.jpg",
    "id_image": "KAWAII120918106",
    "count_view": 0
  },
  {
    "link_thumb": "https://live.staticflickr.com/65535/49743230917_4a213ccc73_n.jpg",
    "id_album": "-422187261",
    "description": "KAWAII06042021491288",
    "title": "KAWAII06042021491288",
    "link_img": "https://live.staticflickr.com/65535/49743230917_6c13b44d19_o.jpg",
    "id_image": "KAWAII06042021491288",
    "count_view": 0
  },
  {
    "link_thumb": "https://live.staticflickr.com/65535/49694524487_a6a8840a83_n.jpg",
    "id_album": "-1432180061",
    "description": "KAWAII1702202235151",
    "title": "KAWAII1702202235151",
    "link_img": "https://live.staticflickr.com/65535/49694524487_e08cef51e0_o.jpg",
    "id_image": "KAWAII1702202235151",
    "count_view": 0
  },
  {
    "link_thumb": "https://live.staticflickr.com/65535/49710822201_b37f20b967_n.jpg",
    "id_album": "-1599896063",
    "description": "LITTLEMONK29032012063825",
    "title": "LITTLEMONK29032012063825",
    "link_img": "https://live.staticflickr.com/65535/49710822201_52701a78b2_o.jpg",
    "id_image": "LITTLEMONK29032012063825",
    "count_view": 0
  },
  {
    "link_thumb": "https://live.staticflickr.com/65535/49623076102_0d129df886_n.jpg",
    "id_album": "1396902986",
    "description": "KAWAII0503202021289",
    "title": "KAWAII0503202021289",
    "link_img": "https://live.staticflickr.com/65535/49623076102_1e9527d4c5_o.jpg",
    "id_image": "KAWAII0503202021289",
    "count_view": 0
  },
  {
    "link_thumb": "https://live.staticflickr.com/65535/49548864942_39e13f80e8_n.jpg",
    "id_album": "-1099943053",
    "description": "KAWAII170220223457",
    "title": "KAWAII170220223457",
    "link_img": "https://live.staticflickr.com/65535/49548864942_4a4a17a743_o.jpg",
    "id_image": "KAWAII170220223457",
    "count_view": 0
  },
  {
    "link_thumb": "https://live.staticflickr.com/65535/49592228503_248d1795ef_n.jpg",
    "id_album": "949200594",
    "description": "KAWAII2702202351155",
    "title": "KAWAII2702202351155",
    "link_img": "https://live.staticflickr.com/65535/49592228503_73a5fbfed9_o.jpg",
    "id_image": "KAWAII2702202351155",
    "count_view": 0
  },
  {
    "link_thumb": "https://live.staticflickr.com/65535/49623096177_6bc24dae6a_n.jpg",
    "id_album": "-316663319",
    "description": "KAWAII0503202021215",
    "title": "KAWAII0503202021215",
    "link_img": "https://live.staticflickr.com/65535/49623096177_b449b4e1d1_o.jpg",
    "id_image": "KAWAII0503202021215",
    "count_view": 0
  },
  {
    "link_thumb": "https://live.staticflickr.com/65535/49742912506_ef3b279ef4_n.jpg",
    "id_album": "-1741487325",
    "description": "KAWAII06042021491566",
    "title": "KAWAII06042021491566",
    "link_img": "https://live.staticflickr.com/65535/49742912506_9d8f3b2559_o.jpg",
    "id_image": "KAWAII06042021491566",
    "count_view": 0
  },
  {
    "link_thumb": "https://live.staticflickr.com/65535/49743234292_8fa71a5011_n.jpg",
    "id_album": "-1694302085",
    "description": "KAWAII060420214918272",
    "title": "KAWAII060420214918272",
    "link_img": "https://live.staticflickr.com/65535/49743234292_684fa57def_o.jpg",
    "id_image": "KAWAII060420214918272",
    "count_view": 0
  },
  {
    "link_thumb": "https://live.staticflickr.com/65535/49727439481_0603d62def_n.jpg",
    "id_album": "-316663319",
    "description": "KAWAII020420194512102",
    "title": "KAWAII020420194512102",
    "link_img": "https://live.staticflickr.com/65535/49727439481_37df49748e_o.jpg",
    "id_image": "KAWAII020420194512102",
    "count_view": 0
  },
  {
    "link_thumb": "https://live.staticflickr.com/65535/49694388692_8c05230376_n.jpg",
    "id_album": "-643980979",
    "description": "KAWAII120918164",
    "title": "KAWAII120918164",
    "link_img": "https://live.staticflickr.com/65535/49694388692_4df2e7dd01_o.jpg",
    "id_image": "KAWAII120918164",
    "count_view": 0
  },
  {
    "link_thumb": "https://live.staticflickr.com/65535/49578248238_c02e450583_n.jpg",
    "id_album": "-1099943053",
    "description": "KAWAII19022021116",
    "title": "KAWAII19022021116",
    "link_img": "https://live.staticflickr.com/65535/49578248238_266350c32d_o.jpg",
    "id_image": "KAWAII19022021116",
    "count_view": 0
  },
  {
    "link_thumb": "https://live.staticflickr.com/65535/49742930331_3e02841412_n.jpg",
    "id_album": "-316663319",
    "description": "KAWAII06042021491587",
    "title": "KAWAII06042021491587",
    "link_img": "https://live.staticflickr.com/65535/49742930331_ede8dc5592_o.jpg",
    "id_image": "KAWAII06042021491587",
    "count_view": 0
  },
  {
    "link_thumb": "https://live.staticflickr.com/65535/49694227126_690962cd91_n.jpg",
    "id_album": "1226948986",
    "description": "KAWAII24032022050216",
    "title": "KAWAII24032022050216",
    "link_img": "https://live.staticflickr.com/65535/49694227126_383d7ae9b4_o.jpg",
    "id_image": "KAWAII24032022050216",
    "count_view": 0
  },
  {
    "link_thumb": "https://live.staticflickr.com/65535/49726895823_7197f25723_n.jpg",
    "id_album": "742877173",
    "description": "KAWAII02042019450860",
    "title": "KAWAII02042019450860",
    "link_img": "https://live.staticflickr.com/65535/49726895823_b23a068759_o.jpg",
    "id_image": "KAWAII02042019450860",
    "count_view": 0
  },
  {
    "link_thumb": "https://live.staticflickr.com/65535/49623091427_8ecb0dc677_n.jpg",
    "id_album": "-316663319",
    "description": "KAWAII0503202021173",
    "title": "KAWAII0503202021173",
    "link_img": "https://live.staticflickr.com/65535/49623091427_08332a44e9_o.jpg",
    "id_image": "KAWAII0503202021173",
    "count_view": 0
  },
  {
    "link_thumb": "https://live.staticflickr.com/65535/49727433241_36125f0001_n.jpg",
    "id_album": "-1497779911",
    "description": "KAWAII120918214",
    "title": "KAWAII120918214",
    "link_img": "https://live.staticflickr.com/65535/49727433241_3d532940ac_o.jpg",
    "id_image": "KAWAII120918214",
    "count_view": 0
  },
  {
    "link_thumb": "https://live.staticflickr.com/65535/49694229501_481ee8738a_n.jpg",
    "id_album": "1226948986",
    "description": "KAWAII2403202205026",
    "title": "KAWAII2403202205026",
    "link_img": "https://live.staticflickr.com/65535/49694229501_6240dacd6f_o.jpg",
    "id_image": "KAWAII2403202205026",
    "count_view": 0
  },
  {
    "link_thumb": "https://live.staticflickr.com/65535/49548833642_65f447d4b0_n.jpg",
    "id_album": "-1741487325",
    "description": "KAWAII120918364",
    "title": "KAWAII120918364",
    "link_img": "https://live.staticflickr.com/65535/49548833642_13ab6186c0_o.jpg",
    "id_image": "KAWAII120918364",
    "count_view": 0
  },
  {
    "link_thumb": "https://live.staticflickr.com/65535/49726924473_3f8ea1d665_n.jpg",
    "id_album": "-1862561193",
    "description": "KAWAII020420194513106",
    "title": "KAWAII020420194513106",
    "link_img": "https://live.staticflickr.com/65535/49726924473_6c8e71e23c_o.jpg",
    "id_image": "KAWAII020420194513106",
    "count_view": 0
  },
  {
    "link_thumb": "https://live.staticflickr.com/65535/49622848066_e50e00a1a6_n.jpg",
    "id_album": "-406350429",
    "description": "KAWAII0503202021308",
    "title": "KAWAII0503202021308",
    "link_img": "https://live.staticflickr.com/65535/49622848066_1a10d01fed_o.jpg",
    "id_image": "KAWAII0503202021308",
    "count_view": 0
  },
  {
    "link_thumb": "https://live.staticflickr.com/65535/49742354563_11e3dbd821_n.jpg",
    "id_album": "-1913845949",
    "description": "KAWAII060420214914316",
    "title": "KAWAII060420214914316",
    "link_img": "https://live.staticflickr.com/65535/49742354563_6ec665346f_o.jpg",
    "id_image": "KAWAII060420214914316",
    "count_view": 0
  },
  {
    "link_thumb": "https://live.staticflickr.com/65535/49743269112_a8e02d0f29_n.jpg",
    "id_album": "-1779286820",
    "description": "KAWAII060420214918209",
    "title": "KAWAII060420214918209",
    "link_img": "https://live.staticflickr.com/65535/49743269112_803209a4a3_o.jpg",
    "id_image": "KAWAII060420214918209",
    "count_view": 0
  },
  {
    "link_thumb": "https://live.staticflickr.com/65535/49622816161_98892bc61c_n.jpg",
    "id_album": "-316663319",
    "description": "KAWAII0503202021127",
    "title": "KAWAII0503202021127",
    "link_img": "https://live.staticflickr.com/65535/49622816161_fb4f1c7349_o.jpg",
    "id_image": "KAWAII0503202021127",
    "count_view": 0
  },
  {
    "link_thumb": "https://live.staticflickr.com/65535/49592974122_fe1850c06e_n.jpg",
    "id_album": "949200594",
    "description": "KAWAII270220235127",
    "title": "KAWAII270220235127",
    "link_img": "https://live.staticflickr.com/65535/49592974122_3bc8277da6_o.jpg",
    "id_image": "KAWAII270220235127",
    "count_view": 0
  },
  {
    "link_thumb": "https://live.staticflickr.com/65535/49727741482_f48f2b390b_n.jpg",
    "id_album": "-1694302085",
    "description": "KAWAII1702202239559",
    "title": "KAWAII1702202239559",
    "link_img": "https://live.staticflickr.com/65535/49727741482_eed1cb3888_o.jpg",
    "id_image": "KAWAII1702202239559",
    "count_view": 0
  },
  {
    "link_thumb": "https://live.staticflickr.com/65535/49727446571_6d5ef95546_n.jpg",
    "id_album": "742877173",
    "description": "KAWAII020420194510178",
    "title": "KAWAII020420194510178",
    "link_img": "https://live.staticflickr.com/65535/49727446571_1345738e04_o.jpg",
    "id_image": "KAWAII020420194510178",
    "count_view": 0
  },
  {
    "link_thumb": "https://live.staticflickr.com/65535/49742382953_fa0a2f1713_n.jpg",
    "id_album": "-316663319",
    "description": "KAWAII060420214916317",
    "title": "KAWAII060420214916317",
    "link_img": "https://live.staticflickr.com/65535/49742382953_630613867e_o.jpg",
    "id_image": "KAWAII060420214916317",
    "count_view": 0
  },
  {
    "link_thumb": "https://live.staticflickr.com/65535/49548842097_f9d9253afd_n.jpg",
    "id_album": "-422187261",
    "description": "KAWAII12091862",
    "title": "KAWAII12091862",
    "link_img": "https://live.staticflickr.com/65535/49548842097_3395c1e152_o.jpg",
    "id_image": "KAWAII12091862",
    "count_view": 0
  },
  {
    "link_thumb": "https://live.staticflickr.com/65535/49623102087_30ed7c81be_n.jpg",
    "id_album": "-316663319",
    "description": "KAWAII0503202021292",
    "title": "KAWAII0503202021292",
    "link_img": "https://live.staticflickr.com/65535/49623102087_4a2bedde34_o.jpg",
    "id_image": "KAWAII0503202021292",
    "count_view": 0
  },
  {
    "link_thumb": "https://live.staticflickr.com/65535/49548978222_83df9d4960_n.jpg",
    "id_album": "-1694302085",
    "description": "KAWAII1702202239575",
    "title": "KAWAII1702202239575",
    "link_img": "https://live.staticflickr.com/65535/49548978222_34d8bacd1b_o.jpg",
    "id_image": "KAWAII1702202239575",
    "count_view": 0
  },
  {
    "link_thumb": "https://live.staticflickr.com/65535/49743260607_18448666e8_n.jpg",
    "id_album": "-1473448477",
    "description": "KAWAII060420214915228",
    "title": "KAWAII060420214915228",
    "link_img": "https://live.staticflickr.com/65535/49743260607_b7e23e9d31_o.jpg",
    "id_image": "KAWAII060420214915228",
    "count_view": 0
  },
  {
    "link_thumb": "https://live.staticflickr.com/65535/49726879358_9ce8e60cbd_n.jpg",
    "id_album": "-1694302085",
    "description": "KAWAII1702202235203",
    "title": "KAWAII1702202235203",
    "link_img": "https://live.staticflickr.com/65535/49726879358_ba7a714bb3_o.jpg",
    "id_image": "KAWAII1702202235203",
    "count_view": 0
  },
  {
    "link_thumb": "https://live.staticflickr.com/65535/49548605916_6f8df17346_n.jpg",
    "id_album": "-1741487325",
    "description": "KAWAII120918363",
    "title": "KAWAII120918363",
    "link_img": "https://live.staticflickr.com/65535/49548605916_e273fba4db_o.jpg",
    "id_image": "KAWAII120918363",
    "count_view": 0
  },
  {
    "link_thumb": "https://live.staticflickr.com/65535/49694115256_2cb04d6c80_n.jpg",
    "id_album": "-643980979",
    "description": "KAWAII170220234611",
    "title": "KAWAII170220234611",
    "link_img": "https://live.staticflickr.com/65535/49694115256_299f262f28_o.jpg",
    "id_image": "KAWAII170220234611",
    "count_view": 0
  },
  {
    "link_thumb": "https://live.staticflickr.com/65535/49548143743_af8988865b_n.jpg",
    "id_album": "-422187261",
    "description": "KAWAII170220223491",
    "title": "KAWAII170220223491",
    "link_img": "https://live.staticflickr.com/65535/49548143743_ac48aee77e_o.jpg",
    "id_image": "KAWAII170220223491",
    "count_view": 0
  },
  {
    "link_thumb": "https://live.staticflickr.com/65535/49548928647_fc902612c2_n.jpg",
    "id_album": "-1694302085",
    "description": "KAWAII1702202237384",
    "title": "KAWAII1702202237384",
    "link_img": "https://live.staticflickr.com/65535/49548928647_8d57ffa024_o.jpg",
    "id_image": "KAWAII1702202237384",
    "count_view": 0
  },
  {
    "link_thumb": "https://live.staticflickr.com/65535/49693572108_be7a498fa7_n.jpg",
    "id_album": "-643980979",
    "description": "KAWAII17022023461",
    "title": "KAWAII17022023461",
    "link_img": "https://live.staticflickr.com/65535/49693572108_88ff012330_o.jpg",
    "id_image": "KAWAII17022023461",
    "count_view": 0
  },
  {
    "link_thumb": "https://live.staticflickr.com/65535/49693525448_a81c777647_n.jpg",
    "id_album": "416744915",
    "description": "KAWAII1702202238408",
    "title": "KAWAII1702202238408",
    "link_img": "https://live.staticflickr.com/65535/49693525448_3ba600859d_o.jpg",
    "id_image": "KAWAII1702202238408",
    "count_view": 0
  },
  {
    "link_thumb": "https://live.staticflickr.com/65535/49548172973_972b1737b0_n.jpg",
    "id_album": "-1432180061",
    "description": "KAWAII1702202236258",
    "title": "KAWAII1702202236258",
    "link_img": "https://live.staticflickr.com/65535/49548172973_c022eb6b6d_o.jpg",
    "id_image": "KAWAII1702202236258",
    "count_view": 0
  },
  {
    "link_thumb": "https://live.staticflickr.com/65535/49694128121_0a3c66066a_n.jpg",
    "id_album": "1226948986",
    "description": "KAWAII1209183",
    "title": "KAWAII1209183",
    "link_img": "https://live.staticflickr.com/65535/49694128121_8ec7588b7f_o.jpg",
    "id_image": "KAWAII1209183",
    "count_view": 0
  },
  {
    "link_thumb": "https://live.staticflickr.com/65535/49694127511_dfcb8f8d26_n.jpg",
    "id_album": "-755466332",
    "description": "KAWAII120918329",
    "title": "KAWAII120918329",
    "link_img": "https://live.staticflickr.com/65535/49694127511_fd11edfdf7_o.jpg",
    "id_image": "KAWAII120918329",
    "count_view": 0
  },
  {
    "link_thumb": "https://live.staticflickr.com/65535/49693548158_722aeebe32_n.jpg",
    "id_album": "1201366373",
    "description": "KAWAII120918215",
    "title": "KAWAII120918215",
    "link_img": "https://live.staticflickr.com/65535/49693548158_be2525a8f3_o.jpg",
    "id_image": "KAWAII120918215",
    "count_view": 0
  },
  {
    "link_thumb": "https://live.staticflickr.com/65535/49727742027_652122fdb0_n.jpg",
    "id_album": "-1694302085",
    "description": "KAWAII190220211125",
    "title": "KAWAII190220211125",
    "link_img": "https://live.staticflickr.com/65535/49727742027_caa66c7ef6_o.jpg",
    "id_image": "KAWAII190220211125",
    "count_view": 0
  },
  {
    "link_thumb": "https://live.staticflickr.com/65535/49548735951_b794b658f5_n.jpg",
    "id_album": "-1099943053",
    "description": "KAWAII1702202239513",
    "title": "KAWAII1702202239513",
    "link_img": "https://live.staticflickr.com/65535/49548735951_f7a5f3408a_o.jpg",
    "id_image": "KAWAII1702202239513",
    "count_view": 0
  },
  {
    "link_thumb": "https://live.staticflickr.com/65535/49693675488_78222493e3_n.jpg",
    "id_album": "-643980979",
    "description": "KAWAII24032022050220",
    "title": "KAWAII24032022050220",
    "link_img": "https://live.staticflickr.com/65535/49693675488_c85f07a308_o.jpg",
    "id_image": "KAWAII24032022050220",
    "count_view": 0
  },
  {
    "link_thumb": "https://live.staticflickr.com/65535/49727785262_9a8665653b_n.jpg",
    "id_album": "-1862561193",
    "description": "KAWAII02042019451214",
    "title": "KAWAII02042019451214",
    "link_img": "https://live.staticflickr.com/65535/49727785262_cc3eae3fff_o.jpg",
    "id_image": "KAWAII02042019451214",
    "count_view": 0
  },
  {
    "link_thumb": "https://live.staticflickr.com/65535/49694425177_218d63f6ae_n.jpg",
    "id_album": "1201366373",
    "description": "KAWAII270220235159",
    "title": "KAWAII270220235159",
    "link_img": "https://live.staticflickr.com/65535/49694425177_c284129e6e_o.jpg",
    "id_image": "KAWAII270220235159",
    "count_view": 0
  },
  {
    "link_thumb": "https://live.staticflickr.com/65535/49548666081_af29dc7e0d_n.jpg",
    "id_album": "-316663319",
    "description": "KAWAII1702202235217",
    "title": "KAWAII1702202235217",
    "link_img": "https://live.staticflickr.com/65535/49548666081_f380b51d80_o.jpg",
    "id_image": "KAWAII1702202235217",
    "count_view": 0
  },
  {
    "link_thumb": "https://live.staticflickr.com/65535/49956925207_e3e14a24a6_n.jpg",
    "id_album": "-358592519",
    "description": "KAWAII060420214911229",
    "title": "KAWAII060420214911229",
    "link_img": "https://live.staticflickr.com/65535/49956925207_72f10c8219_o.jpg",
    "id_image": "KAWAII060420214911229",
    "count_view": 0
  },
  {
    "link_thumb": "https://live.staticflickr.com/65535/49548595901_594b32ba8b_n.jpg",
    "id_album": "-316663319",
    "description": "KAWAII120918322",
    "title": "KAWAII120918322",
    "link_img": "https://live.staticflickr.com/65535/49548595901_a73b49f32b_o.jpg",
    "id_image": "KAWAII120918322",
    "count_view": 0
  },
  {
    "link_thumb": "https://live.staticflickr.com/65535/49694078471_063ecc0884_n.jpg",
    "id_album": "-643980979",
    "description": "KAWAII050320202177",
    "title": "KAWAII050320202177",
    "link_img": "https://live.staticflickr.com/65535/49694078471_c5ebb44ffc_o.jpg",
    "id_image": "KAWAII050320202177",
    "count_view": 0
  },
  {
    "link_thumb": "https://live.staticflickr.com/65535/49548248893_bfa698f500_n.jpg",
    "id_album": "-316663319",
    "description": "KAWAII1702202239566",
    "title": "KAWAII1702202239566",
    "link_img": "https://live.staticflickr.com/65535/49548248893_27df966554_o.jpg",
    "id_image": "KAWAII1702202239566",
    "count_view": 0
  },
  {
    "link_thumb": "https://live.staticflickr.com/65535/49548692246_e33c44dc92_n.jpg",
    "id_album": "-1431786825",
    "description": "KAWAII1702202237347",
    "title": "KAWAII1702202237347",
    "link_img": "https://live.staticflickr.com/65535/49548692246_38e5e82e1a_o.jpg",
    "id_image": "KAWAII1702202237347",
    "count_view": 0
  },
  {
    "link_thumb": "https://live.staticflickr.com/65535/49694070736_42d8ae7b56_n.jpg",
    "id_album": "-643980979",
    "description": "KAWAII0503202021144",
    "title": "KAWAII0503202021144",
    "link_img": "https://live.staticflickr.com/65535/49694070736_3b7f15c311_o.jpg",
    "id_image": "KAWAII0503202021144",
    "count_view": 0
  },
  {
    "link_thumb": "https://live.staticflickr.com/65535/49694411672_12889a3713_n.jpg",
    "id_album": "1201366373",
    "description": "KAWAII1702202235205",
    "title": "KAWAII1702202235205",
    "link_img": "https://live.staticflickr.com/65535/49694411672_18fc847755_o.jpg",
    "id_image": "KAWAII1702202235205",
    "count_view": 0
  },
  {
    "link_thumb": "https://live.staticflickr.com/65535/49592708451_8824c137ec_n.jpg",
    "id_album": "1396902986",
    "description": "KAWAII270220235141",
    "title": "KAWAII270220235141",
    "link_img": "https://live.staticflickr.com/65535/49592708451_7b6f016983_o.jpg",
    "id_image": "KAWAII270220235141",
    "count_view": 0
  },
  {
    "link_thumb": "https://live.staticflickr.com/65535/49727427451_dcd1c43c47_n.jpg",
    "id_album": "-1694302085",
    "description": "KAWAII190220211113",
    "title": "KAWAII190220211113",
    "link_img": "https://live.staticflickr.com/65535/49727427451_0328f26d66_o.jpg",
    "id_image": "KAWAII190220211113",
    "count_view": 0
  },
  {
    "link_thumb": "https://live.staticflickr.com/65535/49622810156_3e0355d4a0_n.jpg",
    "id_album": "-316663319",
    "description": "KAWAII0503202021112",
    "title": "KAWAII0503202021112",
    "link_img": "https://live.staticflickr.com/65535/49622810156_1023b7c407_o.jpg",
    "id_image": "KAWAII0503202021112",
    "count_view": 0
  },
  {
    "link_thumb": "https://live.staticflickr.com/65535/49694424167_9ca4b99ed0_n.jpg",
    "id_album": "-643980979",
    "description": "KAWAII2702202351163",
    "title": "KAWAII2702202351163",
    "link_img": "https://live.staticflickr.com/65535/49694424167_56c10c06d2_o.jpg",
    "id_image": "KAWAII2702202351163",
    "count_view": 0
  },
  {
    "link_thumb": "https://live.staticflickr.com/65535/49742357058_65158e4828_n.jpg",
    "id_album": "-1913845949",
    "description": "KAWAII060420214917173",
    "title": "KAWAII060420214917173",
    "link_img": "https://live.staticflickr.com/65535/49742357058_bb58205a46_o.jpg",
    "id_image": "KAWAII060420214917173",
    "count_view": 0
  },
  {
    "link_thumb": "https://live.staticflickr.com/65535/49622836806_915fa269a6_n.jpg",
    "id_album": "-316663319",
    "description": "KAWAII050320202140",
    "title": "KAWAII050320202140",
    "link_img": "https://live.staticflickr.com/65535/49622836806_a70cf95061_o.jpg",
    "id_image": "KAWAII050320202140",
    "count_view": 0
  },
  {
    "link_thumb": "https://live.staticflickr.com/65535/49592721721_e06e36db65_n.jpg",
    "id_album": "-316663319",
    "description": "KAWAII270220235191",
    "title": "KAWAII270220235191",
    "link_img": "https://live.staticflickr.com/65535/49592721721_5b0f60168c_o.jpg",
    "id_image": "KAWAII270220235191",
    "count_view": 0
  },
  {
    "link_thumb": "https://live.staticflickr.com/65535/49742954641_b73e14ecc3_n.jpg",
    "id_album": "-1431786825",
    "description": "KAWAII060420214912321",
    "title": "KAWAII060420214912321",
    "link_img": "https://live.staticflickr.com/65535/49742954641_468d595548_o.jpg",
    "id_image": "KAWAII060420214912321",
    "count_view": 0
  },
  {
    "link_thumb": "https://live.staticflickr.com/65535/49727467276_137a88c6e2_n.jpg",
    "id_album": "-1862561193",
    "description": "KAWAII02042019450946",
    "title": "KAWAII02042019450946",
    "link_img": "https://live.staticflickr.com/65535/49727467276_743828d5f8_o.jpg",
    "id_image": "KAWAII02042019450946",
    "count_view": 0
  },
  {
    "link_thumb": "https://live.staticflickr.com/65535/49742372378_b321335988_n.jpg",
    "id_album": "-316663319",
    "description": "KAWAII060420214911200",
    "title": "KAWAII060420214911200",
    "link_img": "https://live.staticflickr.com/65535/49742372378_b68612c725_o.jpg",
    "id_image": "KAWAII060420214911200",
    "count_view": 0
  },
  {
    "link_thumb": "https://live.staticflickr.com/65535/49548663011_6cb79bc795_n.jpg",
    "id_album": "-1099943053",
    "description": "KAWAII1702202235201",
    "title": "KAWAII1702202235201",
    "link_img": "https://live.staticflickr.com/65535/49548663011_2b685b0a5d_o.jpg",
    "id_image": "KAWAII1702202235201",
    "count_view": 0
  },
  {
    "link_thumb": "https://live.staticflickr.com/65535/49694400712_56391747d5_n.jpg",
    "id_album": "1201366373",
    "description": "KAWAII120918277",
    "title": "KAWAII120918277",
    "link_img": "https://live.staticflickr.com/65535/49694400712_8c7d1ee6bb_o.jpg",
    "id_image": "KAWAII120918277",
    "count_view": 0
  },
  {
    "link_thumb": "https://live.staticflickr.com/65535/49693568038_916ee82a8f_n.jpg",
    "id_album": "1201366373",
    "description": "KAWAII1702202237342",
    "title": "KAWAII1702202237342",
    "link_img": "https://live.staticflickr.com/65535/49693568038_c81c3ed181_o.jpg",
    "id_image": "KAWAII1702202237342",
    "count_view": 0
  },
  {
    "link_thumb": "https://live.staticflickr.com/65535/49548112553_abe2621fa0_n.jpg",
    "id_album": "-422187261",
    "description": "KAWAII12091863",
    "title": "KAWAII12091863",
    "link_img": "https://live.staticflickr.com/65535/49548112553_4c15e165d9_o.jpg",
    "id_image": "KAWAII12091863",
    "count_view": 0
  },
  {
    "link_thumb": "https://live.staticflickr.com/65535/49623080192_04e063ffdc_n.jpg",
    "id_album": "-1741487325",
    "description": "KAWAII050320202138",
    "title": "KAWAII050320202138",
    "link_img": "https://live.staticflickr.com/65535/49623080192_817c0191bb_o.jpg",
    "id_image": "KAWAII050320202138",
    "count_view": 0
  },
  {
    "link_thumb": "https://live.staticflickr.com/65535/49743256457_b3730c7fbf_n.jpg",
    "id_album": "-316663319",
    "description": "KAWAII06042021491793",
    "title": "KAWAII06042021491793",
    "link_img": "https://live.staticflickr.com/65535/49743256457_c81101e369_o.jpg",
    "id_image": "KAWAII06042021491793",
    "count_view": 0
  },
  {
    "link_thumb": "https://live.staticflickr.com/65535/49694378217_3a7c46a586_n.jpg",
    "id_album": "1201366373",
    "description": "KAWAII050320202134",
    "title": "KAWAII050320202134",
    "link_img": "https://live.staticflickr.com/65535/49694378217_31cb48028a_o.jpg",
    "id_image": "KAWAII050320202134",
    "count_view": 0
  },
  {
    "link_thumb": "https://live.staticflickr.com/65535/49710820586_fe595c2acd_n.jpg",
    "id_album": "-1599896063",
    "description": "LITTLEMONK29032012063316",
    "title": "LITTLEMONK29032012063316",
    "link_img": "https://live.staticflickr.com/65535/49710820586_acbdb7b8ff_o.jpg",
    "id_image": "LITTLEMONK29032012063316",
    "count_view": 0
  },
  {
    "link_thumb": "https://live.staticflickr.com/65535/49694229856_553885b8dc_n.jpg",
    "id_album": "1226948986",
    "description": "KAWAII2403202205028",
    "title": "KAWAII2403202205028",
    "link_img": "https://live.staticflickr.com/65535/49694229856_991631dd0e_o.jpg",
    "id_image": "KAWAII2403202205028",
    "count_view": 0
  },
  {
    "link_thumb": "https://live.staticflickr.com/65535/49727433661_9a7b17c68b_n.jpg",
    "id_album": "-1497779911",
    "description": "KAWAII120918274",
    "title": "KAWAII120918274",
    "link_img": "https://live.staticflickr.com/65535/49727433661_6a4aa19005_o.jpg",
    "id_image": "KAWAII120918274",
    "count_view": 0
  },
  {
    "link_thumb": "https://live.staticflickr.com/65535/49592954677_18103c624d_n.jpg",
    "id_album": "-1741487325",
    "description": "KAWAII270220235170",
    "title": "KAWAII270220235170",
    "link_img": "https://live.staticflickr.com/65535/49592954677_c4b8f4783a_o.jpg",
    "id_image": "KAWAII270220235170",
    "count_view": 0
  },
  {
    "link_thumb": "https://live.staticflickr.com/65535/49727759157_d16557d744_n.jpg",
    "id_album": "742877173",
    "description": "KAWAII02042019450942",
    "title": "KAWAII02042019450942",
    "link_img": "https://live.staticflickr.com/65535/49727759157_411c19c88e_o.jpg",
    "id_image": "KAWAII02042019450942",
    "count_view": 0
  },
  {
    "link_thumb": "https://live.staticflickr.com/65535/49726893053_4d660b063a_n.jpg",
    "id_album": "-316663319",
    "description": "KAWAII020420194513251",
    "title": "KAWAII020420194513251",
    "link_img": "https://live.staticflickr.com/65535/49726893053_085b300972_o.jpg",
    "id_image": "KAWAII020420194513251",
    "count_view": 0
  },
  {
    "link_thumb": "https://live.staticflickr.com/65535/49742382473_e32c75fba0_n.jpg",
    "id_album": "-316663319",
    "description": "KAWAII06042021491584",
    "title": "KAWAII06042021491584",
    "link_img": "https://live.staticflickr.com/65535/49742382473_ecb505c7ca_o.jpg",
    "id_image": "KAWAII06042021491584",
    "count_view": 0
  },
  {
    "link_thumb": "https://live.staticflickr.com/65535/49726896558_0919cc8216_n.jpg",
    "id_album": "742877173",
    "description": "KAWAII020420194509258",
    "title": "KAWAII020420194509258",
    "link_img": "https://live.staticflickr.com/65535/49726896558_3ed84326ed_o.jpg",
    "id_image": "KAWAII020420194509258",
    "count_view": 0
  },
  {
    "link_thumb": "https://live.staticflickr.com/65535/49743278937_e15cdd904a_n.jpg",
    "id_album": "-1431786825",
    "description": "KAWAII060420214915128",
    "title": "KAWAII060420214915128",
    "link_img": "https://live.staticflickr.com/65535/49743278937_cd2b78f010_o.jpg",
    "id_image": "KAWAII060420214915128",
    "count_view": 0
  },
  {
    "link_thumb": "https://live.staticflickr.com/65535/49694395392_08a2bd609a_n.jpg",
    "id_album": "1201366373",
    "description": "KAWAII120918227",
    "title": "KAWAII120918227",
    "link_img": "https://live.staticflickr.com/65535/49694395392_53d4fb2179_o.jpg",
    "id_image": "KAWAII120918227",
    "count_view": 0
  },
  {
    "link_thumb": "https://live.staticflickr.com/65535/49548072663_0f5436a035_n.jpg",
    "id_album": "-422187261",
    "description": "KAWAII120918229",
    "title": "KAWAII120918229",
    "link_img": "https://live.staticflickr.com/65535/49548072663_2180029947_o.jpg",
    "id_image": "KAWAII120918229",
    "count_view": 0
  },
  {
    "link_thumb": "https://live.staticflickr.com/65535/49548618671_9f25ded9ee_n.jpg",
    "id_album": "-422187261",
    "description": "KAWAII12091884",
    "title": "KAWAII12091884",
    "link_img": "https://live.staticflickr.com/65535/49548618671_76e79df1ca_o.jpg",
    "id_image": "KAWAII12091884",
    "count_view": 0
  },
  {
    "link_thumb": "https://live.staticflickr.com/65535/49622335793_0fb0835dcb_n.jpg",
    "id_album": "-406350429",
    "description": "KAWAII050320202195",
    "title": "KAWAII050320202195",
    "link_img": "https://live.staticflickr.com/65535/49622335793_fb5deaba65_o.jpg",
    "id_image": "KAWAII050320202195",
    "count_view": 0
  },
  {
    "link_thumb": "https://live.staticflickr.com/65535/49548085328_c6c49deae3_n.jpg",
    "id_album": "-1741487325",
    "description": "KAWAII120918289",
    "title": "KAWAII120918289",
    "link_img": "https://live.staticflickr.com/65535/49548085328_40a3127bbb_o.jpg",
    "id_image": "KAWAII120918289",
    "count_view": 0
  },
  {
    "link_thumb": "https://live.staticflickr.com/65535/49548866597_0cfb98f563_n.jpg",
    "id_album": "-316663319",
    "description": "KAWAII170220223464",
    "title": "KAWAII170220223464",
    "link_img": "https://live.staticflickr.com/65535/49548866597_a1088b00c9_o.jpg",
    "id_image": "KAWAII170220223464",
    "count_view": 0
  },
  {
    "link_thumb": "https://live.staticflickr.com/65535/49743263517_83166ec652_n.jpg",
    "id_album": "-1473448477",
    "description": "KAWAII06042021491574",
    "title": "KAWAII06042021491574",
    "link_img": "https://live.staticflickr.com/65535/49743263517_0ddfb92706_o.jpg",
    "id_image": "KAWAII06042021491574",
    "count_view": 0
  },
  {
    "link_thumb": "https://live.staticflickr.com/65535/49623096527_6a91efda4c_n.jpg",
    "id_album": "-316663319",
    "description": "KAWAII0503202021220",
    "title": "KAWAII0503202021220",
    "link_img": "https://live.staticflickr.com/65535/49623096527_6dbf6469bf_o.jpg",
    "id_image": "KAWAII0503202021220",
    "count_view": 0
  },
  {
    "link_thumb": "https://live.staticflickr.com/65535/49693543998_927fbaaa33_n.jpg",
    "id_album": "1201366373",
    "description": "KAWAII120918176",
    "title": "KAWAII120918176",
    "link_img": "https://live.staticflickr.com/65535/49693543998_2c40c6a080_o.jpg",
    "id_image": "KAWAII120918176",
    "count_view": 0
  },
  {
    "link_thumb": "https://live.staticflickr.com/65535/49548781682_9a1b7ee2c7_n.jpg",
    "id_album": "-316663319",
    "description": "KAWAII120918140",
    "title": "KAWAII120918140",
    "link_img": "https://live.staticflickr.com/65535/49548781682_1a37108021_o.jpg",
    "id_image": "KAWAII120918140",
    "count_view": 0
  },
  {
    "link_thumb": "https://live.staticflickr.com/65535/49694224271_5cd931b908_n.jpg",
    "id_album": "-1862561193",
    "description": "KAWAII24032022050161",
    "title": "KAWAII24032022050161",
    "link_img": "https://live.staticflickr.com/65535/49694224271_c277df7afc_o.jpg",
    "id_image": "KAWAII24032022050161",
    "count_view": 0
  },
  {
    "link_thumb": "https://live.staticflickr.com/65535/49743232892_ca4857bffc_n.jpg",
    "id_album": "-1694302085",
    "description": "KAWAII060420214912302",
    "title": "KAWAII060420214912302",
    "link_img": "https://live.staticflickr.com/65535/49743232892_df46f0b288_o.jpg",
    "id_image": "KAWAII060420214912302",
    "count_view": 0
  },
  {
    "link_thumb": "https://live.staticflickr.com/65535/49693564863_d451c3d21c_n.jpg",
    "id_album": "1201366373",
    "description": "KAWAII170220223488",
    "title": "KAWAII170220223488",
    "link_img": "https://live.staticflickr.com/65535/49693564863_846111a703_o.jpg",
    "id_image": "KAWAII170220223488",
    "count_view": 0
  },
  {
    "link_thumb": "https://live.staticflickr.com/65535/49694421177_bd95152de0_n.jpg",
    "id_album": "1201366373",
    "description": "KAWAII17022023502",
    "title": "KAWAII17022023502",
    "link_img": "https://live.staticflickr.com/65535/49694421177_18922e9cb6_o.jpg",
    "id_image": "KAWAII17022023502",
    "count_view": 0
  },
  {
    "link_thumb": "https://live.staticflickr.com/65535/49548773511_f261cc3b03_n.jpg",
    "id_album": "-1741487325",
    "description": "KAWAII17091852",
    "title": "KAWAII17091852",
    "link_img": "https://live.staticflickr.com/65535/49548773511_eec13ffc04_o.jpg",
    "id_image": "KAWAII17091852",
    "count_view": 0
  },
  {
    "link_thumb": "https://live.staticflickr.com/65535/49592959667_2f7f2098df_n.jpg",
    "id_album": "-316663319",
    "description": "KAWAII270220235121",
    "title": "KAWAII270220235121",
    "link_img": "https://live.staticflickr.com/65535/49592959667_89894cfff3_o.jpg",
    "id_image": "KAWAII270220235121",
    "count_view": 0
  },
  {
    "link_thumb": "https://live.staticflickr.com/65535/49726922003_09f9b4733a_n.jpg",
    "id_album": "-1862561193",
    "description": "KAWAII020420194511181",
    "title": "KAWAII020420194511181",
    "link_img": "https://live.staticflickr.com/65535/49726922003_90a28cea06_o.jpg",
    "id_image": "KAWAII020420194511181",
    "count_view": 0
  },
  {
    "link_thumb": "https://live.staticflickr.com/65535/49548648206_fc77f7e2f5_n.jpg",
    "id_album": "1396902986",
    "description": "KAWAII1702202235130",
    "title": "KAWAII1702202235130",
    "link_img": "https://live.staticflickr.com/65535/49548648206_5d6c93a8e1_o.jpg",
    "id_image": "KAWAII1702202235130",
    "count_view": 0
  },
  {
    "link_thumb": "https://live.staticflickr.com/65535/49548615741_74846bdc3a_n.jpg",
    "id_album": "-316663319",
    "description": "KAWAII12091869",
    "title": "KAWAII12091869",
    "link_img": "https://live.staticflickr.com/65535/49548615741_5566937561_o.jpg",
    "id_image": "KAWAII12091869",
    "count_view": 0
  },
  {
    "link_thumb": "https://live.staticflickr.com/65535/49548634831_fa8b6bf488_n.jpg",
    "id_album": "-422187261",
    "description": "KAWAII170220223444",
    "title": "KAWAII170220223444",
    "link_img": "https://live.staticflickr.com/65535/49548634831_48fb7917fe_o.jpg",
    "id_image": "KAWAII170220223444",
    "count_view": 0
  },
  {
    "link_thumb": "https://live.staticflickr.com/65535/49694420347_b57abdc279_n.jpg",
    "id_album": "-643980979",
    "description": "KAWAII17022023468",
    "title": "KAWAII17022023468",
    "link_img": "https://live.staticflickr.com/65535/49694420347_5af6f65a0f_o.jpg",
    "id_image": "KAWAII17022023468",
    "count_view": 0
  },
  {
    "link_thumb": "https://live.staticflickr.com/65535/49726917603_404d3589cb_n.jpg",
    "id_album": "1396902986",
    "description": "KAWAII020420194511104",
    "title": "KAWAII020420194511104",
    "link_img": "https://live.staticflickr.com/65535/49726917603_3448c3a652_o.jpg",
    "id_image": "KAWAII020420194511104",
    "count_view": 0
  },
  {
    "link_thumb": "https://live.staticflickr.com/65535/49548913477_92e37deab5_n.jpg",
    "id_album": "-1432180061",
    "description": "KAWAII1702202237316",
    "title": "KAWAII1702202237316",
    "link_img": "https://live.staticflickr.com/65535/49548913477_c9c6ed692f_o.jpg",
    "id_image": "KAWAII1702202237316",
    "count_view": 0
  },
  {
    "link_thumb": "https://live.staticflickr.com/65535/49694092836_c5f7363490_n.jpg",
    "id_album": "1201366373",
    "description": "KAWAII120918225",
    "title": "KAWAII120918225",
    "link_img": "https://live.staticflickr.com/65535/49694092836_31f5c3c766_o.jpg",
    "id_image": "KAWAII120918225",
    "count_view": 0
  },
  {
    "link_thumb": "https://live.staticflickr.com/65535/49548159738_789b788be2_n.jpg",
    "id_album": "-1099943053",
    "description": "KAWAII1702202235193",
    "title": "KAWAII1702202235193",
    "link_img": "https://live.staticflickr.com/65535/49548159738_94d5a8132f_o.jpg",
    "id_image": "KAWAII1702202235193",
    "count_view": 0
  },
  {
    "link_thumb": "https://live.staticflickr.com/65535/49548738521_ccc056fc17_n.jpg",
    "id_album": "1396902986",
    "description": "KAWAII1702202239523",
    "title": "KAWAII1702202239523",
    "link_img": "https://live.staticflickr.com/65535/49548738521_371e61eabd_o.jpg",
    "id_image": "KAWAII1702202239523",
    "count_view": 0
  },
  {
    "link_thumb": "https://live.staticflickr.com/65535/49742912381_90edc266d6_n.jpg",
    "id_album": "-1741487325",
    "description": "KAWAII0604202149148",
    "title": "KAWAII0604202149148",
    "link_img": "https://live.staticflickr.com/65535/49742912381_80fe295221_o.jpg",
    "id_image": "KAWAII0604202149148",
    "count_view": 0
  },
  {
    "link_thumb": "https://live.staticflickr.com/65535/49548749751_e3fb6bdb31_n.jpg",
    "id_album": "-1099943053",
    "description": "KAWAII1702202239570",
    "title": "KAWAII1702202239570",
    "link_img": "https://live.staticflickr.com/65535/49548749751_d4c5b2a160_o.jpg",
    "id_image": "KAWAII1702202239570",
    "count_view": 0
  },
  {
    "link_thumb": "https://live.staticflickr.com/65535/49726905103_8e4ab5e108_n.jpg",
    "id_album": "742877173",
    "description": "KAWAII020420194514202",
    "title": "KAWAII020420194514202",
    "link_img": "https://live.staticflickr.com/65535/49726905103_1594caaa95_o.jpg",
    "id_image": "KAWAII020420194514202",
    "count_view": 0
  },
  {
    "link_thumb": "https://live.staticflickr.com/65535/49742915511_a4026f2a42_n.jpg",
    "id_album": "-1497779911",
    "description": "KAWAII060420214915314",
    "title": "KAWAII060420214915314",
    "link_img": "https://live.staticflickr.com/65535/49742915511_069aeb92a1_o.jpg",
    "id_image": "KAWAII060420214915314",
    "count_view": 0
  },
  {
    "link_thumb": "https://live.staticflickr.com/65535/49710286888_ae2ed877ff_n.jpg",
    "id_album": "-1599896063",
    "description": "LITTLEMONK2903201206349",
    "title": "LITTLEMONK2903201206349",
    "link_img": "https://live.staticflickr.com/65535/49710286888_b6549cc1db_o.jpg",
    "id_image": "LITTLEMONK2903201206349",
    "count_view": 0
  }
]